/store/mc/Run3Summer22NanoAODv12/DYto2L-2Jets_MLL-50_PTLL-400to600_2J_TuneCP5_13p6TeV_amcatnloFXFX-pythia8/NANOAODSIM/130X_mcRun3_2022_realistic_v5-v1/70000/4fcb0a32-1d16-441b-ad1d-b1496a7a4ea6.root
/store/mc/Run3Summer22NanoAODv12/DYto2L-2Jets_MLL-50_PTLL-400to600_2J_TuneCP5_13p6TeV_amcatnloFXFX-pythia8/NANOAODSIM/130X_mcRun3_2022_realistic_v5-v1/70000/b3997a6c-a606-43cd-b41d-ea205bfbfabc.root
/store/mc/Run3Summer22NanoAODv12/DYto2L-2Jets_MLL-50_PTLL-400to600_2J_TuneCP5_13p6TeV_amcatnloFXFX-pythia8/NANOAODSIM/130X_mcRun3_2022_realistic_v5-v1/70000/bcc16c6c-93e0-4782-a586-acaf0f333552.root
/store/mc/Run3Summer22NanoAODv12/DYto2L-2Jets_MLL-50_PTLL-400to600_2J_TuneCP5_13p6TeV_amcatnloFXFX-pythia8/NANOAODSIM/130X_mcRun3_2022_realistic_v5-v1/70000/86942ba1-222f-4454-b7a0-46993fbe66c8.root
/store/mc/Run3Summer22NanoAODv12/DYto2L-2Jets_MLL-50_PTLL-400to600_2J_TuneCP5_13p6TeV_amcatnloFXFX-pythia8/NANOAODSIM/130X_mcRun3_2022_realistic_v5-v1/70000/9af188c4-eb97-41dd-b41a-b469d65ea3a7.root
/store/mc/Run3Summer22NanoAODv12/DYto2L-2Jets_MLL-50_PTLL-400to600_2J_TuneCP5_13p6TeV_amcatnloFXFX-pythia8/NANOAODSIM/130X_mcRun3_2022_realistic_v5-v1/70000/335fcc87-02c9-42bf-a61b-ce942ce70e67.root
/store/mc/Run3Summer22NanoAODv12/DYto2L-2Jets_MLL-50_PTLL-400to600_2J_TuneCP5_13p6TeV_amcatnloFXFX-pythia8/NANOAODSIM/130X_mcRun3_2022_realistic_v5-v1/70000/4c9539fa-e60d-4a33-b6b9-9e41e5467fc7.root
/store/mc/Run3Summer22NanoAODv12/DYto2L-2Jets_MLL-50_PTLL-400to600_2J_TuneCP5_13p6TeV_amcatnloFXFX-pythia8/NANOAODSIM/130X_mcRun3_2022_realistic_v5-v1/70000/7f7a8fd8-a300-4213-80c7-e0983ed2286f.root
/store/mc/Run3Summer22NanoAODv12/DYto2L-2Jets_MLL-50_PTLL-400to600_2J_TuneCP5_13p6TeV_amcatnloFXFX-pythia8/NANOAODSIM/130X_mcRun3_2022_realistic_v5-v1/70000/dc837a29-62f6-4f8c-8ce0-1eea43e3ab4b.root
/store/mc/Run3Summer22NanoAODv12/DYto2L-2Jets_MLL-50_PTLL-400to600_2J_TuneCP5_13p6TeV_amcatnloFXFX-pythia8/NANOAODSIM/130X_mcRun3_2022_realistic_v5-v1/70000/65c057e2-e857-41b5-bdd1-9333e31b63d3.root
/store/mc/Run3Summer22NanoAODv12/DYto2L-2Jets_MLL-50_PTLL-400to600_2J_TuneCP5_13p6TeV_amcatnloFXFX-pythia8/NANOAODSIM/130X_mcRun3_2022_realistic_v5-v1/70000/55ac81c7-ae90-45f0-a82b-c25e5ad3ea4d.root
/store/mc/Run3Summer22NanoAODv12/DYto2L-2Jets_MLL-50_PTLL-400to600_2J_TuneCP5_13p6TeV_amcatnloFXFX-pythia8/NANOAODSIM/130X_mcRun3_2022_realistic_v5-v1/70000/d58e1fc5-9a63-4f91-ae3b-bbd53d62c509.root
/store/mc/Run3Summer22NanoAODv12/DYto2L-2Jets_MLL-50_PTLL-400to600_2J_TuneCP5_13p6TeV_amcatnloFXFX-pythia8/NANOAODSIM/130X_mcRun3_2022_realistic_v5-v1/70000/ff452bcf-6b40-4b09-9537-2b579d691db0.root
/store/mc/Run3Summer22NanoAODv12/DYto2L-2Jets_MLL-50_PTLL-400to600_2J_TuneCP5_13p6TeV_amcatnloFXFX-pythia8/NANOAODSIM/130X_mcRun3_2022_realistic_v5-v1/70000/5626113e-b184-4af0-8cbe-e4744d45c0b8.root
/store/mc/Run3Summer22NanoAODv12/DYto2L-2Jets_MLL-50_PTLL-400to600_2J_TuneCP5_13p6TeV_amcatnloFXFX-pythia8/NANOAODSIM/130X_mcRun3_2022_realistic_v5-v1/70000/88aa0152-7288-4ca2-a35b-ad941011dfa1.root
/store/mc/Run3Summer22NanoAODv12/DYto2L-2Jets_MLL-50_PTLL-400to600_2J_TuneCP5_13p6TeV_amcatnloFXFX-pythia8/NANOAODSIM/130X_mcRun3_2022_realistic_v5-v1/70000/0b18685b-5a66-443d-8134-b9946391782a.root
/store/mc/Run3Summer22NanoAODv12/DYto2L-2Jets_MLL-50_PTLL-400to600_2J_TuneCP5_13p6TeV_amcatnloFXFX-pythia8/NANOAODSIM/130X_mcRun3_2022_realistic_v5-v1/60000/88319c99-e6e4-49a4-be00-1146b665b200.root
/store/mc/Run3Summer22NanoAODv12/DYto2L-2Jets_MLL-50_PTLL-400to600_2J_TuneCP5_13p6TeV_amcatnloFXFX-pythia8/NANOAODSIM/130X_mcRun3_2022_realistic_v5-v1/60000/d70bc209-32cf-4970-82ab-5c2f3b27b3e5.root
/store/mc/Run3Summer22NanoAODv12/DYto2L-2Jets_MLL-50_PTLL-400to600_2J_TuneCP5_13p6TeV_amcatnloFXFX-pythia8/NANOAODSIM/130X_mcRun3_2022_realistic_v5-v1/60000/cd072ea2-d538-4122-b59b-c0f8b80adf0a.root
/store/mc/Run3Summer22NanoAODv12/DYto2L-2Jets_MLL-50_PTLL-400to600_2J_TuneCP5_13p6TeV_amcatnloFXFX-pythia8/NANOAODSIM/130X_mcRun3_2022_realistic_v5-v1/60000/4d0f724e-2049-4f5f-8657-10b48cedbdf5.root
/store/mc/Run3Summer22NanoAODv12/DYto2L-2Jets_MLL-50_PTLL-400to600_2J_TuneCP5_13p6TeV_amcatnloFXFX-pythia8/NANOAODSIM/130X_mcRun3_2022_realistic_v5-v1/60000/8a198b39-aff3-4e58-80ac-958a77cea44b.root
/store/mc/Run3Summer22NanoAODv12/DYto2L-2Jets_MLL-50_PTLL-400to600_2J_TuneCP5_13p6TeV_amcatnloFXFX-pythia8/NANOAODSIM/130X_mcRun3_2022_realistic_v5-v1/60000/7aa2cb12-e681-457c-833c-c0907474197c.root
/store/mc/Run3Summer22NanoAODv12/DYto2L-2Jets_MLL-50_PTLL-400to600_2J_TuneCP5_13p6TeV_amcatnloFXFX-pythia8/NANOAODSIM/130X_mcRun3_2022_realistic_v5-v1/60000/890e2a3a-e35a-4d5e-93ea-d1fdbe6f87e2.root
/store/mc/Run3Summer22NanoAODv12/DYto2L-2Jets_MLL-50_PTLL-400to600_2J_TuneCP5_13p6TeV_amcatnloFXFX-pythia8/NANOAODSIM/130X_mcRun3_2022_realistic_v5-v1/60000/ddacd92e-b100-4360-84ef-0fdb06fcb4aa.root
/store/mc/Run3Summer22NanoAODv12/DYto2L-2Jets_MLL-50_PTLL-400to600_2J_TuneCP5_13p6TeV_amcatnloFXFX-pythia8/NANOAODSIM/130X_mcRun3_2022_realistic_v5-v1/60000/37987ea6-3b80-459e-b01f-d5d5b2bf314c.root
/store/mc/Run3Summer22NanoAODv12/DYto2L-2Jets_MLL-50_PTLL-400to600_2J_TuneCP5_13p6TeV_amcatnloFXFX-pythia8/NANOAODSIM/130X_mcRun3_2022_realistic_v5-v1/60000/50b7cb75-56e1-41c8-a234-93106243e8d0.root
/store/mc/Run3Summer22NanoAODv12/DYto2L-2Jets_MLL-50_PTLL-400to600_2J_TuneCP5_13p6TeV_amcatnloFXFX-pythia8/NANOAODSIM/130X_mcRun3_2022_realistic_v5-v1/60000/f1f54b98-5dd0-4624-81f2-407dbbf64403.root