/store/mc/Run3Summer22NanoAODv12/DYto2L-2Jets_MLL-50_2J_TuneCP5_13p6TeV_amcatnloFXFX-pythia8/NANOAODSIM/130X_mcRun3_2022_realistic_v5-v2/50000/7145d3a8-055e-4c75-af60-b1ec8cef4895.root
/store/mc/Run3Summer22NanoAODv12/DYto2L-2Jets_MLL-50_2J_TuneCP5_13p6TeV_amcatnloFXFX-pythia8/NANOAODSIM/130X_mcRun3_2022_realistic_v5-v2/50000/8e7c77df-ba35-4e46-9293-0f53d7029e2a.root
/store/mc/Run3Summer22NanoAODv12/DYto2L-2Jets_MLL-50_2J_TuneCP5_13p6TeV_amcatnloFXFX-pythia8/NANOAODSIM/130X_mcRun3_2022_realistic_v5-v2/40000/b09e3f6a-0711-4c4d-8679-c91c11447759.root
/store/mc/Run3Summer22NanoAODv12/DYto2L-2Jets_MLL-50_2J_TuneCP5_13p6TeV_amcatnloFXFX-pythia8/NANOAODSIM/130X_mcRun3_2022_realistic_v5-v2/40000/2c4fa640-ce4c-4ef0-8944-97caf0a92aeb.root
/store/mc/Run3Summer22NanoAODv12/DYto2L-2Jets_MLL-50_2J_TuneCP5_13p6TeV_amcatnloFXFX-pythia8/NANOAODSIM/130X_mcRun3_2022_realistic_v5-v2/40000/7e2c6ce4-fb55-4c26-978f-5c2a38b1f930.root
/store/mc/Run3Summer22NanoAODv12/DYto2L-2Jets_MLL-50_2J_TuneCP5_13p6TeV_amcatnloFXFX-pythia8/NANOAODSIM/130X_mcRun3_2022_realistic_v5-v2/40000/e440c476-7353-4cd0-b0bf-a2d8bf319d4f.root
/store/mc/Run3Summer22NanoAODv12/DYto2L-2Jets_MLL-50_2J_TuneCP5_13p6TeV_amcatnloFXFX-pythia8/NANOAODSIM/130X_mcRun3_2022_realistic_v5-v2/40000/ef8439e6-e935-4490-b326-2aa6bec85932.root
/store/mc/Run3Summer22NanoAODv12/DYto2L-2Jets_MLL-50_2J_TuneCP5_13p6TeV_amcatnloFXFX-pythia8/NANOAODSIM/130X_mcRun3_2022_realistic_v5-v2/40000/cc7ca8d9-5bea-42e0-bed3-e22b3c2413c1.root
/store/mc/Run3Summer22NanoAODv12/DYto2L-2Jets_MLL-50_2J_TuneCP5_13p6TeV_amcatnloFXFX-pythia8/NANOAODSIM/130X_mcRun3_2022_realistic_v5-v2/40000/66649859-1832-484f-a03b-20c4ffd5e331.root
/store/mc/Run3Summer22NanoAODv12/DYto2L-2Jets_MLL-50_2J_TuneCP5_13p6TeV_amcatnloFXFX-pythia8/NANOAODSIM/130X_mcRun3_2022_realistic_v5-v2/40000/bb6ff10a-5bd9-4788-aa20-4b9eb92da8ea.root
/store/mc/Run3Summer22NanoAODv12/DYto2L-2Jets_MLL-50_2J_TuneCP5_13p6TeV_amcatnloFXFX-pythia8/NANOAODSIM/130X_mcRun3_2022_realistic_v5-v2/40000/5228a3e0-2059-485e-b2db-397d4cce1b3e.root
/store/mc/Run3Summer22NanoAODv12/DYto2L-2Jets_MLL-50_2J_TuneCP5_13p6TeV_amcatnloFXFX-pythia8/NANOAODSIM/130X_mcRun3_2022_realistic_v5-v2/40000/46753836-1d63-4e1f-8d5e-1231e8198156.root
/store/mc/Run3Summer22NanoAODv12/DYto2L-2Jets_MLL-50_2J_TuneCP5_13p6TeV_amcatnloFXFX-pythia8/NANOAODSIM/130X_mcRun3_2022_realistic_v5-v2/2520000/adcb239c-cd9e-4e38-a6a4-fd5b872e85fc.root
/store/mc/Run3Summer22NanoAODv12/DYto2L-2Jets_MLL-50_2J_TuneCP5_13p6TeV_amcatnloFXFX-pythia8/NANOAODSIM/130X_mcRun3_2022_realistic_v5-v2/2520000/6198f164-c72b-455c-910b-039be6c55867.root
/store/mc/Run3Summer22NanoAODv12/DYto2L-2Jets_MLL-50_2J_TuneCP5_13p6TeV_amcatnloFXFX-pythia8/NANOAODSIM/130X_mcRun3_2022_realistic_v5-v2/30000/3d973682-615d-4869-b79b-15a3eaa2b7a8.root
/store/mc/Run3Summer22NanoAODv12/DYto2L-2Jets_MLL-50_2J_TuneCP5_13p6TeV_amcatnloFXFX-pythia8/NANOAODSIM/130X_mcRun3_2022_realistic_v5-v2/30000/a825be42-6b29-4be4-99de-35cc3dbc7094.root
/store/mc/Run3Summer22NanoAODv12/DYto2L-2Jets_MLL-50_2J_TuneCP5_13p6TeV_amcatnloFXFX-pythia8/NANOAODSIM/130X_mcRun3_2022_realistic_v5-v2/40000/d39c1b9d-53d3-47d7-ad94-9f5d81b36062.root
/store/mc/Run3Summer22NanoAODv12/DYto2L-2Jets_MLL-50_2J_TuneCP5_13p6TeV_amcatnloFXFX-pythia8/NANOAODSIM/130X_mcRun3_2022_realistic_v5-v2/40000/110fd742-0cd0-4da9-af02-72e4bc69e4a9.root
/store/mc/Run3Summer22NanoAODv12/DYto2L-2Jets_MLL-50_2J_TuneCP5_13p6TeV_amcatnloFXFX-pythia8/NANOAODSIM/130X_mcRun3_2022_realistic_v5-v2/40000/db3c09df-c2d1-4eef-b8b7-19bf49512646.root
/store/mc/Run3Summer22NanoAODv12/DYto2L-2Jets_MLL-50_2J_TuneCP5_13p6TeV_amcatnloFXFX-pythia8/NANOAODSIM/130X_mcRun3_2022_realistic_v5-v2/40000/e135a1b3-28fb-4200-83ca-a905525d00c0.root
/store/mc/Run3Summer22NanoAODv12/DYto2L-2Jets_MLL-50_2J_TuneCP5_13p6TeV_amcatnloFXFX-pythia8/NANOAODSIM/130X_mcRun3_2022_realistic_v5-v2/40000/3765ca70-0e15-4ccb-b933-c244842b72e0.root
/store/mc/Run3Summer22NanoAODv12/DYto2L-2Jets_MLL-50_2J_TuneCP5_13p6TeV_amcatnloFXFX-pythia8/NANOAODSIM/130X_mcRun3_2022_realistic_v5-v2/40000/d0aa78d6-8940-483b-b655-99f7537b0674.root
/store/mc/Run3Summer22NanoAODv12/DYto2L-2Jets_MLL-50_2J_TuneCP5_13p6TeV_amcatnloFXFX-pythia8/NANOAODSIM/130X_mcRun3_2022_realistic_v5-v2/40000/9d9c5223-5580-49a1-aa3a-a292e5fe3e6c.root
/store/mc/Run3Summer22NanoAODv12/DYto2L-2Jets_MLL-50_2J_TuneCP5_13p6TeV_amcatnloFXFX-pythia8/NANOAODSIM/130X_mcRun3_2022_realistic_v5-v2/40000/f0a75833-7f8f-4d4d-bb72-0ea68048fce3.root
/store/mc/Run3Summer22NanoAODv12/DYto2L-2Jets_MLL-50_2J_TuneCP5_13p6TeV_amcatnloFXFX-pythia8/NANOAODSIM/130X_mcRun3_2022_realistic_v5-v2/40000/46022514-1504-4cb0-9cc7-4796e7589c2a.root
/store/mc/Run3Summer22NanoAODv12/DYto2L-2Jets_MLL-50_2J_TuneCP5_13p6TeV_amcatnloFXFX-pythia8/NANOAODSIM/130X_mcRun3_2022_realistic_v5-v2/40000/36ad4380-7c6c-4fd1-8526-4536f71ad7b4.root
/store/mc/Run3Summer22NanoAODv12/DYto2L-2Jets_MLL-50_2J_TuneCP5_13p6TeV_amcatnloFXFX-pythia8/NANOAODSIM/130X_mcRun3_2022_realistic_v5-v2/40000/b7a6848c-39f2-4b2a-afe5-7592c0ad3dbc.root
/store/mc/Run3Summer22NanoAODv12/DYto2L-2Jets_MLL-50_2J_TuneCP5_13p6TeV_amcatnloFXFX-pythia8/NANOAODSIM/130X_mcRun3_2022_realistic_v5-v2/40000/f32b7929-5817-40a0-8bb3-6cd254f36192.root
/store/mc/Run3Summer22NanoAODv12/DYto2L-2Jets_MLL-50_2J_TuneCP5_13p6TeV_amcatnloFXFX-pythia8/NANOAODSIM/130X_mcRun3_2022_realistic_v5-v2/40000/19b7e500-3f23-40d7-bf33-f93edd4d82cd.root
/store/mc/Run3Summer22NanoAODv12/DYto2L-2Jets_MLL-50_2J_TuneCP5_13p6TeV_amcatnloFXFX-pythia8/NANOAODSIM/130X_mcRun3_2022_realistic_v5-v2/40000/090371de-5472-4915-8015-cb7384a3756f.root
/store/mc/Run3Summer22NanoAODv12/DYto2L-2Jets_MLL-50_2J_TuneCP5_13p6TeV_amcatnloFXFX-pythia8/NANOAODSIM/130X_mcRun3_2022_realistic_v5-v2/50000/ed1e7b43-d707-49ec-ae07-e64b15b86250.root
/store/mc/Run3Summer22NanoAODv12/DYto2L-2Jets_MLL-50_2J_TuneCP5_13p6TeV_amcatnloFXFX-pythia8/NANOAODSIM/130X_mcRun3_2022_realistic_v5-v2/40000/0cbb358c-adc2-4970-b0ad-18b9a9b5872f.root
/store/mc/Run3Summer22NanoAODv12/DYto2L-2Jets_MLL-50_2J_TuneCP5_13p6TeV_amcatnloFXFX-pythia8/NANOAODSIM/130X_mcRun3_2022_realistic_v5-v2/40000/5de788e2-d0b3-447d-8559-ad3e44fcb1df.root
/store/mc/Run3Summer22NanoAODv12/DYto2L-2Jets_MLL-50_2J_TuneCP5_13p6TeV_amcatnloFXFX-pythia8/NANOAODSIM/130X_mcRun3_2022_realistic_v5-v2/40000/b5183ca8-9056-463f-9e9e-4e5dbc3f8e09.root
/store/mc/Run3Summer22NanoAODv12/DYto2L-2Jets_MLL-50_2J_TuneCP5_13p6TeV_amcatnloFXFX-pythia8/NANOAODSIM/130X_mcRun3_2022_realistic_v5-v2/40000/1b4ee66b-6e96-4b9e-a102-965f80592b86.root
/store/mc/Run3Summer22NanoAODv12/DYto2L-2Jets_MLL-50_2J_TuneCP5_13p6TeV_amcatnloFXFX-pythia8/NANOAODSIM/130X_mcRun3_2022_realistic_v5-v2/2540000/eb32858b-c9ad-40bb-bb36-677fac612b6b.root
/store/mc/Run3Summer22NanoAODv12/DYto2L-2Jets_MLL-50_2J_TuneCP5_13p6TeV_amcatnloFXFX-pythia8/NANOAODSIM/130X_mcRun3_2022_realistic_v5-v2/2540000/a838a076-fd0f-496c-9b7d-b3ca73efc98f.root
/store/mc/Run3Summer22NanoAODv12/DYto2L-2Jets_MLL-50_2J_TuneCP5_13p6TeV_amcatnloFXFX-pythia8/NANOAODSIM/130X_mcRun3_2022_realistic_v5-v2/50000/17026dd4-5ee8-472c-bc0e-5310d8018f11.root
/store/mc/Run3Summer22NanoAODv12/DYto2L-2Jets_MLL-50_2J_TuneCP5_13p6TeV_amcatnloFXFX-pythia8/NANOAODSIM/130X_mcRun3_2022_realistic_v5-v2/40000/c5a6c422-ec64-4b99-acb3-85f26e57ffc6.root
/store/mc/Run3Summer22NanoAODv12/DYto2L-2Jets_MLL-50_2J_TuneCP5_13p6TeV_amcatnloFXFX-pythia8/NANOAODSIM/130X_mcRun3_2022_realistic_v5-v2/40000/de02a01f-6071-42ba-b470-32a12fcf7ab8.root
/store/mc/Run3Summer22NanoAODv12/DYto2L-2Jets_MLL-50_2J_TuneCP5_13p6TeV_amcatnloFXFX-pythia8/NANOAODSIM/130X_mcRun3_2022_realistic_v5-v2/30000/a7244a74-1f94-4206-85a8-f0c6ff09b7d0.root
/store/mc/Run3Summer22NanoAODv12/DYto2L-2Jets_MLL-50_2J_TuneCP5_13p6TeV_amcatnloFXFX-pythia8/NANOAODSIM/130X_mcRun3_2022_realistic_v5-v2/40000/4283cd33-e99d-4a2e-a00b-edbc8f58214d.root
/store/mc/Run3Summer22NanoAODv12/DYto2L-2Jets_MLL-50_2J_TuneCP5_13p6TeV_amcatnloFXFX-pythia8/NANOAODSIM/130X_mcRun3_2022_realistic_v5-v2/40000/9cc9a403-4411-436b-8404-6dc63f661c42.root
/store/mc/Run3Summer22NanoAODv12/DYto2L-2Jets_MLL-50_2J_TuneCP5_13p6TeV_amcatnloFXFX-pythia8/NANOAODSIM/130X_mcRun3_2022_realistic_v5-v2/40000/ac79e721-3eae-4654-9dc4-cee71c8a5fec.root
/store/mc/Run3Summer22NanoAODv12/DYto2L-2Jets_MLL-50_2J_TuneCP5_13p6TeV_amcatnloFXFX-pythia8/NANOAODSIM/130X_mcRun3_2022_realistic_v5-v2/40000/3d742c9f-85fc-4d4b-a709-94b16baa1d06.root
/store/mc/Run3Summer22NanoAODv12/DYto2L-2Jets_MLL-50_2J_TuneCP5_13p6TeV_amcatnloFXFX-pythia8/NANOAODSIM/130X_mcRun3_2022_realistic_v5-v2/50000/ea884e75-2ba9-4f80-a141-72069eef09b9.root
/store/mc/Run3Summer22NanoAODv12/DYto2L-2Jets_MLL-50_2J_TuneCP5_13p6TeV_amcatnloFXFX-pythia8/NANOAODSIM/130X_mcRun3_2022_realistic_v5-v2/50000/0f2f8c79-288a-47e2-85a6-9a1b3c4dc276.root
/store/mc/Run3Summer22NanoAODv12/DYto2L-2Jets_MLL-50_2J_TuneCP5_13p6TeV_amcatnloFXFX-pythia8/NANOAODSIM/130X_mcRun3_2022_realistic_v5-v2/50000/576ed150-b78c-4494-9eec-45c864038012.root
/store/mc/Run3Summer22NanoAODv12/DYto2L-2Jets_MLL-50_2J_TuneCP5_13p6TeV_amcatnloFXFX-pythia8/NANOAODSIM/130X_mcRun3_2022_realistic_v5-v2/50000/b2249bae-41bc-4363-ba94-860aa772d84e.root
/store/mc/Run3Summer22NanoAODv12/DYto2L-2Jets_MLL-50_2J_TuneCP5_13p6TeV_amcatnloFXFX-pythia8/NANOAODSIM/130X_mcRun3_2022_realistic_v5-v2/50000/b1e308a6-fd26-4dd3-9569-bc53ff9e9c5c.root
/store/mc/Run3Summer22NanoAODv12/DYto2L-2Jets_MLL-50_2J_TuneCP5_13p6TeV_amcatnloFXFX-pythia8/NANOAODSIM/130X_mcRun3_2022_realistic_v5-v2/40000/95716f83-ed46-444d-a81b-96cecc44cc4b.root
/store/mc/Run3Summer22NanoAODv12/DYto2L-2Jets_MLL-50_2J_TuneCP5_13p6TeV_amcatnloFXFX-pythia8/NANOAODSIM/130X_mcRun3_2022_realistic_v5-v2/2540000/64117519-dfa6-40e6-a696-e0a0b8e6f30b.root
/store/mc/Run3Summer22NanoAODv12/DYto2L-2Jets_MLL-50_2J_TuneCP5_13p6TeV_amcatnloFXFX-pythia8/NANOAODSIM/130X_mcRun3_2022_realistic_v5-v2/30000/5944b31e-2e27-4241-b4f7-65a9c2eddabd.root
/store/mc/Run3Summer22NanoAODv12/DYto2L-2Jets_MLL-50_2J_TuneCP5_13p6TeV_amcatnloFXFX-pythia8/NANOAODSIM/130X_mcRun3_2022_realistic_v5-v2/30000/077b662e-e6b7-4cdb-ab04-d8136f2deff6.root
/store/mc/Run3Summer22NanoAODv12/DYto2L-2Jets_MLL-50_2J_TuneCP5_13p6TeV_amcatnloFXFX-pythia8/NANOAODSIM/130X_mcRun3_2022_realistic_v5-v2/50000/4cb4adda-0fed-49d9-97c0-360120fdf10d.root
/store/mc/Run3Summer22NanoAODv12/DYto2L-2Jets_MLL-50_2J_TuneCP5_13p6TeV_amcatnloFXFX-pythia8/NANOAODSIM/130X_mcRun3_2022_realistic_v5-v2/50000/b98e9f51-e33d-40b5-81f9-614fbb3a8ab3.root
/store/mc/Run3Summer22NanoAODv12/DYto2L-2Jets_MLL-50_2J_TuneCP5_13p6TeV_amcatnloFXFX-pythia8/NANOAODSIM/130X_mcRun3_2022_realistic_v5-v2/50000/9b405e22-d24f-44a6-be7d-fdd535c50564.root
/store/mc/Run3Summer22NanoAODv12/DYto2L-2Jets_MLL-50_2J_TuneCP5_13p6TeV_amcatnloFXFX-pythia8/NANOAODSIM/130X_mcRun3_2022_realistic_v5-v2/50000/1cfd64c9-ff1f-4a18-8137-f0a3b14f4ffe.root
/store/mc/Run3Summer22NanoAODv12/DYto2L-2Jets_MLL-50_2J_TuneCP5_13p6TeV_amcatnloFXFX-pythia8/NANOAODSIM/130X_mcRun3_2022_realistic_v5-v2/50000/8d66f693-f2e9-40ee-9700-40478fcbf8c4.root
/store/mc/Run3Summer22NanoAODv12/DYto2L-2Jets_MLL-50_2J_TuneCP5_13p6TeV_amcatnloFXFX-pythia8/NANOAODSIM/130X_mcRun3_2022_realistic_v5-v2/30000/316a0a7a-2ad5-4848-89fd-683e9588c5dc.root
/store/mc/Run3Summer22NanoAODv12/DYto2L-2Jets_MLL-50_2J_TuneCP5_13p6TeV_amcatnloFXFX-pythia8/NANOAODSIM/130X_mcRun3_2022_realistic_v5-v2/30000/f7f1efc4-2090-42cf-8ff9-796c1cb31981.root
/store/mc/Run3Summer22NanoAODv12/DYto2L-2Jets_MLL-50_2J_TuneCP5_13p6TeV_amcatnloFXFX-pythia8/NANOAODSIM/130X_mcRun3_2022_realistic_v5-v2/40000/82d16c56-eadd-461b-8077-046dff289eec.root
/store/mc/Run3Summer22NanoAODv12/DYto2L-2Jets_MLL-50_2J_TuneCP5_13p6TeV_amcatnloFXFX-pythia8/NANOAODSIM/130X_mcRun3_2022_realistic_v5-v2/40000/b708fd56-dab8-42ab-b91e-69ca8766cbca.root
/store/mc/Run3Summer22NanoAODv12/DYto2L-2Jets_MLL-50_2J_TuneCP5_13p6TeV_amcatnloFXFX-pythia8/NANOAODSIM/130X_mcRun3_2022_realistic_v5-v2/40000/c4e2f874-ee86-40c2-be36-82e4baa605d1.root
/store/mc/Run3Summer22NanoAODv12/DYto2L-2Jets_MLL-50_2J_TuneCP5_13p6TeV_amcatnloFXFX-pythia8/NANOAODSIM/130X_mcRun3_2022_realistic_v5-v2/2540000/fd411496-3e5c-4510-b48d-96ceadd36229.root
/store/mc/Run3Summer22NanoAODv12/DYto2L-2Jets_MLL-50_2J_TuneCP5_13p6TeV_amcatnloFXFX-pythia8/NANOAODSIM/130X_mcRun3_2022_realistic_v5-v2/40000/7236c598-c998-4e9b-a25e-b3305abd3b15.root
/store/mc/Run3Summer22NanoAODv12/DYto2L-2Jets_MLL-50_2J_TuneCP5_13p6TeV_amcatnloFXFX-pythia8/NANOAODSIM/130X_mcRun3_2022_realistic_v5-v2/40000/e8f3e7fc-21a9-487c-96ce-3e24b558ad14.root
/store/mc/Run3Summer22NanoAODv12/DYto2L-2Jets_MLL-50_2J_TuneCP5_13p6TeV_amcatnloFXFX-pythia8/NANOAODSIM/130X_mcRun3_2022_realistic_v5-v2/50000/d4ed98da-1553-4bc9-a4f7-aecde930c7e5.root
/store/mc/Run3Summer22NanoAODv12/DYto2L-2Jets_MLL-50_2J_TuneCP5_13p6TeV_amcatnloFXFX-pythia8/NANOAODSIM/130X_mcRun3_2022_realistic_v5-v2/30000/09149d0c-fc51-4745-b50e-2b28ed60874f.root
/store/mc/Run3Summer22NanoAODv12/DYto2L-2Jets_MLL-50_2J_TuneCP5_13p6TeV_amcatnloFXFX-pythia8/NANOAODSIM/130X_mcRun3_2022_realistic_v5-v2/2530000/f9b508c6-4e91-4320-b716-a6ed921341af.root
/store/mc/Run3Summer22NanoAODv12/DYto2L-2Jets_MLL-50_2J_TuneCP5_13p6TeV_amcatnloFXFX-pythia8/NANOAODSIM/130X_mcRun3_2022_realistic_v5-v2/2530000/aedf9a17-57a7-4c40-b94a-98f1f75b320d.root
/store/mc/Run3Summer22NanoAODv12/DYto2L-2Jets_MLL-50_2J_TuneCP5_13p6TeV_amcatnloFXFX-pythia8/NANOAODSIM/130X_mcRun3_2022_realistic_v5-v2/30000/422c6ee1-93a0-4d65-91d7-17df3c613d99.root
/store/mc/Run3Summer22NanoAODv12/DYto2L-2Jets_MLL-50_2J_TuneCP5_13p6TeV_amcatnloFXFX-pythia8/NANOAODSIM/130X_mcRun3_2022_realistic_v5-v2/30000/12078ee6-bf0f-4a4d-8145-1f9f30c3daa2.root
/store/mc/Run3Summer22NanoAODv12/DYto2L-2Jets_MLL-50_2J_TuneCP5_13p6TeV_amcatnloFXFX-pythia8/NANOAODSIM/130X_mcRun3_2022_realistic_v5-v2/30000/77415b0f-e1eb-4960-bbb8-98dca1527b50.root
/store/mc/Run3Summer22NanoAODv12/DYto2L-2Jets_MLL-50_2J_TuneCP5_13p6TeV_amcatnloFXFX-pythia8/NANOAODSIM/130X_mcRun3_2022_realistic_v5-v2/30000/444a4555-4883-4bac-8875-2c415cc73b3f.root
/store/mc/Run3Summer22NanoAODv12/DYto2L-2Jets_MLL-50_2J_TuneCP5_13p6TeV_amcatnloFXFX-pythia8/NANOAODSIM/130X_mcRun3_2022_realistic_v5-v2/30000/058b6f26-f109-40f4-99d7-3c7b84feccb9.root
/store/mc/Run3Summer22NanoAODv12/DYto2L-2Jets_MLL-50_2J_TuneCP5_13p6TeV_amcatnloFXFX-pythia8/NANOAODSIM/130X_mcRun3_2022_realistic_v5-v2/30000/1251b093-d606-4919-b648-4875fdef1085.root
/store/mc/Run3Summer22NanoAODv12/DYto2L-2Jets_MLL-50_2J_TuneCP5_13p6TeV_amcatnloFXFX-pythia8/NANOAODSIM/130X_mcRun3_2022_realistic_v5-v2/30000/7d8119ba-3c75-405b-b84a-7ab983031091.root
/store/mc/Run3Summer22NanoAODv12/DYto2L-2Jets_MLL-50_2J_TuneCP5_13p6TeV_amcatnloFXFX-pythia8/NANOAODSIM/130X_mcRun3_2022_realistic_v5-v2/30000/e4205d73-c9da-4526-bfdc-44ccc91128d1.root
/store/mc/Run3Summer22NanoAODv12/DYto2L-2Jets_MLL-50_2J_TuneCP5_13p6TeV_amcatnloFXFX-pythia8/NANOAODSIM/130X_mcRun3_2022_realistic_v5-v2/30000/6bb9dff6-903e-4c90-92bc-ffdf72f8fade.root
/store/mc/Run3Summer22NanoAODv12/DYto2L-2Jets_MLL-50_2J_TuneCP5_13p6TeV_amcatnloFXFX-pythia8/NANOAODSIM/130X_mcRun3_2022_realistic_v5-v2/30000/7f7d4c3b-5632-44fe-814e-f77aff070a73.root
/store/mc/Run3Summer22NanoAODv12/DYto2L-2Jets_MLL-50_2J_TuneCP5_13p6TeV_amcatnloFXFX-pythia8/NANOAODSIM/130X_mcRun3_2022_realistic_v5-v2/30000/b8c43ed2-7fd4-443b-8794-49432229e992.root
/store/mc/Run3Summer22NanoAODv12/DYto2L-2Jets_MLL-50_2J_TuneCP5_13p6TeV_amcatnloFXFX-pythia8/NANOAODSIM/130X_mcRun3_2022_realistic_v5-v2/50000/5c002255-5a1b-4b98-9593-ac2d65c80815.root
/store/mc/Run3Summer22NanoAODv12/DYto2L-2Jets_MLL-50_2J_TuneCP5_13p6TeV_amcatnloFXFX-pythia8/NANOAODSIM/130X_mcRun3_2022_realistic_v5-v2/30000/e252c096-d95d-44cc-ba4c-b00bdc21be9b.root
/store/mc/Run3Summer22NanoAODv12/DYto2L-2Jets_MLL-50_2J_TuneCP5_13p6TeV_amcatnloFXFX-pythia8/NANOAODSIM/130X_mcRun3_2022_realistic_v5-v2/40000/29bc11c1-7714-4442-bd54-a27c4047b483.root
/store/mc/Run3Summer22NanoAODv12/DYto2L-2Jets_MLL-50_2J_TuneCP5_13p6TeV_amcatnloFXFX-pythia8/NANOAODSIM/130X_mcRun3_2022_realistic_v5-v2/40000/c96cbdde-8170-4c68-8700-338ba6663819.root
/store/mc/Run3Summer22NanoAODv12/DYto2L-2Jets_MLL-50_2J_TuneCP5_13p6TeV_amcatnloFXFX-pythia8/NANOAODSIM/130X_mcRun3_2022_realistic_v5-v2/40000/b99dae34-e8ea-4aa1-a203-fedebd4938d2.root
/store/mc/Run3Summer22NanoAODv12/DYto2L-2Jets_MLL-50_2J_TuneCP5_13p6TeV_amcatnloFXFX-pythia8/NANOAODSIM/130X_mcRun3_2022_realistic_v5-v2/2520000/89aa4818-d9ef-4a73-8a08-a2c5b645edce.root
/store/mc/Run3Summer22NanoAODv12/DYto2L-2Jets_MLL-50_2J_TuneCP5_13p6TeV_amcatnloFXFX-pythia8/NANOAODSIM/130X_mcRun3_2022_realistic_v5-v2/2520000/77cf5594-51f2-4f9d-9703-0e1e673ddfee.root
/store/mc/Run3Summer22NanoAODv12/DYto2L-2Jets_MLL-50_2J_TuneCP5_13p6TeV_amcatnloFXFX-pythia8/NANOAODSIM/130X_mcRun3_2022_realistic_v5-v2/40000/596d95e0-93d9-4296-b114-69eae0e7e4d1.root
/store/mc/Run3Summer22NanoAODv12/DYto2L-2Jets_MLL-50_2J_TuneCP5_13p6TeV_amcatnloFXFX-pythia8/NANOAODSIM/130X_mcRun3_2022_realistic_v5-v2/50000/0656a409-3018-40b2-9057-00713e028447.root
/store/mc/Run3Summer22NanoAODv12/DYto2L-2Jets_MLL-50_2J_TuneCP5_13p6TeV_amcatnloFXFX-pythia8/NANOAODSIM/130X_mcRun3_2022_realistic_v5-v2/2530000/3fc0ec42-6fea-42d8-a998-2bc94c218639.root
/store/mc/Run3Summer22NanoAODv12/DYto2L-2Jets_MLL-50_2J_TuneCP5_13p6TeV_amcatnloFXFX-pythia8/NANOAODSIM/130X_mcRun3_2022_realistic_v5-v2/2540000/5b3bce3e-30bd-4e50-8531-54a930f3ed88.root
/store/mc/Run3Summer22NanoAODv12/DYto2L-2Jets_MLL-50_2J_TuneCP5_13p6TeV_amcatnloFXFX-pythia8/NANOAODSIM/130X_mcRun3_2022_realistic_v5-v2/40000/47907357-c64e-48fb-8ac0-937e5574163e.root
/store/mc/Run3Summer22NanoAODv12/DYto2L-2Jets_MLL-50_2J_TuneCP5_13p6TeV_amcatnloFXFX-pythia8/NANOAODSIM/130X_mcRun3_2022_realistic_v5-v2/40000/e4273a56-0d82-4aa3-b531-e67ceb322e43.root
/store/mc/Run3Summer22NanoAODv12/DYto2L-2Jets_MLL-50_2J_TuneCP5_13p6TeV_amcatnloFXFX-pythia8/NANOAODSIM/130X_mcRun3_2022_realistic_v5-v2/2520000/e7d4b15f-dc11-4987-94ba-eb2f48246f6a.root
/store/mc/Run3Summer22NanoAODv12/DYto2L-2Jets_MLL-50_2J_TuneCP5_13p6TeV_amcatnloFXFX-pythia8/NANOAODSIM/130X_mcRun3_2022_realistic_v5-v2/2520000/06dca0ca-4905-4233-9cac-0d01513cb488.root
/store/mc/Run3Summer22NanoAODv12/DYto2L-2Jets_MLL-50_2J_TuneCP5_13p6TeV_amcatnloFXFX-pythia8/NANOAODSIM/130X_mcRun3_2022_realistic_v5-v2/2520000/6a8b04f5-4687-4525-9915-8d93d7f06079.root
/store/mc/Run3Summer22NanoAODv12/DYto2L-2Jets_MLL-50_2J_TuneCP5_13p6TeV_amcatnloFXFX-pythia8/NANOAODSIM/130X_mcRun3_2022_realistic_v5-v2/40000/caa0dbb6-42f5-46ed-8e39-f76c5edb3c1d.root
/store/mc/Run3Summer22NanoAODv12/DYto2L-2Jets_MLL-50_2J_TuneCP5_13p6TeV_amcatnloFXFX-pythia8/NANOAODSIM/130X_mcRun3_2022_realistic_v5-v2/30000/cc9b6f3c-9895-4dc9-aecc-442114d91005.root
/store/mc/Run3Summer22NanoAODv12/DYto2L-2Jets_MLL-50_2J_TuneCP5_13p6TeV_amcatnloFXFX-pythia8/NANOAODSIM/130X_mcRun3_2022_realistic_v5-v2/30000/731efe06-aa82-4f47-b2d9-df2ffca9fa08.root
/store/mc/Run3Summer22NanoAODv12/DYto2L-2Jets_MLL-50_2J_TuneCP5_13p6TeV_amcatnloFXFX-pythia8/NANOAODSIM/130X_mcRun3_2022_realistic_v5-v2/30000/7dd59ff0-a669-4b98-a833-0720e8835da4.root
/store/mc/Run3Summer22NanoAODv12/DYto2L-2Jets_MLL-50_2J_TuneCP5_13p6TeV_amcatnloFXFX-pythia8/NANOAODSIM/130X_mcRun3_2022_realistic_v5-v2/30000/9069ba89-ccf9-4599-a3eb-44bb8e3a9dc1.root
/store/mc/Run3Summer22NanoAODv12/DYto2L-2Jets_MLL-50_2J_TuneCP5_13p6TeV_amcatnloFXFX-pythia8/NANOAODSIM/130X_mcRun3_2022_realistic_v5-v2/50000/20a7af59-665a-4916-9b3d-36a31ba6d0ef.root
/store/mc/Run3Summer22NanoAODv12/DYto2L-2Jets_MLL-50_2J_TuneCP5_13p6TeV_amcatnloFXFX-pythia8/NANOAODSIM/130X_mcRun3_2022_realistic_v5-v2/50000/725cc3c2-1f29-441a-aa32-6396a0bd828e.root
/store/mc/Run3Summer22NanoAODv12/DYto2L-2Jets_MLL-50_2J_TuneCP5_13p6TeV_amcatnloFXFX-pythia8/NANOAODSIM/130X_mcRun3_2022_realistic_v5-v2/50000/975f4bbc-ba0b-4508-bb78-b62912042574.root
/store/mc/Run3Summer22NanoAODv12/DYto2L-2Jets_MLL-50_2J_TuneCP5_13p6TeV_amcatnloFXFX-pythia8/NANOAODSIM/130X_mcRun3_2022_realistic_v5-v2/50000/6a1f0731-0736-4b30-8c15-6ffe9305e9fd.root
/store/mc/Run3Summer22NanoAODv12/DYto2L-2Jets_MLL-50_2J_TuneCP5_13p6TeV_amcatnloFXFX-pythia8/NANOAODSIM/130X_mcRun3_2022_realistic_v5-v2/50000/8d173b4c-73f1-46e2-b0ec-0abde7a7cab6.root
/store/mc/Run3Summer22NanoAODv12/DYto2L-2Jets_MLL-50_2J_TuneCP5_13p6TeV_amcatnloFXFX-pythia8/NANOAODSIM/130X_mcRun3_2022_realistic_v5-v2/50000/24b60bc7-5a18-4bd6-8b09-43009beae63b.root
/store/mc/Run3Summer22NanoAODv12/DYto2L-2Jets_MLL-50_2J_TuneCP5_13p6TeV_amcatnloFXFX-pythia8/NANOAODSIM/130X_mcRun3_2022_realistic_v5-v2/2530000/3a765cb2-c34e-4951-a830-bddd8ae8f116.root
/store/mc/Run3Summer22NanoAODv12/DYto2L-2Jets_MLL-50_2J_TuneCP5_13p6TeV_amcatnloFXFX-pythia8/NANOAODSIM/130X_mcRun3_2022_realistic_v5-v2/2530000/d83b06d6-68bc-49b5-b828-6c321e604ff8.root
/store/mc/Run3Summer22NanoAODv12/DYto2L-2Jets_MLL-50_2J_TuneCP5_13p6TeV_amcatnloFXFX-pythia8/NANOAODSIM/130X_mcRun3_2022_realistic_v5-v2/2530000/a4021941-5969-4383-9337-a3b936192995.root
/store/mc/Run3Summer22NanoAODv12/DYto2L-2Jets_MLL-50_2J_TuneCP5_13p6TeV_amcatnloFXFX-pythia8/NANOAODSIM/130X_mcRun3_2022_realistic_v5-v2/50000/fa20adf9-ee25-4e3d-b36f-14985e60c6fb.root
/store/mc/Run3Summer22NanoAODv12/DYto2L-2Jets_MLL-50_2J_TuneCP5_13p6TeV_amcatnloFXFX-pythia8/NANOAODSIM/130X_mcRun3_2022_realistic_v5-v2/50000/873d80e5-56ee-4cd2-8596-1149518f26a3.root
/store/mc/Run3Summer22NanoAODv12/DYto2L-2Jets_MLL-50_2J_TuneCP5_13p6TeV_amcatnloFXFX-pythia8/NANOAODSIM/130X_mcRun3_2022_realistic_v5-v2/50000/4ec8b60d-6870-4ef2-8a11-429e6f20ab5b.root
/store/mc/Run3Summer22NanoAODv12/DYto2L-2Jets_MLL-50_2J_TuneCP5_13p6TeV_amcatnloFXFX-pythia8/NANOAODSIM/130X_mcRun3_2022_realistic_v5-v2/50000/09f832e1-1d3a-4788-903d-fa94b6843514.root
/store/mc/Run3Summer22NanoAODv12/DYto2L-2Jets_MLL-50_2J_TuneCP5_13p6TeV_amcatnloFXFX-pythia8/NANOAODSIM/130X_mcRun3_2022_realistic_v5-v2/50000/714cc181-9bd7-4ed5-9d86-bc33c408f876.root
/store/mc/Run3Summer22NanoAODv12/DYto2L-2Jets_MLL-50_2J_TuneCP5_13p6TeV_amcatnloFXFX-pythia8/NANOAODSIM/130X_mcRun3_2022_realistic_v5-v2/50000/303fecb7-fc46-410e-bca4-611819414459.root
/store/mc/Run3Summer22NanoAODv12/DYto2L-2Jets_MLL-50_2J_TuneCP5_13p6TeV_amcatnloFXFX-pythia8/NANOAODSIM/130X_mcRun3_2022_realistic_v5-v2/50000/320a4b6d-b7e8-4385-844e-4dfb42fde0a0.root
/store/mc/Run3Summer22NanoAODv12/DYto2L-2Jets_MLL-50_2J_TuneCP5_13p6TeV_amcatnloFXFX-pythia8/NANOAODSIM/130X_mcRun3_2022_realistic_v5-v2/50000/92028c84-406d-452f-a175-541de259ce5a.root
/store/mc/Run3Summer22NanoAODv12/DYto2L-2Jets_MLL-50_2J_TuneCP5_13p6TeV_amcatnloFXFX-pythia8/NANOAODSIM/130X_mcRun3_2022_realistic_v5-v2/50000/ca1d2dfd-1bec-455d-92ab-d2d544addf22.root
/store/mc/Run3Summer22NanoAODv12/DYto2L-2Jets_MLL-50_2J_TuneCP5_13p6TeV_amcatnloFXFX-pythia8/NANOAODSIM/130X_mcRun3_2022_realistic_v5-v2/50000/10fe0e0e-522b-4279-960a-b793e7da8955.root
/store/mc/Run3Summer22NanoAODv12/DYto2L-2Jets_MLL-50_2J_TuneCP5_13p6TeV_amcatnloFXFX-pythia8/NANOAODSIM/130X_mcRun3_2022_realistic_v5-v2/50000/330bcf8c-0549-4694-ae56-1031ec62b363.root
/store/mc/Run3Summer22NanoAODv12/DYto2L-2Jets_MLL-50_2J_TuneCP5_13p6TeV_amcatnloFXFX-pythia8/NANOAODSIM/130X_mcRun3_2022_realistic_v5-v2/2530000/0cffd1fb-f18a-491f-aad9-b4a6451fcc8d.root
/store/mc/Run3Summer22NanoAODv12/DYto2L-2Jets_MLL-50_2J_TuneCP5_13p6TeV_amcatnloFXFX-pythia8/NANOAODSIM/130X_mcRun3_2022_realistic_v5-v2/2530000/3349cf6d-93a3-4df9-89e9-c881ce20e6e9.root
/store/mc/Run3Summer22NanoAODv12/DYto2L-2Jets_MLL-50_2J_TuneCP5_13p6TeV_amcatnloFXFX-pythia8/NANOAODSIM/130X_mcRun3_2022_realistic_v5-v2/50000/226a583a-1a65-4564-9a0e-5bf844a9dac1.root
/store/mc/Run3Summer22NanoAODv12/DYto2L-2Jets_MLL-50_2J_TuneCP5_13p6TeV_amcatnloFXFX-pythia8/NANOAODSIM/130X_mcRun3_2022_realistic_v5-v2/50000/9f8a5a5d-6ccb-4dd0-abf5-1688123b6763.root
/store/mc/Run3Summer22NanoAODv12/DYto2L-2Jets_MLL-50_2J_TuneCP5_13p6TeV_amcatnloFXFX-pythia8/NANOAODSIM/130X_mcRun3_2022_realistic_v5-v2/50000/d6722ef5-c9e7-4194-adbc-c295557f0f51.root
/store/mc/Run3Summer22NanoAODv12/DYto2L-2Jets_MLL-50_2J_TuneCP5_13p6TeV_amcatnloFXFX-pythia8/NANOAODSIM/130X_mcRun3_2022_realistic_v5-v2/50000/c12a3a50-3248-4362-a7cb-0edffc2b50cb.root
/store/mc/Run3Summer22NanoAODv12/DYto2L-2Jets_MLL-50_2J_TuneCP5_13p6TeV_amcatnloFXFX-pythia8/NANOAODSIM/130X_mcRun3_2022_realistic_v5-v2/50000/a628d801-b33c-49eb-856f-6bb711571b57.root
/store/mc/Run3Summer22NanoAODv12/DYto2L-2Jets_MLL-50_2J_TuneCP5_13p6TeV_amcatnloFXFX-pythia8/NANOAODSIM/130X_mcRun3_2022_realistic_v5-v2/50000/a26d597e-0eff-412a-9c66-b004448f0a31.root
/store/mc/Run3Summer22NanoAODv12/DYto2L-2Jets_MLL-50_2J_TuneCP5_13p6TeV_amcatnloFXFX-pythia8/NANOAODSIM/130X_mcRun3_2022_realistic_v5-v2/50000/dafe7ec1-9b15-48d8-9832-682a7a41051b.root
/store/mc/Run3Summer22NanoAODv12/DYto2L-2Jets_MLL-50_2J_TuneCP5_13p6TeV_amcatnloFXFX-pythia8/NANOAODSIM/130X_mcRun3_2022_realistic_v5-v2/2520000/70a997e0-21ea-4b7f-81e5-a7b84ea91ad7.root
/store/mc/Run3Summer22NanoAODv12/DYto2L-2Jets_MLL-50_2J_TuneCP5_13p6TeV_amcatnloFXFX-pythia8/NANOAODSIM/130X_mcRun3_2022_realistic_v5-v2/2530000/d3c2542a-c216-466d-8344-4db7da3fb67c.root
/store/mc/Run3Summer22NanoAODv12/DYto2L-2Jets_MLL-50_2J_TuneCP5_13p6TeV_amcatnloFXFX-pythia8/NANOAODSIM/130X_mcRun3_2022_realistic_v5-v2/2530000/ceeec5d8-e550-42ca-882c-ea3464afed28.root
/store/mc/Run3Summer22NanoAODv12/DYto2L-2Jets_MLL-50_2J_TuneCP5_13p6TeV_amcatnloFXFX-pythia8/NANOAODSIM/130X_mcRun3_2022_realistic_v5-v2/50000/53ab7f4e-967f-4bea-98ba-6750923c8b1f.root
/store/mc/Run3Summer22NanoAODv12/DYto2L-2Jets_MLL-50_2J_TuneCP5_13p6TeV_amcatnloFXFX-pythia8/NANOAODSIM/130X_mcRun3_2022_realistic_v5-v2/2530000/6366f1ca-238a-4731-8cf0-31dc5f59eb35.root
/store/mc/Run3Summer22NanoAODv12/DYto2L-2Jets_MLL-50_2J_TuneCP5_13p6TeV_amcatnloFXFX-pythia8/NANOAODSIM/130X_mcRun3_2022_realistic_v5-v2/2520000/801f9b23-6a04-493d-ba5f-43fde1f189f3.root
/store/mc/Run3Summer22NanoAODv12/DYto2L-2Jets_MLL-50_2J_TuneCP5_13p6TeV_amcatnloFXFX-pythia8/NANOAODSIM/130X_mcRun3_2022_realistic_v5-v2/2520000/03b3b87f-a538-44b9-a2d9-3e0ade26836d.root
/store/mc/Run3Summer22NanoAODv12/DYto2L-2Jets_MLL-50_2J_TuneCP5_13p6TeV_amcatnloFXFX-pythia8/NANOAODSIM/130X_mcRun3_2022_realistic_v5-v2/2520000/c6648f9e-ddb6-4137-a99f-2555383089ab.root
/store/mc/Run3Summer22NanoAODv12/DYto2L-2Jets_MLL-50_2J_TuneCP5_13p6TeV_amcatnloFXFX-pythia8/NANOAODSIM/130X_mcRun3_2022_realistic_v5-v2/2520000/1fcbdc65-9d2c-45f5-bf69-aeccb8105faf.root
/store/mc/Run3Summer22NanoAODv12/DYto2L-2Jets_MLL-50_2J_TuneCP5_13p6TeV_amcatnloFXFX-pythia8/NANOAODSIM/130X_mcRun3_2022_realistic_v5-v2/2540000/7b31785e-c621-4042-9c56-dfb191bbe31b.root
/store/mc/Run3Summer22NanoAODv12/DYto2L-2Jets_MLL-50_2J_TuneCP5_13p6TeV_amcatnloFXFX-pythia8/NANOAODSIM/130X_mcRun3_2022_realistic_v5-v2/40000/6bd97233-9557-4d68-82a7-1a048b69e520.root
/store/mc/Run3Summer22NanoAODv12/DYto2L-2Jets_MLL-50_2J_TuneCP5_13p6TeV_amcatnloFXFX-pythia8/NANOAODSIM/130X_mcRun3_2022_realistic_v5-v2/40000/5c790dd4-5c54-4d10-9eca-b79d7e61a91d.root
/store/mc/Run3Summer22NanoAODv12/DYto2L-2Jets_MLL-50_2J_TuneCP5_13p6TeV_amcatnloFXFX-pythia8/NANOAODSIM/130X_mcRun3_2022_realistic_v5-v2/40000/702e7b7d-56ae-49cf-9e0c-4b648b481357.root
/store/mc/Run3Summer22NanoAODv12/DYto2L-2Jets_MLL-50_2J_TuneCP5_13p6TeV_amcatnloFXFX-pythia8/NANOAODSIM/130X_mcRun3_2022_realistic_v5-v2/30000/6c528bf8-359a-4307-a045-3386bf895949.root
/store/mc/Run3Summer22NanoAODv12/DYto2L-2Jets_MLL-50_2J_TuneCP5_13p6TeV_amcatnloFXFX-pythia8/NANOAODSIM/130X_mcRun3_2022_realistic_v5-v2/30000/953992c4-1456-433a-a123-c4371a86876c.root
/store/mc/Run3Summer22NanoAODv12/DYto2L-2Jets_MLL-50_2J_TuneCP5_13p6TeV_amcatnloFXFX-pythia8/NANOAODSIM/130X_mcRun3_2022_realistic_v5-v2/40000/e3563088-1fb0-43c2-a1b6-665680e21b64.root
/store/mc/Run3Summer22NanoAODv12/DYto2L-2Jets_MLL-50_2J_TuneCP5_13p6TeV_amcatnloFXFX-pythia8/NANOAODSIM/130X_mcRun3_2022_realistic_v5-v2/40000/e37b3ed2-5503-49e1-8ca8-4b8bb0c164f1.root
/store/mc/Run3Summer22NanoAODv12/DYto2L-2Jets_MLL-50_2J_TuneCP5_13p6TeV_amcatnloFXFX-pythia8/NANOAODSIM/130X_mcRun3_2022_realistic_v5-v2/40000/e2c561ef-2885-4005-aabb-04d07fcc8da9.root
/store/mc/Run3Summer22NanoAODv12/DYto2L-2Jets_MLL-50_2J_TuneCP5_13p6TeV_amcatnloFXFX-pythia8/NANOAODSIM/130X_mcRun3_2022_realistic_v5-v2/40000/f4f80c97-19dc-4998-85a1-6a43a846929b.root
/store/mc/Run3Summer22NanoAODv12/DYto2L-2Jets_MLL-50_2J_TuneCP5_13p6TeV_amcatnloFXFX-pythia8/NANOAODSIM/130X_mcRun3_2022_realistic_v5-v2/40000/7ce8346a-d448-4ae1-ab7f-58982dc5ece1.root
/store/mc/Run3Summer22NanoAODv12/DYto2L-2Jets_MLL-50_2J_TuneCP5_13p6TeV_amcatnloFXFX-pythia8/NANOAODSIM/130X_mcRun3_2022_realistic_v5-v2/30000/fbb709ea-8c0a-47ec-a25d-ec7421b0d6ce.root
/store/mc/Run3Summer22NanoAODv12/DYto2L-2Jets_MLL-50_2J_TuneCP5_13p6TeV_amcatnloFXFX-pythia8/NANOAODSIM/130X_mcRun3_2022_realistic_v5-v2/30000/1cc34759-3431-4643-94ab-7e77a7b643d1.root
/store/mc/Run3Summer22NanoAODv12/DYto2L-2Jets_MLL-50_2J_TuneCP5_13p6TeV_amcatnloFXFX-pythia8/NANOAODSIM/130X_mcRun3_2022_realistic_v5-v2/40000/c2d7f1c7-a9cb-478e-886b-d38233e9325e.root
/store/mc/Run3Summer22NanoAODv12/DYto2L-2Jets_MLL-50_2J_TuneCP5_13p6TeV_amcatnloFXFX-pythia8/NANOAODSIM/130X_mcRun3_2022_realistic_v5-v2/40000/7f03da2e-6a08-4d62-ac31-61f2bebd8556.root
/store/mc/Run3Summer22NanoAODv12/DYto2L-2Jets_MLL-50_2J_TuneCP5_13p6TeV_amcatnloFXFX-pythia8/NANOAODSIM/130X_mcRun3_2022_realistic_v5-v2/40000/d84234c7-c143-410a-984b-3c0c14a74dd9.root
/store/mc/Run3Summer22NanoAODv12/DYto2L-2Jets_MLL-50_2J_TuneCP5_13p6TeV_amcatnloFXFX-pythia8/NANOAODSIM/130X_mcRun3_2022_realistic_v5-v2/30000/41962f09-8372-4f49-b374-f4e49a0059e6.root
/store/mc/Run3Summer22NanoAODv12/DYto2L-2Jets_MLL-50_2J_TuneCP5_13p6TeV_amcatnloFXFX-pythia8/NANOAODSIM/130X_mcRun3_2022_realistic_v5-v2/40000/d2976853-6696-46a1-88f6-1ef0cfeed7c7.root
/store/mc/Run3Summer22NanoAODv12/DYto2L-2Jets_MLL-50_2J_TuneCP5_13p6TeV_amcatnloFXFX-pythia8/NANOAODSIM/130X_mcRun3_2022_realistic_v5-v2/40000/26247818-4961-4e52-8fb5-85e6cc44c90e.root
/store/mc/Run3Summer22NanoAODv12/DYto2L-2Jets_MLL-50_2J_TuneCP5_13p6TeV_amcatnloFXFX-pythia8/NANOAODSIM/130X_mcRun3_2022_realistic_v5-v2/40000/8c3cf3e3-909d-4840-85cd-c105bbd131ef.root
/store/mc/Run3Summer22NanoAODv12/DYto2L-2Jets_MLL-50_2J_TuneCP5_13p6TeV_amcatnloFXFX-pythia8/NANOAODSIM/130X_mcRun3_2022_realistic_v5-v2/30000/c19b0b9d-38a8-4cc6-8ea0-c600bd1d45f0.root
/store/mc/Run3Summer22NanoAODv12/DYto2L-2Jets_MLL-50_2J_TuneCP5_13p6TeV_amcatnloFXFX-pythia8/NANOAODSIM/130X_mcRun3_2022_realistic_v5-v2/30000/be840f64-9405-4da6-955b-ecc3490a2b96.root
/store/mc/Run3Summer22NanoAODv12/DYto2L-2Jets_MLL-50_2J_TuneCP5_13p6TeV_amcatnloFXFX-pythia8/NANOAODSIM/130X_mcRun3_2022_realistic_v5-v2/30000/44daf714-470c-4c9a-86b2-5a2693650414.root
/store/mc/Run3Summer22NanoAODv12/DYto2L-2Jets_MLL-50_2J_TuneCP5_13p6TeV_amcatnloFXFX-pythia8/NANOAODSIM/130X_mcRun3_2022_realistic_v5-v2/30000/49bdec1a-dd57-4033-9e5a-3d37cbcbb305.root
/store/mc/Run3Summer22NanoAODv12/DYto2L-2Jets_MLL-50_2J_TuneCP5_13p6TeV_amcatnloFXFX-pythia8/NANOAODSIM/130X_mcRun3_2022_realistic_v5-v2/30000/63b95b12-2e00-498b-a46d-9270bf79cf4a.root
/store/mc/Run3Summer22NanoAODv12/DYto2L-2Jets_MLL-50_2J_TuneCP5_13p6TeV_amcatnloFXFX-pythia8/NANOAODSIM/130X_mcRun3_2022_realistic_v5-v2/30000/6e0e05fd-30fb-4a1c-acf5-9b23441d0677.root
/store/mc/Run3Summer22NanoAODv12/DYto2L-2Jets_MLL-50_2J_TuneCP5_13p6TeV_amcatnloFXFX-pythia8/NANOAODSIM/130X_mcRun3_2022_realistic_v5-v2/30000/1eaea0fe-3af1-4f9a-b29f-9cd9d0384556.root
/store/mc/Run3Summer22NanoAODv12/DYto2L-2Jets_MLL-50_2J_TuneCP5_13p6TeV_amcatnloFXFX-pythia8/NANOAODSIM/130X_mcRun3_2022_realistic_v5-v2/30000/a230854d-6392-45d4-8cf9-5f02bbb2b08f.root
/store/mc/Run3Summer22NanoAODv12/DYto2L-2Jets_MLL-50_2J_TuneCP5_13p6TeV_amcatnloFXFX-pythia8/NANOAODSIM/130X_mcRun3_2022_realistic_v5-v2/30000/a73a2c79-5f98-4a1c-8b00-fe6966918bf3.root
/store/mc/Run3Summer22NanoAODv12/DYto2L-2Jets_MLL-50_2J_TuneCP5_13p6TeV_amcatnloFXFX-pythia8/NANOAODSIM/130X_mcRun3_2022_realistic_v5-v2/30000/abcaf096-e932-4035-9b28-198c92450b13.root
/store/mc/Run3Summer22NanoAODv12/DYto2L-2Jets_MLL-50_2J_TuneCP5_13p6TeV_amcatnloFXFX-pythia8/NANOAODSIM/130X_mcRun3_2022_realistic_v5-v2/30000/82a7dd70-5b75-420a-aab9-8a532817da3d.root
/store/mc/Run3Summer22NanoAODv12/DYto2L-2Jets_MLL-50_2J_TuneCP5_13p6TeV_amcatnloFXFX-pythia8/NANOAODSIM/130X_mcRun3_2022_realistic_v5-v2/30000/eb5ae9cf-81fe-45ed-860e-46149e924c02.root
/store/mc/Run3Summer22NanoAODv12/DYto2L-2Jets_MLL-50_2J_TuneCP5_13p6TeV_amcatnloFXFX-pythia8/NANOAODSIM/130X_mcRun3_2022_realistic_v5-v2/30000/40cdd40b-d71b-41df-a026-0f9a321212d5.root
/store/mc/Run3Summer22NanoAODv12/DYto2L-2Jets_MLL-50_2J_TuneCP5_13p6TeV_amcatnloFXFX-pythia8/NANOAODSIM/130X_mcRun3_2022_realistic_v5-v2/30000/de5ba1a1-1c4c-462e-9cfb-50d67f329ae9.root
/store/mc/Run3Summer22NanoAODv12/DYto2L-2Jets_MLL-50_2J_TuneCP5_13p6TeV_amcatnloFXFX-pythia8/NANOAODSIM/130X_mcRun3_2022_realistic_v5-v2/30000/a1d95cc7-199d-44c6-89c7-a15128482651.root
/store/mc/Run3Summer22NanoAODv12/DYto2L-2Jets_MLL-50_2J_TuneCP5_13p6TeV_amcatnloFXFX-pythia8/NANOAODSIM/130X_mcRun3_2022_realistic_v5-v2/30000/1c5e7acd-fd9e-48b9-a71c-e4e431c3c4ec.root