/store/data/Run2022D/EGamma/NANOAOD/22Sep2023-v1/2530000/e5762711-8726-4523-8891-32efa9ddb381.root
/store/data/Run2022D/EGamma/NANOAOD/22Sep2023-v1/2520000/11494d72-656f-4334-ad84-9480362ba45c.root
/store/data/Run2022D/EGamma/NANOAOD/22Sep2023-v1/2520000/62b7e487-94ff-4055-9a48-cbedea28dc40.root
/store/data/Run2022D/EGamma/NANOAOD/22Sep2023-v1/2520000/002aaeb4-3c58-4df8-9c1e-96c2d3a157ef.root
/store/data/Run2022D/EGamma/NANOAOD/22Sep2023-v1/2520000/54470a01-8709-4008-be05-fb594e50b0bb.root
/store/data/Run2022D/EGamma/NANOAOD/22Sep2023-v1/2520000/5ae168fe-e869-4a1c-8b34-34804f6a95e2.root
/store/data/Run2022D/EGamma/NANOAOD/22Sep2023-v1/2520000/a90b8420-bfd6-430d-bf25-e07559e07933.root
/store/data/Run2022D/EGamma/NANOAOD/22Sep2023-v1/2520000/98a35a39-7b91-4af6-a3f1-fe2004ee3ccd.root
/store/data/Run2022D/EGamma/NANOAOD/22Sep2023-v1/2520000/e2f28d8c-ec97-43c4-9179-a813d52e0fac.root
/store/data/Run2022D/EGamma/NANOAOD/22Sep2023-v1/2520000/19fc8d09-4530-4e21-b62a-f06638b792f4.root
/store/data/Run2022D/EGamma/NANOAOD/22Sep2023-v1/2520000/293fbbb4-8085-4ad0-bed5-720acf891cb2.root
/store/data/Run2022D/EGamma/NANOAOD/22Sep2023-v1/2520000/e876ed56-47fb-4201-a17c-75e4c572a76f.root
/store/data/Run2022D/EGamma/NANOAOD/22Sep2023-v1/2520000/eee249e2-b590-4b8e-923e-e131866c601e.root
/store/data/Run2022D/EGamma/NANOAOD/22Sep2023-v1/2520000/404e535c-fe7e-4f93-9171-7bb8c859b401.root
/store/data/Run2022D/EGamma/NANOAOD/22Sep2023-v1/2520000/f2e1270b-afa5-4aee-9a16-d9859dcd7270.root
/store/data/Run2022D/EGamma/NANOAOD/22Sep2023-v1/2520000/67452596-04b4-43a0-bd06-1598e3e36c7e.root
/store/data/Run2022D/EGamma/NANOAOD/22Sep2023-v1/2520000/1a1a3b71-2ef2-47e3-a77e-d71c9e236689.root
/store/data/Run2022D/EGamma/NANOAOD/22Sep2023-v1/2520000/8072cb73-717c-45cd-83e8-630aab4b3f12.root
/store/data/Run2022D/EGamma/NANOAOD/22Sep2023-v1/2520000/19779674-6224-4692-9bdf-bc07a3b7a7f2.root
/store/data/Run2022D/EGamma/NANOAOD/22Sep2023-v1/2520000/1a2311ef-365c-4eae-b737-a22f88140694.root
/store/data/Run2022D/EGamma/NANOAOD/22Sep2023-v1/2520000/5252c072-0406-4193-ba80-d94bfac46aec.root
/store/data/Run2022D/EGamma/NANOAOD/22Sep2023-v1/2520000/5a4e6914-c01f-4565-bd2a-008309465453.root
/store/data/Run2022D/EGamma/NANOAOD/22Sep2023-v1/2520000/88a40265-810e-4860-887f-ce0d510debcc.root
/store/data/Run2022D/EGamma/NANOAOD/22Sep2023-v1/2520000/572629b3-9d82-4e78-8c0f-965a1a20f15f.root
/store/data/Run2022D/EGamma/NANOAOD/22Sep2023-v1/2520000/d8e9050e-1114-42e6-96b6-6473022925f6.root
/store/data/Run2022D/EGamma/NANOAOD/22Sep2023-v1/2520000/6da1a020-8686-4a97-9a3c-4a16afdda4d2.root
/store/data/Run2022D/EGamma/NANOAOD/22Sep2023-v1/2520000/a4e095d2-1fed-4246-80a5-956c8602da67.root
/store/data/Run2022D/EGamma/NANOAOD/22Sep2023-v1/2520000/7fcc2444-78b5-4aeb-8b94-5231217f06d4.root
/store/data/Run2022D/EGamma/NANOAOD/22Sep2023-v1/2520000/071bd17b-13a4-42b6-aadc-f85edbbbdffa.root
/store/data/Run2022D/EGamma/NANOAOD/22Sep2023-v1/2520000/68d6b0df-6b2f-4945-9242-4a64d5c660e2.root
/store/data/Run2022D/EGamma/NANOAOD/22Sep2023-v1/2520000/a6604faa-7917-4fb1-a795-e9c7bfd3fe91.root
/store/data/Run2022D/EGamma/NANOAOD/22Sep2023-v1/2520000/0e72895d-b46e-44c3-b679-665f4df95f4a.root
/store/data/Run2022D/EGamma/NANOAOD/22Sep2023-v1/2520000/b2a3e325-96e0-4ec1-a741-98329d593fe8.root
/store/data/Run2022D/EGamma/NANOAOD/22Sep2023-v1/2530000/8927a2f6-3501-4ed7-a2a0-e85d08c41c17.root
/store/data/Run2022D/EGamma/NANOAOD/22Sep2023-v1/2530000/2db42c05-792e-4300-8f1e-3fa00cfb58bc.root
/store/data/Run2022D/EGamma/NANOAOD/22Sep2023-v1/30000/9df50dcd-f7ea-4c58-9073-b0f1a294e1ff.root
/store/data/Run2022D/EGamma/NANOAOD/22Sep2023-v1/30000/56ee9e9c-31a7-4c7c-b22a-ff006cda7500.root
/store/data/Run2022D/EGamma/NANOAOD/22Sep2023-v1/30000/c7eea1da-0974-44e3-bf33-b40c14859fb9.root
/store/data/Run2022D/EGamma/NANOAOD/22Sep2023-v1/30000/0e90ef0e-cae0-4582-b9c5-b57b30ea80ff.root
/store/data/Run2022D/EGamma/NANOAOD/22Sep2023-v1/30000/088e87a2-9e48-4649-814b-1356a9bb4f79.root
/store/data/Run2022D/EGamma/NANOAOD/22Sep2023-v1/30000/cb8d11cd-a69b-451e-ab12-fd8a94199385.root
/store/data/Run2022D/EGamma/NANOAOD/22Sep2023-v1/2530000/c9d2f16c-6d1b-4f34-811c-c914e07ebd39.root
/store/data/Run2022D/EGamma/NANOAOD/22Sep2023-v1/2520000/3cd04a46-7575-4fe7-b556-333abed4dedb.root
/store/data/Run2022D/EGamma/NANOAOD/22Sep2023-v1/2520000/200a57c5-0f1f-41d4-8c7b-3d58c1d762e1.root
/store/data/Run2022D/EGamma/NANOAOD/22Sep2023-v1/2520000/b4771655-1547-4c68-b567-9937993aa57b.root
/store/data/Run2022D/EGamma/NANOAOD/22Sep2023-v1/2520000/c1fdbff3-abae-4537-9f37-bdeb1e350491.root
/store/data/Run2022D/EGamma/NANOAOD/22Sep2023-v1/2520000/7aaf0bf2-650e-4fb1-9dae-2a12df297193.root
/store/data/Run2022D/EGamma/NANOAOD/22Sep2023-v1/2520000/0941355a-5172-4ab5-8494-33c020c34448.root
/store/data/Run2022D/EGamma/NANOAOD/22Sep2023-v1/2520000/c1cb039d-920d-493f-8262-3c415fbcbef2.root
/store/data/Run2022D/EGamma/NANOAOD/22Sep2023-v1/2520000/d7b98010-027e-44ea-bb13-a0432ee763ea.root
/store/data/Run2022D/EGamma/NANOAOD/22Sep2023-v1/2520000/8563815e-e922-4ec5-bea9-a97fb424bd4b.root
/store/data/Run2022D/EGamma/NANOAOD/22Sep2023-v1/2520000/81c4e56a-c290-4838-8f6b-f49c942168ba.root
/store/data/Run2022D/EGamma/NANOAOD/22Sep2023-v1/2520000/f6ea15d6-6ed7-4577-aa63-dc8d28b90e86.root
/store/data/Run2022D/EGamma/NANOAOD/22Sep2023-v1/2520000/ca0c6955-01a5-4302-98cd-d5475e223c6a.root
/store/data/Run2022D/EGamma/NANOAOD/22Sep2023-v1/2520000/d455507e-e25c-43fa-9281-f058a8dc77b3.root
/store/data/Run2022D/EGamma/NANOAOD/22Sep2023-v1/2520000/e9003ad8-fa5f-4c40-b706-6cc7e5c7d5ff.root
/store/data/Run2022D/EGamma/NANOAOD/22Sep2023-v1/2520000/2458b0ae-ec76-4d41-804a-df54b47e2006.root
/store/data/Run2022D/EGamma/NANOAOD/22Sep2023-v1/2520000/c8f54485-afe0-4b3e-945f-49e522d31254.root
/store/data/Run2022D/EGamma/NANOAOD/22Sep2023-v1/2520000/ce3deffb-7797-45b5-a638-3bd193006c86.root
/store/data/Run2022D/EGamma/NANOAOD/22Sep2023-v1/2520000/d84615fe-da8d-4399-a253-2141fc2da978.root
/store/data/Run2022D/EGamma/NANOAOD/22Sep2023-v1/2520000/516d492f-8e7a-44bd-b722-a6bfa004ba2f.root
/store/data/Run2022D/EGamma/NANOAOD/22Sep2023-v1/2520000/fc39eb5b-ddef-4bd2-b60d-b59665221ebd.root
/store/data/Run2022D/EGamma/NANOAOD/22Sep2023-v1/30000/0b8eb076-63c6-445c-b3eb-3f8cc9a9e73d.root
/store/data/Run2022D/EGamma/NANOAOD/22Sep2023-v1/30000/1ea95c28-75f3-4a96-84f5-554b0b1c6eea.root
/store/data/Run2022D/EGamma/NANOAOD/22Sep2023-v1/30000/eea71cb8-190c-4ad6-9bf0-3d7ae512a764.root
/store/data/Run2022D/EGamma/NANOAOD/22Sep2023-v1/30000/74a041b0-968d-4c82-bc6e-20232744d5f0.root
/store/data/Run2022D/EGamma/NANOAOD/22Sep2023-v1/30000/111d51e2-866e-4431-ad11-9ba18fc661eb.root
/store/data/Run2022D/EGamma/NANOAOD/22Sep2023-v1/30000/9ae84f95-1154-49cc-90ff-5d10dc6303c7.root
/store/data/Run2022D/EGamma/NANOAOD/22Sep2023-v1/30000/df29deb4-e128-4807-8d2f-06ee07fd7f19.root
/store/data/Run2022D/EGamma/NANOAOD/22Sep2023-v1/2520000/b203a859-281d-4fc7-a6fa-550fbd997639.root
/store/data/Run2022D/EGamma/NANOAOD/22Sep2023-v1/2520000/e1f26d72-8ebe-4f5b-a8be-65fa029a3078.root
/store/data/Run2022D/EGamma/NANOAOD/22Sep2023-v1/2520000/22cd73d2-129e-40f2-b905-7caafd7fa8b2.root
/store/data/Run2022D/EGamma/NANOAOD/22Sep2023-v1/2520000/5fcb0dfd-b7dc-4ec5-9b09-597697c69ba3.root
/store/data/Run2022D/EGamma/NANOAOD/22Sep2023-v1/2520000/63b0fa68-863d-4c54-bdba-5b4aec749bb9.root
/store/data/Run2022D/EGamma/NANOAOD/22Sep2023-v1/2520000/ed17e441-7b44-4d91-afd7-bb5b9a626731.root
/store/data/Run2022D/EGamma/NANOAOD/22Sep2023-v1/2520000/49758072-9074-4106-bac9-af9ac5e782aa.root
/store/data/Run2022D/EGamma/NANOAOD/22Sep2023-v1/2520000/a331bd8e-d47f-434a-97c3-93e0940d4dee.root
/store/data/Run2022D/EGamma/NANOAOD/22Sep2023-v1/2520000/8ec7995e-20e7-4f77-af23-025fbc73e74a.root
/store/data/Run2022D/EGamma/NANOAOD/22Sep2023-v1/2520000/24b18e31-a14c-4dd0-b0ba-f22a73c4dcef.root
/store/data/Run2022D/EGamma/NANOAOD/22Sep2023-v1/2520000/ffabaa21-ec18-4f5b-ac95-cf7565a3b280.root
/store/data/Run2022D/EGamma/NANOAOD/22Sep2023-v1/2530000/e90e06a5-dd18-47c1-834e-c1d52fc67a7c.root
/store/data/Run2022D/EGamma/NANOAOD/22Sep2023-v1/2530000/6d3713bf-3bf3-4531-8319-a2f7c7e1602a.root
/store/data/Run2022D/EGamma/NANOAOD/22Sep2023-v1/2520000/e3a5b0c1-94e4-439f-ad7a-c60d1e08e4ad.root
/store/data/Run2022D/EGamma/NANOAOD/22Sep2023-v1/2520000/eefd82ce-b55f-4585-9bba-2955c270a0c5.root
/store/data/Run2022D/EGamma/NANOAOD/22Sep2023-v1/2520000/1c0014df-dfbb-4238-9e4b-c1f29fa9096c.root
/store/data/Run2022D/EGamma/NANOAOD/22Sep2023-v1/2520000/970aa4dd-a8e0-4377-ad63-344e2214d7fc.root
/store/data/Run2022D/EGamma/NANOAOD/22Sep2023-v1/2520000/53c9dde8-fbe4-4284-8046-d7a4562f3f64.root
/store/data/Run2022D/EGamma/NANOAOD/22Sep2023-v1/2520000/f93990db-b42f-4b25-86c7-f812217eff91.root
/store/data/Run2022D/EGamma/NANOAOD/22Sep2023-v1/2520000/9c33ae35-df02-4dcc-b4e8-ab3dfa2c8702.root
/store/data/Run2022D/EGamma/NANOAOD/22Sep2023-v1/2520000/73f1a90f-c625-44d3-8590-a03453d41193.root
/store/data/Run2022D/EGamma/NANOAOD/22Sep2023-v1/2520000/da568b8d-5fb5-4736-b590-3e542a949b9e.root
/store/data/Run2022D/EGamma/NANOAOD/22Sep2023-v1/2520000/711517ab-1eaf-4cfb-8388-b97edce57e83.root
/store/data/Run2022D/EGamma/NANOAOD/22Sep2023-v1/2520000/1545a438-ccef-4f69-b7a0-9f2498df82ea.root
/store/data/Run2022D/EGamma/NANOAOD/22Sep2023-v1/2520000/ae95375d-ec6f-4a31-aa25-952e9a64ba85.root
/store/data/Run2022D/EGamma/NANOAOD/22Sep2023-v1/2520000/c08ddd70-4706-4ca9-ab46-194067efd795.root
/store/data/Run2022D/EGamma/NANOAOD/22Sep2023-v1/2520000/f9d6fbd9-3744-41b2-93b9-9dad9d16ee60.root
/store/data/Run2022D/EGamma/NANOAOD/22Sep2023-v1/2520000/4cde6275-700f-43dd-a0d8-b34a62d39938.root
/store/data/Run2022D/EGamma/NANOAOD/22Sep2023-v1/2520000/72c555ee-8317-4af6-bce3-2162d937aa99.root
/store/data/Run2022D/EGamma/NANOAOD/22Sep2023-v1/2520000/21ab5d04-69ea-4526-91be-0673d3f2bf67.root
/store/data/Run2022D/EGamma/NANOAOD/22Sep2023-v1/2520000/3c14c0c1-e83f-4942-9553-e1ddd3430efe.root
/store/data/Run2022D/EGamma/NANOAOD/22Sep2023-v1/2520000/53ff88c8-01af-4d7e-a827-048eebfb8e30.root
/store/data/Run2022D/EGamma/NANOAOD/22Sep2023-v1/2520000/ff41af18-95ed-4650-b720-7959044dac2b.root
/store/data/Run2022D/EGamma/NANOAOD/22Sep2023-v1/2520000/78268ee8-5620-4e55-a7e6-12e7c8a50d55.root
/store/data/Run2022D/EGamma/NANOAOD/22Sep2023-v1/2520000/4f194aa3-db68-48e4-a3ac-951aaee9fd21.root
/store/data/Run2022D/EGamma/NANOAOD/22Sep2023-v1/410000/8374e6b0-c97e-4bc8-b095-9eaee52632e6.root
/store/data/Run2022D/EGamma/NANOAOD/22Sep2023-v1/2520000/83520fe2-7fe8-495f-a7ef-e777978f991b.root
/store/data/Run2022D/EGamma/NANOAOD/22Sep2023-v1/2520000/e93d5c38-ca8d-4b2c-b5b1-2595302dd5ca.root
/store/data/Run2022D/EGamma/NANOAOD/22Sep2023-v1/2520000/14c8946a-ccf1-492d-a93e-d929b95c53c6.root
/store/data/Run2022D/EGamma/NANOAOD/22Sep2023-v1/2520000/b09bc740-84e2-46e4-87a2-59330b679938.root