/store/data/Run2022C/Tau/NANOAOD/22Sep2023-v1/40000/2336f782-2ad3-44ff-abe1-caceeec22c0b.root
/store/data/Run2022C/Tau/NANOAOD/22Sep2023-v1/40000/69f6da53-cdba-4198-939a-55d9009f763a.root
/store/data/Run2022C/Tau/NANOAOD/22Sep2023-v1/40000/8ea39e23-fd73-45cc-8b42-5fc260a60f38.root
/store/data/Run2022C/Tau/NANOAOD/22Sep2023-v1/40000/49a7bad4-c7df-4ba7-b612-8304636e6eb9.root
/store/data/Run2022C/Tau/NANOAOD/22Sep2023-v1/40000/cf401e26-2561-4a9f-b7cb-e6ef42f159f6.root
/store/data/Run2022C/Tau/NANOAOD/22Sep2023-v1/40000/1502fae3-0fe4-4e31-8ceb-36fca2efec27.root
/store/data/Run2022C/Tau/NANOAOD/22Sep2023-v1/40000/8565b3d8-eb43-4977-9edb-80d638efd70c.root
/store/data/Run2022C/Tau/NANOAOD/22Sep2023-v1/40000/a5ac0452-960b-4557-bff0-77bd3cb8622f.root
/store/data/Run2022C/Tau/NANOAOD/22Sep2023-v1/40000/c366d79f-8757-409d-832d-03a68d66568a.root
/store/data/Run2022C/Tau/NANOAOD/22Sep2023-v1/40000/21d3d4ae-b427-4abb-9aaf-f0f87ef8b61f.root
/store/data/Run2022C/Tau/NANOAOD/22Sep2023-v1/40000/d06d9073-8657-47ac-9569-c2737c0e3671.root
/store/data/Run2022C/Tau/NANOAOD/22Sep2023-v1/40000/ca6c1a6c-9e0a-46c2-b348-be4e044ae4d5.root
/store/data/Run2022C/Tau/NANOAOD/22Sep2023-v1/40000/e36a75cc-eb42-4bf1-9a96-3b9eff816c4f.root
/store/data/Run2022C/Tau/NANOAOD/22Sep2023-v1/40000/0a0ad204-4b85-41b1-afb2-40dfefc34677.root
/store/data/Run2022C/Tau/NANOAOD/22Sep2023-v1/40000/3d109102-f1c8-48ee-a34f-4870446efc03.root
/store/data/Run2022C/Tau/NANOAOD/22Sep2023-v1/40000/77ea3727-7397-4b33-b7bf-d7cd0ed41436.root
/store/data/Run2022C/Tau/NANOAOD/22Sep2023-v1/40000/10629d52-92eb-45fd-a790-0d0fb0e4a232.root
/store/data/Run2022C/Tau/NANOAOD/22Sep2023-v1/40000/834ac3f9-870e-4772-8de8-6a6b7eef1685.root
/store/data/Run2022C/Tau/NANOAOD/22Sep2023-v1/40000/025abf1b-a0f6-4be1-96f0-59a777e3508c.root
/store/data/Run2022C/Tau/NANOAOD/22Sep2023-v1/40000/38afb6c3-6bd4-473f-a7b3-05bb02dc3c22.root
/store/data/Run2022C/Tau/NANOAOD/22Sep2023-v1/40000/52ff6b78-3df9-455e-86cf-b8df9a8bd77a.root
/store/data/Run2022C/Tau/NANOAOD/22Sep2023-v1/40000/c6cd3181-efe3-413e-9fc9-516c93267e07.root
/store/data/Run2022C/Tau/NANOAOD/22Sep2023-v1/40000/e1470e14-1d6c-46d1-8e0c-58d0a47eb7e4.root
/store/data/Run2022C/Tau/NANOAOD/22Sep2023-v1/40000/509cdcd6-ca65-4942-9703-5bc478686b6c.root
/store/data/Run2022C/Tau/NANOAOD/22Sep2023-v1/40000/5b8180e0-a968-4e73-afe4-a51f82b7967f.root
/store/data/Run2022C/Tau/NANOAOD/22Sep2023-v1/40000/35cbdea8-6574-4a5c-a028-b9fe382d5d7e.root
/store/data/Run2022C/Tau/NANOAOD/22Sep2023-v1/40000/76a7e443-6aa4-44f3-9edd-df696e2c9230.root
/store/data/Run2022C/Tau/NANOAOD/22Sep2023-v1/40000/344a33a9-925d-4636-8561-cf7c03320a9f.root
/store/data/Run2022C/Tau/NANOAOD/22Sep2023-v1/40000/c8b21277-75e9-40a7-9e4c-edc96659ffba.root
/store/data/Run2022C/Tau/NANOAOD/22Sep2023-v1/40000/06475733-5eb4-423e-b07a-210a9b497673.root
/store/data/Run2022C/Tau/NANOAOD/22Sep2023-v1/40000/814422ce-3fba-4bf2-a73b-29086ee34275.root
/store/data/Run2022C/Tau/NANOAOD/22Sep2023-v1/40000/73e58bfd-40b4-4c23-bd0c-cb90df640df6.root
/store/data/Run2022C/Tau/NANOAOD/22Sep2023-v1/40000/e3282169-7776-4185-95c4-e900f3ef5386.root
/store/data/Run2022C/Tau/NANOAOD/22Sep2023-v1/40000/b843109e-4f78-4d85-8fa6-9ac91103563f.root