/store/mc/Run3Summer23BPixNanoAODv12/DYto2L-2Jets_MLL-50_PTLL-40to100_1J_TuneCP5_13p6TeV_amcatnloFXFX-pythia8/NANOAODSIM/130X_mcRun3_2023_realistic_postBPix_v2-v1/2560000/74a7cd70-36ea-4f6d-b7b1-8022f16e0e65.root
/store/mc/Run3Summer23BPixNanoAODv12/DYto2L-2Jets_MLL-50_PTLL-40to100_1J_TuneCP5_13p6TeV_amcatnloFXFX-pythia8/NANOAODSIM/130X_mcRun3_2023_realistic_postBPix_v2-v1/2560000/dc5cabe3-323c-46b9-9846-2c361ecd6d46.root
/store/mc/Run3Summer23BPixNanoAODv12/DYto2L-2Jets_MLL-50_PTLL-40to100_1J_TuneCP5_13p6TeV_amcatnloFXFX-pythia8/NANOAODSIM/130X_mcRun3_2023_realistic_postBPix_v2-v1/2560000/d85c9e5f-8aa8-4638-809a-5f41a1107079.root
/store/mc/Run3Summer23BPixNanoAODv12/DYto2L-2Jets_MLL-50_PTLL-40to100_1J_TuneCP5_13p6TeV_amcatnloFXFX-pythia8/NANOAODSIM/130X_mcRun3_2023_realistic_postBPix_v2-v1/2560000/d7f8b225-8901-4a41-87ba-918f48959baf.root
/store/mc/Run3Summer23BPixNanoAODv12/DYto2L-2Jets_MLL-50_PTLL-40to100_1J_TuneCP5_13p6TeV_amcatnloFXFX-pythia8/NANOAODSIM/130X_mcRun3_2023_realistic_postBPix_v2-v1/2560000/35fba095-e931-4966-9bb8-a49642a65b47.root
/store/mc/Run3Summer23BPixNanoAODv12/DYto2L-2Jets_MLL-50_PTLL-40to100_1J_TuneCP5_13p6TeV_amcatnloFXFX-pythia8/NANOAODSIM/130X_mcRun3_2023_realistic_postBPix_v2-v1/2560000/68fbb8ca-64c4-466a-8ded-44825e1f7e4c.root
/store/mc/Run3Summer23BPixNanoAODv12/DYto2L-2Jets_MLL-50_PTLL-40to100_1J_TuneCP5_13p6TeV_amcatnloFXFX-pythia8/NANOAODSIM/130X_mcRun3_2023_realistic_postBPix_v2-v1/2560000/241ce33a-2640-4bc7-8ff3-a4ad17d6416e.root
/store/mc/Run3Summer23BPixNanoAODv12/DYto2L-2Jets_MLL-50_PTLL-40to100_1J_TuneCP5_13p6TeV_amcatnloFXFX-pythia8/NANOAODSIM/130X_mcRun3_2023_realistic_postBPix_v2-v1/2560000/b1975a49-3a1a-4007-90d3-0d19db78c1ef.root
/store/mc/Run3Summer23BPixNanoAODv12/DYto2L-2Jets_MLL-50_PTLL-40to100_1J_TuneCP5_13p6TeV_amcatnloFXFX-pythia8/NANOAODSIM/130X_mcRun3_2023_realistic_postBPix_v2-v1/2560000/e699b3d3-7d32-4a49-91aa-2d838d33f87d.root
/store/mc/Run3Summer23BPixNanoAODv12/DYto2L-2Jets_MLL-50_PTLL-40to100_1J_TuneCP5_13p6TeV_amcatnloFXFX-pythia8/NANOAODSIM/130X_mcRun3_2023_realistic_postBPix_v2-v1/2560000/07e2941d-3a49-48c5-b5c9-6bb4016d228c.root
/store/mc/Run3Summer23BPixNanoAODv12/DYto2L-2Jets_MLL-50_PTLL-40to100_1J_TuneCP5_13p6TeV_amcatnloFXFX-pythia8/NANOAODSIM/130X_mcRun3_2023_realistic_postBPix_v2-v1/2560000/c94fdab9-e40e-45a6-9cbe-6c00a2ffbd7e.root
/store/mc/Run3Summer23BPixNanoAODv12/DYto2L-2Jets_MLL-50_PTLL-40to100_1J_TuneCP5_13p6TeV_amcatnloFXFX-pythia8/NANOAODSIM/130X_mcRun3_2023_realistic_postBPix_v2-v1/2560000/7425f136-8aef-4155-8e9c-341c6b4ba69d.root
/store/mc/Run3Summer23BPixNanoAODv12/DYto2L-2Jets_MLL-50_PTLL-40to100_1J_TuneCP5_13p6TeV_amcatnloFXFX-pythia8/NANOAODSIM/130X_mcRun3_2023_realistic_postBPix_v2-v1/2560000/131fe91c-a059-463f-84c8-a1c1e0de838c.root
/store/mc/Run3Summer23BPixNanoAODv12/DYto2L-2Jets_MLL-50_PTLL-40to100_1J_TuneCP5_13p6TeV_amcatnloFXFX-pythia8/NANOAODSIM/130X_mcRun3_2023_realistic_postBPix_v2-v1/2560000/7f978c49-5141-4281-982d-63f5ef5d0dc3.root
/store/mc/Run3Summer23BPixNanoAODv12/DYto2L-2Jets_MLL-50_PTLL-40to100_1J_TuneCP5_13p6TeV_amcatnloFXFX-pythia8/NANOAODSIM/130X_mcRun3_2023_realistic_postBPix_v2-v1/2560000/2e89d5ab-391a-49be-a1e4-3db9872f05a5.root
/store/mc/Run3Summer23BPixNanoAODv12/DYto2L-2Jets_MLL-50_PTLL-40to100_1J_TuneCP5_13p6TeV_amcatnloFXFX-pythia8/NANOAODSIM/130X_mcRun3_2023_realistic_postBPix_v2-v1/2560000/e5df7a35-3e4a-4ce1-a074-07bacd90b02d.root
/store/mc/Run3Summer23BPixNanoAODv12/DYto2L-2Jets_MLL-50_PTLL-40to100_1J_TuneCP5_13p6TeV_amcatnloFXFX-pythia8/NANOAODSIM/130X_mcRun3_2023_realistic_postBPix_v2-v1/2560000/345e0ad7-b749-4944-8560-d1f5118bb020.root
/store/mc/Run3Summer23BPixNanoAODv12/DYto2L-2Jets_MLL-50_PTLL-40to100_1J_TuneCP5_13p6TeV_amcatnloFXFX-pythia8/NANOAODSIM/130X_mcRun3_2023_realistic_postBPix_v2-v1/2560000/918aa8ac-d3d1-473a-a0dc-e21e048a626a.root
/store/mc/Run3Summer23BPixNanoAODv12/DYto2L-2Jets_MLL-50_PTLL-40to100_1J_TuneCP5_13p6TeV_amcatnloFXFX-pythia8/NANOAODSIM/130X_mcRun3_2023_realistic_postBPix_v2-v1/70000/c130fb31-f68e-4c94-939c-26a91ecaa5d0.root
/store/mc/Run3Summer23BPixNanoAODv12/DYto2L-2Jets_MLL-50_PTLL-40to100_1J_TuneCP5_13p6TeV_amcatnloFXFX-pythia8/NANOAODSIM/130X_mcRun3_2023_realistic_postBPix_v2-v1/70000/7b269a89-38c7-4313-ae24-458fe7bef283.root
/store/mc/Run3Summer23BPixNanoAODv12/DYto2L-2Jets_MLL-50_PTLL-40to100_1J_TuneCP5_13p6TeV_amcatnloFXFX-pythia8/NANOAODSIM/130X_mcRun3_2023_realistic_postBPix_v2-v1/70000/41fcc655-0e2c-4f53-81de-6493039b30ed.root
/store/mc/Run3Summer23BPixNanoAODv12/DYto2L-2Jets_MLL-50_PTLL-40to100_1J_TuneCP5_13p6TeV_amcatnloFXFX-pythia8/NANOAODSIM/130X_mcRun3_2023_realistic_postBPix_v2-v1/70000/a17c87c9-0b1f-499b-966d-879e8f99ed4e.root
/store/mc/Run3Summer23BPixNanoAODv12/DYto2L-2Jets_MLL-50_PTLL-40to100_1J_TuneCP5_13p6TeV_amcatnloFXFX-pythia8/NANOAODSIM/130X_mcRun3_2023_realistic_postBPix_v2-v1/70000/b1e523d7-4c1e-4055-ab70-b0aa111316bb.root
/store/mc/Run3Summer23BPixNanoAODv12/DYto2L-2Jets_MLL-50_PTLL-40to100_1J_TuneCP5_13p6TeV_amcatnloFXFX-pythia8/NANOAODSIM/130X_mcRun3_2023_realistic_postBPix_v2-v1/70000/da428b13-0d00-4dbf-acc5-4f2ea204ca5e.root
/store/mc/Run3Summer23BPixNanoAODv12/DYto2L-2Jets_MLL-50_PTLL-40to100_1J_TuneCP5_13p6TeV_amcatnloFXFX-pythia8/NANOAODSIM/130X_mcRun3_2023_realistic_postBPix_v2-v1/70000/348a8f76-d265-48af-bab4-62070cc2077d.root
/store/mc/Run3Summer23BPixNanoAODv12/DYto2L-2Jets_MLL-50_PTLL-40to100_1J_TuneCP5_13p6TeV_amcatnloFXFX-pythia8/NANOAODSIM/130X_mcRun3_2023_realistic_postBPix_v2-v1/70000/bdcd905d-5554-489c-a55d-4fb1309aaea1.root
/store/mc/Run3Summer23BPixNanoAODv12/DYto2L-2Jets_MLL-50_PTLL-40to100_1J_TuneCP5_13p6TeV_amcatnloFXFX-pythia8/NANOAODSIM/130X_mcRun3_2023_realistic_postBPix_v2-v1/70000/a3f2b6bc-5b48-4130-aa2f-24347f1db414.root
/store/mc/Run3Summer23BPixNanoAODv12/DYto2L-2Jets_MLL-50_PTLL-40to100_1J_TuneCP5_13p6TeV_amcatnloFXFX-pythia8/NANOAODSIM/130X_mcRun3_2023_realistic_postBPix_v2-v1/70000/2892b63b-f3f8-4ec2-a74c-0ee5e0982c95.root
/store/mc/Run3Summer23BPixNanoAODv12/DYto2L-2Jets_MLL-50_PTLL-40to100_1J_TuneCP5_13p6TeV_amcatnloFXFX-pythia8/NANOAODSIM/130X_mcRun3_2023_realistic_postBPix_v2-v1/70000/c7481aad-5063-47fb-8d15-af9c02aca8a6.root
/store/mc/Run3Summer23BPixNanoAODv12/DYto2L-2Jets_MLL-50_PTLL-40to100_1J_TuneCP5_13p6TeV_amcatnloFXFX-pythia8/NANOAODSIM/130X_mcRun3_2023_realistic_postBPix_v2-v1/70000/aac68f3e-b74d-4091-ae81-dae411f67876.root
/store/mc/Run3Summer23BPixNanoAODv12/DYto2L-2Jets_MLL-50_PTLL-40to100_1J_TuneCP5_13p6TeV_amcatnloFXFX-pythia8/NANOAODSIM/130X_mcRun3_2023_realistic_postBPix_v2-v1/70000/fb2b8eea-0989-48e5-9b9c-6f838b9d36c0.root
/store/mc/Run3Summer23BPixNanoAODv12/DYto2L-2Jets_MLL-50_PTLL-40to100_1J_TuneCP5_13p6TeV_amcatnloFXFX-pythia8/NANOAODSIM/130X_mcRun3_2023_realistic_postBPix_v2-v1/70000/d45ef720-cb1f-4c7a-8ac3-33a5f8b5bc0c.root
/store/mc/Run3Summer23BPixNanoAODv12/DYto2L-2Jets_MLL-50_PTLL-40to100_1J_TuneCP5_13p6TeV_amcatnloFXFX-pythia8/NANOAODSIM/130X_mcRun3_2023_realistic_postBPix_v2-v1/70000/04a13f06-d540-4620-8884-7660fa2ce949.root
/store/mc/Run3Summer23BPixNanoAODv12/DYto2L-2Jets_MLL-50_PTLL-40to100_1J_TuneCP5_13p6TeV_amcatnloFXFX-pythia8/NANOAODSIM/130X_mcRun3_2023_realistic_postBPix_v2-v1/70000/e18f2427-6464-440d-9e87-e068b795fd74.root
/store/mc/Run3Summer23BPixNanoAODv12/DYto2L-2Jets_MLL-50_PTLL-40to100_1J_TuneCP5_13p6TeV_amcatnloFXFX-pythia8/NANOAODSIM/130X_mcRun3_2023_realistic_postBPix_v2-v1/70000/4613e0ed-efd1-40b1-9d29-f445ef46936a.root
/store/mc/Run3Summer23BPixNanoAODv12/DYto2L-2Jets_MLL-50_PTLL-40to100_1J_TuneCP5_13p6TeV_amcatnloFXFX-pythia8/NANOAODSIM/130X_mcRun3_2023_realistic_postBPix_v2-v1/70000/b3bc20d4-6f86-4840-a371-89b4ebd54514.root
/store/mc/Run3Summer23BPixNanoAODv12/DYto2L-2Jets_MLL-50_PTLL-40to100_1J_TuneCP5_13p6TeV_amcatnloFXFX-pythia8/NANOAODSIM/130X_mcRun3_2023_realistic_postBPix_v2-v1/70000/d18ced04-6a55-42db-89e1-7472c8948634.root
/store/mc/Run3Summer23BPixNanoAODv12/DYto2L-2Jets_MLL-50_PTLL-40to100_1J_TuneCP5_13p6TeV_amcatnloFXFX-pythia8/NANOAODSIM/130X_mcRun3_2023_realistic_postBPix_v2-v1/70000/206cb384-5071-446e-ac75-ad93b738e5fa.root
/store/mc/Run3Summer23BPixNanoAODv12/DYto2L-2Jets_MLL-50_PTLL-40to100_1J_TuneCP5_13p6TeV_amcatnloFXFX-pythia8/NANOAODSIM/130X_mcRun3_2023_realistic_postBPix_v2-v1/70000/cdd1f7ec-d1d7-425d-8b87-6bd20998ab27.root
/store/mc/Run3Summer23BPixNanoAODv12/DYto2L-2Jets_MLL-50_PTLL-40to100_1J_TuneCP5_13p6TeV_amcatnloFXFX-pythia8/NANOAODSIM/130X_mcRun3_2023_realistic_postBPix_v2-v1/70000/75b0fb64-cbdc-4642-bc63-ba436ac34b47.root
/store/mc/Run3Summer23BPixNanoAODv12/DYto2L-2Jets_MLL-50_PTLL-40to100_1J_TuneCP5_13p6TeV_amcatnloFXFX-pythia8/NANOAODSIM/130X_mcRun3_2023_realistic_postBPix_v2-v1/70000/b53b25e7-1f0d-42cc-b34c-ced9b3e981ff.root
/store/mc/Run3Summer23BPixNanoAODv12/DYto2L-2Jets_MLL-50_PTLL-40to100_1J_TuneCP5_13p6TeV_amcatnloFXFX-pythia8/NANOAODSIM/130X_mcRun3_2023_realistic_postBPix_v2-v1/70000/fe036cc9-384d-456a-80f9-92e843e94049.root
/store/mc/Run3Summer23BPixNanoAODv12/DYto2L-2Jets_MLL-50_PTLL-40to100_1J_TuneCP5_13p6TeV_amcatnloFXFX-pythia8/NANOAODSIM/130X_mcRun3_2023_realistic_postBPix_v2-v1/70000/ee9f3191-d817-4de4-90ca-5daf802944f4.root
/store/mc/Run3Summer23BPixNanoAODv12/DYto2L-2Jets_MLL-50_PTLL-40to100_1J_TuneCP5_13p6TeV_amcatnloFXFX-pythia8/NANOAODSIM/130X_mcRun3_2023_realistic_postBPix_v2-v1/70000/a4763ccc-df2d-4e29-8043-004fd0880378.root
/store/mc/Run3Summer23BPixNanoAODv12/DYto2L-2Jets_MLL-50_PTLL-40to100_1J_TuneCP5_13p6TeV_amcatnloFXFX-pythia8/NANOAODSIM/130X_mcRun3_2023_realistic_postBPix_v2-v1/70000/c8647cdd-898e-4f64-a511-a5d73139d7bf.root
/store/mc/Run3Summer23BPixNanoAODv12/DYto2L-2Jets_MLL-50_PTLL-40to100_1J_TuneCP5_13p6TeV_amcatnloFXFX-pythia8/NANOAODSIM/130X_mcRun3_2023_realistic_postBPix_v2-v1/70000/6d692e81-bd09-486c-9580-a7f10892cbdb.root
/store/mc/Run3Summer23BPixNanoAODv12/DYto2L-2Jets_MLL-50_PTLL-40to100_1J_TuneCP5_13p6TeV_amcatnloFXFX-pythia8/NANOAODSIM/130X_mcRun3_2023_realistic_postBPix_v2-v1/70000/ac875724-bcae-44ba-8942-9408520afaa1.root
/store/mc/Run3Summer23BPixNanoAODv12/DYto2L-2Jets_MLL-50_PTLL-40to100_1J_TuneCP5_13p6TeV_amcatnloFXFX-pythia8/NANOAODSIM/130X_mcRun3_2023_realistic_postBPix_v2-v1/70000/4c6a1cf6-ff46-4b76-ad56-9dae0993cc1b.root
/store/mc/Run3Summer23BPixNanoAODv12/DYto2L-2Jets_MLL-50_PTLL-40to100_1J_TuneCP5_13p6TeV_amcatnloFXFX-pythia8/NANOAODSIM/130X_mcRun3_2023_realistic_postBPix_v2-v1/70000/1fe5e319-f25e-4598-956a-10498faadcc0.root
/store/mc/Run3Summer23BPixNanoAODv12/DYto2L-2Jets_MLL-50_PTLL-40to100_1J_TuneCP5_13p6TeV_amcatnloFXFX-pythia8/NANOAODSIM/130X_mcRun3_2023_realistic_postBPix_v2-v1/70000/957b9716-456d-4b4d-a831-f1388113a54e.root
/store/mc/Run3Summer23BPixNanoAODv12/DYto2L-2Jets_MLL-50_PTLL-40to100_1J_TuneCP5_13p6TeV_amcatnloFXFX-pythia8/NANOAODSIM/130X_mcRun3_2023_realistic_postBPix_v2-v1/70000/d950000c-de8c-4545-94d2-541bd7652874.root
/store/mc/Run3Summer23BPixNanoAODv12/DYto2L-2Jets_MLL-50_PTLL-40to100_1J_TuneCP5_13p6TeV_amcatnloFXFX-pythia8/NANOAODSIM/130X_mcRun3_2023_realistic_postBPix_v2-v1/70000/c4b93c26-7a57-4af4-99fc-1d3e7404d9d9.root
/store/mc/Run3Summer23BPixNanoAODv12/DYto2L-2Jets_MLL-50_PTLL-40to100_1J_TuneCP5_13p6TeV_amcatnloFXFX-pythia8/NANOAODSIM/130X_mcRun3_2023_realistic_postBPix_v2-v1/70000/8ae08118-9c06-4a67-91dd-9d8684cfd8be.root
/store/mc/Run3Summer23BPixNanoAODv12/DYto2L-2Jets_MLL-50_PTLL-40to100_1J_TuneCP5_13p6TeV_amcatnloFXFX-pythia8/NANOAODSIM/130X_mcRun3_2023_realistic_postBPix_v2-v1/70000/6e35ff2f-ec38-4d93-824f-b0ea6c8e6ed8.root
/store/mc/Run3Summer23BPixNanoAODv12/DYto2L-2Jets_MLL-50_PTLL-40to100_1J_TuneCP5_13p6TeV_amcatnloFXFX-pythia8/NANOAODSIM/130X_mcRun3_2023_realistic_postBPix_v2-v1/70000/a9290fd6-edf5-4aaf-bbab-456ecd7a01e3.root
/store/mc/Run3Summer23BPixNanoAODv12/DYto2L-2Jets_MLL-50_PTLL-40to100_1J_TuneCP5_13p6TeV_amcatnloFXFX-pythia8/NANOAODSIM/130X_mcRun3_2023_realistic_postBPix_v2-v1/70000/1d5fec5d-9dcb-42da-8ef4-182336a47a1e.root
/store/mc/Run3Summer23BPixNanoAODv12/DYto2L-2Jets_MLL-50_PTLL-40to100_1J_TuneCP5_13p6TeV_amcatnloFXFX-pythia8/NANOAODSIM/130X_mcRun3_2023_realistic_postBPix_v2-v1/70000/0829548f-2ad1-495f-893d-23a9dee5a805.root
/store/mc/Run3Summer23BPixNanoAODv12/DYto2L-2Jets_MLL-50_PTLL-40to100_1J_TuneCP5_13p6TeV_amcatnloFXFX-pythia8/NANOAODSIM/130X_mcRun3_2023_realistic_postBPix_v2-v1/70000/ce861022-0078-40bc-ae12-be2985e64749.root
/store/mc/Run3Summer23BPixNanoAODv12/DYto2L-2Jets_MLL-50_PTLL-40to100_1J_TuneCP5_13p6TeV_amcatnloFXFX-pythia8/NANOAODSIM/130X_mcRun3_2023_realistic_postBPix_v2-v1/70000/6b2e4133-241f-4861-b80c-833ccaa2c252.root
/store/mc/Run3Summer23BPixNanoAODv12/DYto2L-2Jets_MLL-50_PTLL-40to100_1J_TuneCP5_13p6TeV_amcatnloFXFX-pythia8/NANOAODSIM/130X_mcRun3_2023_realistic_postBPix_v2-v1/70000/c5e3878e-d9c1-464f-ac88-e8ee589cfe8d.root
/store/mc/Run3Summer23BPixNanoAODv12/DYto2L-2Jets_MLL-50_PTLL-40to100_1J_TuneCP5_13p6TeV_amcatnloFXFX-pythia8/NANOAODSIM/130X_mcRun3_2023_realistic_postBPix_v2-v1/70000/54ce94dd-fc6e-41dc-bcc8-fea3ac784841.root
/store/mc/Run3Summer23BPixNanoAODv12/DYto2L-2Jets_MLL-50_PTLL-40to100_1J_TuneCP5_13p6TeV_amcatnloFXFX-pythia8/NANOAODSIM/130X_mcRun3_2023_realistic_postBPix_v2-v1/70000/215c1d19-a521-4003-8d3c-e5dc536d850d.root
/store/mc/Run3Summer23BPixNanoAODv12/DYto2L-2Jets_MLL-50_PTLL-40to100_1J_TuneCP5_13p6TeV_amcatnloFXFX-pythia8/NANOAODSIM/130X_mcRun3_2023_realistic_postBPix_v2-v1/70000/664b2179-7f78-41c2-947a-02e27b9f0af5.root
/store/mc/Run3Summer23BPixNanoAODv12/DYto2L-2Jets_MLL-50_PTLL-40to100_1J_TuneCP5_13p6TeV_amcatnloFXFX-pythia8/NANOAODSIM/130X_mcRun3_2023_realistic_postBPix_v2-v1/70000/441d03a6-cdc8-4106-a29e-b4a2af66e8c2.root
/store/mc/Run3Summer23BPixNanoAODv12/DYto2L-2Jets_MLL-50_PTLL-40to100_1J_TuneCP5_13p6TeV_amcatnloFXFX-pythia8/NANOAODSIM/130X_mcRun3_2023_realistic_postBPix_v2-v1/70000/64253f6a-fc2b-4a04-bc45-efe3d286d248.root
/store/mc/Run3Summer23BPixNanoAODv12/DYto2L-2Jets_MLL-50_PTLL-40to100_1J_TuneCP5_13p6TeV_amcatnloFXFX-pythia8/NANOAODSIM/130X_mcRun3_2023_realistic_postBPix_v2-v1/2560000/cdfae91e-f495-4104-92b1-e5b1685bbb3c.root
/store/mc/Run3Summer23BPixNanoAODv12/DYto2L-2Jets_MLL-50_PTLL-40to100_1J_TuneCP5_13p6TeV_amcatnloFXFX-pythia8/NANOAODSIM/130X_mcRun3_2023_realistic_postBPix_v2-v1/2560000/446cfd3e-f2b7-4c9a-826a-df246d0884aa.root
/store/mc/Run3Summer23BPixNanoAODv12/DYto2L-2Jets_MLL-50_PTLL-40to100_1J_TuneCP5_13p6TeV_amcatnloFXFX-pythia8/NANOAODSIM/130X_mcRun3_2023_realistic_postBPix_v2-v1/2560000/99a17416-40d0-4f9a-87f9-54e7596972c6.root
/store/mc/Run3Summer23BPixNanoAODv12/DYto2L-2Jets_MLL-50_PTLL-40to100_1J_TuneCP5_13p6TeV_amcatnloFXFX-pythia8/NANOAODSIM/130X_mcRun3_2023_realistic_postBPix_v2-v1/2560000/3619597b-bf15-4fa1-aeb2-3da8cab256e2.root
/store/mc/Run3Summer23BPixNanoAODv12/DYto2L-2Jets_MLL-50_PTLL-40to100_1J_TuneCP5_13p6TeV_amcatnloFXFX-pythia8/NANOAODSIM/130X_mcRun3_2023_realistic_postBPix_v2-v1/2560000/0496d2ce-e2b2-415a-897e-60fe12f15941.root
/store/mc/Run3Summer23BPixNanoAODv12/DYto2L-2Jets_MLL-50_PTLL-40to100_1J_TuneCP5_13p6TeV_amcatnloFXFX-pythia8/NANOAODSIM/130X_mcRun3_2023_realistic_postBPix_v2-v1/2560000/1f4f04bf-ae87-4774-99e1-7432a72381a4.root
/store/mc/Run3Summer23BPixNanoAODv12/DYto2L-2Jets_MLL-50_PTLL-40to100_1J_TuneCP5_13p6TeV_amcatnloFXFX-pythia8/NANOAODSIM/130X_mcRun3_2023_realistic_postBPix_v2-v1/2560000/fd9a9fea-d47b-4904-9afa-5aa5f8afb8e0.root
/store/mc/Run3Summer23BPixNanoAODv12/DYto2L-2Jets_MLL-50_PTLL-40to100_1J_TuneCP5_13p6TeV_amcatnloFXFX-pythia8/NANOAODSIM/130X_mcRun3_2023_realistic_postBPix_v2-v1/2560000/fc755f55-8e5b-479a-9c71-f51cd4f07ce0.root
/store/mc/Run3Summer23BPixNanoAODv12/DYto2L-2Jets_MLL-50_PTLL-40to100_1J_TuneCP5_13p6TeV_amcatnloFXFX-pythia8/NANOAODSIM/130X_mcRun3_2023_realistic_postBPix_v2-v1/2560000/bd9a2a71-9b43-4373-957e-973a8d1e7026.root
/store/mc/Run3Summer23BPixNanoAODv12/DYto2L-2Jets_MLL-50_PTLL-40to100_1J_TuneCP5_13p6TeV_amcatnloFXFX-pythia8/NANOAODSIM/130X_mcRun3_2023_realistic_postBPix_v2-v1/2560000/d2a310ef-9267-4d8f-95ac-4961f72ca664.root
/store/mc/Run3Summer23BPixNanoAODv12/DYto2L-2Jets_MLL-50_PTLL-40to100_1J_TuneCP5_13p6TeV_amcatnloFXFX-pythia8/NANOAODSIM/130X_mcRun3_2023_realistic_postBPix_v2-v1/2560000/b06b78ae-c456-44e8-9c1e-5372c44e3ca7.root
/store/mc/Run3Summer23BPixNanoAODv12/DYto2L-2Jets_MLL-50_PTLL-40to100_1J_TuneCP5_13p6TeV_amcatnloFXFX-pythia8/NANOAODSIM/130X_mcRun3_2023_realistic_postBPix_v2-v1/2560000/b107b3eb-955a-4307-bea7-7e1a95441f4a.root
/store/mc/Run3Summer23BPixNanoAODv12/DYto2L-2Jets_MLL-50_PTLL-40to100_1J_TuneCP5_13p6TeV_amcatnloFXFX-pythia8/NANOAODSIM/130X_mcRun3_2023_realistic_postBPix_v2-v1/2560000/16b04689-b380-477a-8b6e-0e385ac1aa32.root
/store/mc/Run3Summer23BPixNanoAODv12/DYto2L-2Jets_MLL-50_PTLL-40to100_1J_TuneCP5_13p6TeV_amcatnloFXFX-pythia8/NANOAODSIM/130X_mcRun3_2023_realistic_postBPix_v2-v1/2560000/9059408c-19a7-4553-ab55-a9dfacb8f67a.root
/store/mc/Run3Summer23BPixNanoAODv12/DYto2L-2Jets_MLL-50_PTLL-40to100_1J_TuneCP5_13p6TeV_amcatnloFXFX-pythia8/NANOAODSIM/130X_mcRun3_2023_realistic_postBPix_v2-v1/2560000/62598b5d-9866-47fd-9dc9-108b58f64648.root
/store/mc/Run3Summer23BPixNanoAODv12/DYto2L-2Jets_MLL-50_PTLL-40to100_1J_TuneCP5_13p6TeV_amcatnloFXFX-pythia8/NANOAODSIM/130X_mcRun3_2023_realistic_postBPix_v2-v1/2560000/26350452-ba6e-4622-a76e-d75a50e0cdc2.root
/store/mc/Run3Summer23BPixNanoAODv12/DYto2L-2Jets_MLL-50_PTLL-40to100_1J_TuneCP5_13p6TeV_amcatnloFXFX-pythia8/NANOAODSIM/130X_mcRun3_2023_realistic_postBPix_v2-v1/70000/9797b707-caac-43dd-9b87-e0fd09a1ac8b.root
/store/mc/Run3Summer23BPixNanoAODv12/DYto2L-2Jets_MLL-50_PTLL-40to100_1J_TuneCP5_13p6TeV_amcatnloFXFX-pythia8/NANOAODSIM/130X_mcRun3_2023_realistic_postBPix_v2-v1/70000/cf06d05d-72ce-43aa-bccf-0755a3af5479.root
/store/mc/Run3Summer23BPixNanoAODv12/DYto2L-2Jets_MLL-50_PTLL-40to100_1J_TuneCP5_13p6TeV_amcatnloFXFX-pythia8/NANOAODSIM/130X_mcRun3_2023_realistic_postBPix_v2-v1/2560000/1ec2c975-8ecd-436f-abd9-4982ce1145cd.root
/store/mc/Run3Summer23BPixNanoAODv12/DYto2L-2Jets_MLL-50_PTLL-40to100_1J_TuneCP5_13p6TeV_amcatnloFXFX-pythia8/NANOAODSIM/130X_mcRun3_2023_realistic_postBPix_v2-v1/70000/1a6f4571-2d05-4172-873b-7e478997bd7e.root
/store/mc/Run3Summer23BPixNanoAODv12/DYto2L-2Jets_MLL-50_PTLL-40to100_1J_TuneCP5_13p6TeV_amcatnloFXFX-pythia8/NANOAODSIM/130X_mcRun3_2023_realistic_postBPix_v2-v1/70000/04f9258f-f77f-4736-bfed-62bfe0d836f3.root
/store/mc/Run3Summer23BPixNanoAODv12/DYto2L-2Jets_MLL-50_PTLL-40to100_1J_TuneCP5_13p6TeV_amcatnloFXFX-pythia8/NANOAODSIM/130X_mcRun3_2023_realistic_postBPix_v2-v1/70000/c31ff5c0-2287-44f1-86ba-18ac67a53a4c.root
/store/mc/Run3Summer23BPixNanoAODv12/DYto2L-2Jets_MLL-50_PTLL-40to100_1J_TuneCP5_13p6TeV_amcatnloFXFX-pythia8/NANOAODSIM/130X_mcRun3_2023_realistic_postBPix_v2-v1/2560000/0fbd7b53-dfa7-4a9b-a612-d9cfd664d0b2.root
/store/mc/Run3Summer23BPixNanoAODv12/DYto2L-2Jets_MLL-50_PTLL-40to100_1J_TuneCP5_13p6TeV_amcatnloFXFX-pythia8/NANOAODSIM/130X_mcRun3_2023_realistic_postBPix_v2-v1/2560000/66501787-56a4-40ff-b67f-f7e31935d84b.root
/store/mc/Run3Summer23BPixNanoAODv12/DYto2L-2Jets_MLL-50_PTLL-40to100_1J_TuneCP5_13p6TeV_amcatnloFXFX-pythia8/NANOAODSIM/130X_mcRun3_2023_realistic_postBPix_v2-v1/2560000/89b5ba7e-8287-4826-bf37-9efd59377ce5.root
/store/mc/Run3Summer23BPixNanoAODv12/DYto2L-2Jets_MLL-50_PTLL-40to100_1J_TuneCP5_13p6TeV_amcatnloFXFX-pythia8/NANOAODSIM/130X_mcRun3_2023_realistic_postBPix_v2-v1/70000/019a43e8-3e37-4b84-aa8e-46f9fff1719f.root
/store/mc/Run3Summer23BPixNanoAODv12/DYto2L-2Jets_MLL-50_PTLL-40to100_1J_TuneCP5_13p6TeV_amcatnloFXFX-pythia8/NANOAODSIM/130X_mcRun3_2023_realistic_postBPix_v2-v1/70000/248b89aa-2e6c-4a0d-b134-be1c402b353d.root
/store/mc/Run3Summer23BPixNanoAODv12/DYto2L-2Jets_MLL-50_PTLL-40to100_1J_TuneCP5_13p6TeV_amcatnloFXFX-pythia8/NANOAODSIM/130X_mcRun3_2023_realistic_postBPix_v2-v1/70000/d40a6d81-18dd-45ae-a647-a116cf06aee1.root
/store/mc/Run3Summer23BPixNanoAODv12/DYto2L-2Jets_MLL-50_PTLL-40to100_1J_TuneCP5_13p6TeV_amcatnloFXFX-pythia8/NANOAODSIM/130X_mcRun3_2023_realistic_postBPix_v2-v1/70000/f4ea4f62-fee2-4d4a-94b1-6864569b5e20.root
/store/mc/Run3Summer23BPixNanoAODv12/DYto2L-2Jets_MLL-50_PTLL-40to100_1J_TuneCP5_13p6TeV_amcatnloFXFX-pythia8/NANOAODSIM/130X_mcRun3_2023_realistic_postBPix_v2-v1/70000/758569a0-0cf8-42e6-8f8e-5461c0cce728.root
/store/mc/Run3Summer23BPixNanoAODv12/DYto2L-2Jets_MLL-50_PTLL-40to100_1J_TuneCP5_13p6TeV_amcatnloFXFX-pythia8/NANOAODSIM/130X_mcRun3_2023_realistic_postBPix_v2-v1/70000/2b874d4e-c574-450b-8a76-10159515dac9.root
/store/mc/Run3Summer23BPixNanoAODv12/DYto2L-2Jets_MLL-50_PTLL-40to100_1J_TuneCP5_13p6TeV_amcatnloFXFX-pythia8/NANOAODSIM/130X_mcRun3_2023_realistic_postBPix_v2-v1/70000/d8816826-7a7f-4ced-881a-2d107d464cf5.root
/store/mc/Run3Summer23BPixNanoAODv12/DYto2L-2Jets_MLL-50_PTLL-40to100_1J_TuneCP5_13p6TeV_amcatnloFXFX-pythia8/NANOAODSIM/130X_mcRun3_2023_realistic_postBPix_v2-v1/70000/fa059cd7-384f-4b0d-a6c6-1c05159fa0fb.root
/store/mc/Run3Summer23BPixNanoAODv12/DYto2L-2Jets_MLL-50_PTLL-40to100_1J_TuneCP5_13p6TeV_amcatnloFXFX-pythia8/NANOAODSIM/130X_mcRun3_2023_realistic_postBPix_v2-v1/70000/7154c8a6-b69f-4e36-9be3-435c11ff1fba.root
/store/mc/Run3Summer23BPixNanoAODv12/DYto2L-2Jets_MLL-50_PTLL-40to100_1J_TuneCP5_13p6TeV_amcatnloFXFX-pythia8/NANOAODSIM/130X_mcRun3_2023_realistic_postBPix_v2-v1/70000/6afaa899-b5b5-499f-8f6a-64ec0aa57b22.root
/store/mc/Run3Summer23BPixNanoAODv12/DYto2L-2Jets_MLL-50_PTLL-40to100_1J_TuneCP5_13p6TeV_amcatnloFXFX-pythia8/NANOAODSIM/130X_mcRun3_2023_realistic_postBPix_v2-v1/70000/463543e7-59ed-4561-8466-9cdba3f5ddd0.root
/store/mc/Run3Summer23BPixNanoAODv12/DYto2L-2Jets_MLL-50_PTLL-40to100_1J_TuneCP5_13p6TeV_amcatnloFXFX-pythia8/NANOAODSIM/130X_mcRun3_2023_realistic_postBPix_v2-v1/2550000/7ce2c8dc-0e4b-49c0-9ea3-55d9c9803e66.root
/store/mc/Run3Summer23BPixNanoAODv12/DYto2L-2Jets_MLL-50_PTLL-40to100_1J_TuneCP5_13p6TeV_amcatnloFXFX-pythia8/NANOAODSIM/130X_mcRun3_2023_realistic_postBPix_v2-v1/70000/c76504bf-8572-43cc-b1e0-fafdd65b07bf.root
/store/mc/Run3Summer23BPixNanoAODv12/DYto2L-2Jets_MLL-50_PTLL-40to100_1J_TuneCP5_13p6TeV_amcatnloFXFX-pythia8/NANOAODSIM/130X_mcRun3_2023_realistic_postBPix_v2-v1/70000/86a309e4-bcba-4c5a-a91c-cd54ea6a8207.root
/store/mc/Run3Summer23BPixNanoAODv12/DYto2L-2Jets_MLL-50_PTLL-40to100_1J_TuneCP5_13p6TeV_amcatnloFXFX-pythia8/NANOAODSIM/130X_mcRun3_2023_realistic_postBPix_v2-v1/2550000/dcab6c2b-b73d-4269-b803-909eb5684841.root
/store/mc/Run3Summer23BPixNanoAODv12/DYto2L-2Jets_MLL-50_PTLL-40to100_1J_TuneCP5_13p6TeV_amcatnloFXFX-pythia8/NANOAODSIM/130X_mcRun3_2023_realistic_postBPix_v2-v1/2550000/af914651-21ba-4286-b347-682159deafd0.root
/store/mc/Run3Summer23BPixNanoAODv12/DYto2L-2Jets_MLL-50_PTLL-40to100_1J_TuneCP5_13p6TeV_amcatnloFXFX-pythia8/NANOAODSIM/130X_mcRun3_2023_realistic_postBPix_v2-v1/2550000/f389008e-05dd-4696-9046-d341ab0cbb11.root
/store/mc/Run3Summer23BPixNanoAODv12/DYto2L-2Jets_MLL-50_PTLL-40to100_1J_TuneCP5_13p6TeV_amcatnloFXFX-pythia8/NANOAODSIM/130X_mcRun3_2023_realistic_postBPix_v2-v1/2550000/8b519e12-635e-42db-9b1b-564d84c4235f.root
/store/mc/Run3Summer23BPixNanoAODv12/DYto2L-2Jets_MLL-50_PTLL-40to100_1J_TuneCP5_13p6TeV_amcatnloFXFX-pythia8/NANOAODSIM/130X_mcRun3_2023_realistic_postBPix_v2-v1/2550000/9acf70a0-bfba-481e-9713-8694a5f21935.root
/store/mc/Run3Summer23BPixNanoAODv12/DYto2L-2Jets_MLL-50_PTLL-40to100_1J_TuneCP5_13p6TeV_amcatnloFXFX-pythia8/NANOAODSIM/130X_mcRun3_2023_realistic_postBPix_v2-v1/2550000/3cde3767-07c9-4d68-98d1-d318d2557d80.root
/store/mc/Run3Summer23BPixNanoAODv12/DYto2L-2Jets_MLL-50_PTLL-40to100_1J_TuneCP5_13p6TeV_amcatnloFXFX-pythia8/NANOAODSIM/130X_mcRun3_2023_realistic_postBPix_v2-v1/60000/4f716c25-80af-44f8-9d27-fc678b87b416.root
/store/mc/Run3Summer23BPixNanoAODv12/DYto2L-2Jets_MLL-50_PTLL-40to100_1J_TuneCP5_13p6TeV_amcatnloFXFX-pythia8/NANOAODSIM/130X_mcRun3_2023_realistic_postBPix_v2-v1/60000/69a16e39-f304-4215-b8db-58baca0fb333.root
/store/mc/Run3Summer23BPixNanoAODv12/DYto2L-2Jets_MLL-50_PTLL-40to100_1J_TuneCP5_13p6TeV_amcatnloFXFX-pythia8/NANOAODSIM/130X_mcRun3_2023_realistic_postBPix_v2-v1/60000/aef78af1-9d5e-4ce1-b564-257421ffa797.root
/store/mc/Run3Summer23BPixNanoAODv12/DYto2L-2Jets_MLL-50_PTLL-40to100_1J_TuneCP5_13p6TeV_amcatnloFXFX-pythia8/NANOAODSIM/130X_mcRun3_2023_realistic_postBPix_v2-v1/60000/e27d3844-9b39-4877-9e66-783954ba7780.root
/store/mc/Run3Summer23BPixNanoAODv12/DYto2L-2Jets_MLL-50_PTLL-40to100_1J_TuneCP5_13p6TeV_amcatnloFXFX-pythia8/NANOAODSIM/130X_mcRun3_2023_realistic_postBPix_v2-v1/60000/1e7d7cb4-b775-4d8c-aa92-2c2ccadb7499.root
/store/mc/Run3Summer23BPixNanoAODv12/DYto2L-2Jets_MLL-50_PTLL-40to100_1J_TuneCP5_13p6TeV_amcatnloFXFX-pythia8/NANOAODSIM/130X_mcRun3_2023_realistic_postBPix_v2-v1/60000/329c1410-55fc-4234-ad09-e954cfff9934.root
/store/mc/Run3Summer23BPixNanoAODv12/DYto2L-2Jets_MLL-50_PTLL-40to100_1J_TuneCP5_13p6TeV_amcatnloFXFX-pythia8/NANOAODSIM/130X_mcRun3_2023_realistic_postBPix_v2-v1/60000/f650ce28-fe16-4af4-870d-194db5a8eaca.root
/store/mc/Run3Summer23BPixNanoAODv12/DYto2L-2Jets_MLL-50_PTLL-40to100_1J_TuneCP5_13p6TeV_amcatnloFXFX-pythia8/NANOAODSIM/130X_mcRun3_2023_realistic_postBPix_v2-v1/60000/4e053ca6-de6a-4c20-b9f6-6febfc13433c.root
/store/mc/Run3Summer23BPixNanoAODv12/DYto2L-2Jets_MLL-50_PTLL-40to100_1J_TuneCP5_13p6TeV_amcatnloFXFX-pythia8/NANOAODSIM/130X_mcRun3_2023_realistic_postBPix_v2-v1/60000/8d164bfa-caf6-4e3d-99d3-2722e863d8bf.root
/store/mc/Run3Summer23BPixNanoAODv12/DYto2L-2Jets_MLL-50_PTLL-40to100_1J_TuneCP5_13p6TeV_amcatnloFXFX-pythia8/NANOAODSIM/130X_mcRun3_2023_realistic_postBPix_v2-v1/60000/d0863a45-862f-4bf3-abc2-087e07d882dd.root
/store/mc/Run3Summer23BPixNanoAODv12/DYto2L-2Jets_MLL-50_PTLL-40to100_1J_TuneCP5_13p6TeV_amcatnloFXFX-pythia8/NANOAODSIM/130X_mcRun3_2023_realistic_postBPix_v2-v1/60000/1d6b73d1-d456-4590-a087-962afcd6d6a4.root
/store/mc/Run3Summer23BPixNanoAODv12/DYto2L-2Jets_MLL-50_PTLL-40to100_1J_TuneCP5_13p6TeV_amcatnloFXFX-pythia8/NANOAODSIM/130X_mcRun3_2023_realistic_postBPix_v2-v1/60000/c5441acb-3782-47c1-817e-ded413b3c2b4.root
/store/mc/Run3Summer23BPixNanoAODv12/DYto2L-2Jets_MLL-50_PTLL-40to100_1J_TuneCP5_13p6TeV_amcatnloFXFX-pythia8/NANOAODSIM/130X_mcRun3_2023_realistic_postBPix_v2-v1/60000/a08a1b61-2139-41b2-a113-9f2d285f5dad.root
/store/mc/Run3Summer23BPixNanoAODv12/DYto2L-2Jets_MLL-50_PTLL-40to100_1J_TuneCP5_13p6TeV_amcatnloFXFX-pythia8/NANOAODSIM/130X_mcRun3_2023_realistic_postBPix_v2-v1/60000/ea29c094-f40b-4641-b42b-4157a0a27718.root
/store/mc/Run3Summer23BPixNanoAODv12/DYto2L-2Jets_MLL-50_PTLL-40to100_1J_TuneCP5_13p6TeV_amcatnloFXFX-pythia8/NANOAODSIM/130X_mcRun3_2023_realistic_postBPix_v2-v1/60000/9a0ddd94-37b8-4fae-b391-f219f5196a22.root
/store/mc/Run3Summer23BPixNanoAODv12/DYto2L-2Jets_MLL-50_PTLL-40to100_1J_TuneCP5_13p6TeV_amcatnloFXFX-pythia8/NANOAODSIM/130X_mcRun3_2023_realistic_postBPix_v2-v1/60000/3e1133a8-d253-4589-ad38-bb15d003ce5b.root
/store/mc/Run3Summer23BPixNanoAODv12/DYto2L-2Jets_MLL-50_PTLL-40to100_1J_TuneCP5_13p6TeV_amcatnloFXFX-pythia8/NANOAODSIM/130X_mcRun3_2023_realistic_postBPix_v2-v1/60000/c6c3edc0-c3ad-4f66-83cc-05fb6e14e7ab.root
/store/mc/Run3Summer23BPixNanoAODv12/DYto2L-2Jets_MLL-50_PTLL-40to100_1J_TuneCP5_13p6TeV_amcatnloFXFX-pythia8/NANOAODSIM/130X_mcRun3_2023_realistic_postBPix_v2-v1/60000/d31f773c-6fdb-4004-adcd-717832cfcffc.root
/store/mc/Run3Summer23BPixNanoAODv12/DYto2L-2Jets_MLL-50_PTLL-40to100_1J_TuneCP5_13p6TeV_amcatnloFXFX-pythia8/NANOAODSIM/130X_mcRun3_2023_realistic_postBPix_v2-v1/60000/3a3947e5-916f-40bb-b27b-eb2875008d25.root
/store/mc/Run3Summer23BPixNanoAODv12/DYto2L-2Jets_MLL-50_PTLL-40to100_1J_TuneCP5_13p6TeV_amcatnloFXFX-pythia8/NANOAODSIM/130X_mcRun3_2023_realistic_postBPix_v2-v1/60000/f7675940-e246-4f0b-ad31-5eca7195f0c8.root
/store/mc/Run3Summer23BPixNanoAODv12/DYto2L-2Jets_MLL-50_PTLL-40to100_1J_TuneCP5_13p6TeV_amcatnloFXFX-pythia8/NANOAODSIM/130X_mcRun3_2023_realistic_postBPix_v2-v1/60000/7ff98af0-2be7-4008-a41c-d0cfba51354e.root
/store/mc/Run3Summer23BPixNanoAODv12/DYto2L-2Jets_MLL-50_PTLL-40to100_1J_TuneCP5_13p6TeV_amcatnloFXFX-pythia8/NANOAODSIM/130X_mcRun3_2023_realistic_postBPix_v2-v1/60000/af3e86ca-b1db-4f96-89fb-3e8b1df828b8.root
/store/mc/Run3Summer23BPixNanoAODv12/DYto2L-2Jets_MLL-50_PTLL-40to100_1J_TuneCP5_13p6TeV_amcatnloFXFX-pythia8/NANOAODSIM/130X_mcRun3_2023_realistic_postBPix_v2-v1/60000/7317f48f-2422-48fb-8c57-aca17b260e04.root
/store/mc/Run3Summer23BPixNanoAODv12/DYto2L-2Jets_MLL-50_PTLL-40to100_1J_TuneCP5_13p6TeV_amcatnloFXFX-pythia8/NANOAODSIM/130X_mcRun3_2023_realistic_postBPix_v2-v1/60000/251b9e94-3eb8-4bcd-af10-2b064f030a8f.root
/store/mc/Run3Summer23BPixNanoAODv12/DYto2L-2Jets_MLL-50_PTLL-40to100_1J_TuneCP5_13p6TeV_amcatnloFXFX-pythia8/NANOAODSIM/130X_mcRun3_2023_realistic_postBPix_v2-v1/60000/a5bf50bc-d114-4331-b040-7ca119061faa.root
/store/mc/Run3Summer23BPixNanoAODv12/DYto2L-2Jets_MLL-50_PTLL-40to100_1J_TuneCP5_13p6TeV_amcatnloFXFX-pythia8/NANOAODSIM/130X_mcRun3_2023_realistic_postBPix_v2-v1/60000/8ccba715-be32-481c-bb5a-4bf756b76786.root
/store/mc/Run3Summer23BPixNanoAODv12/DYto2L-2Jets_MLL-50_PTLL-40to100_1J_TuneCP5_13p6TeV_amcatnloFXFX-pythia8/NANOAODSIM/130X_mcRun3_2023_realistic_postBPix_v2-v1/60000/b37fca67-a01d-442e-8911-cf5abe22b4a2.root
/store/mc/Run3Summer23BPixNanoAODv12/DYto2L-2Jets_MLL-50_PTLL-40to100_1J_TuneCP5_13p6TeV_amcatnloFXFX-pythia8/NANOAODSIM/130X_mcRun3_2023_realistic_postBPix_v2-v1/60000/64425fa9-f586-4590-b302-dd580d024e79.root
/store/mc/Run3Summer23BPixNanoAODv12/DYto2L-2Jets_MLL-50_PTLL-40to100_1J_TuneCP5_13p6TeV_amcatnloFXFX-pythia8/NANOAODSIM/130X_mcRun3_2023_realistic_postBPix_v2-v1/60000/94eb258f-270e-43e6-994b-9c28fbb81743.root
/store/mc/Run3Summer23BPixNanoAODv12/DYto2L-2Jets_MLL-50_PTLL-40to100_1J_TuneCP5_13p6TeV_amcatnloFXFX-pythia8/NANOAODSIM/130X_mcRun3_2023_realistic_postBPix_v2-v1/60000/79a2ca7c-4d8e-40ec-b6c5-766d8bc0b1ab.root
/store/mc/Run3Summer23BPixNanoAODv12/DYto2L-2Jets_MLL-50_PTLL-40to100_1J_TuneCP5_13p6TeV_amcatnloFXFX-pythia8/NANOAODSIM/130X_mcRun3_2023_realistic_postBPix_v2-v1/60000/ad8052bb-892d-4d3d-bab4-8650ccd1ed03.root
/store/mc/Run3Summer23BPixNanoAODv12/DYto2L-2Jets_MLL-50_PTLL-40to100_1J_TuneCP5_13p6TeV_amcatnloFXFX-pythia8/NANOAODSIM/130X_mcRun3_2023_realistic_postBPix_v2-v1/60000/4e443b9d-0356-4f97-996b-5a8af28573c7.root
/store/mc/Run3Summer23BPixNanoAODv12/DYto2L-2Jets_MLL-50_PTLL-40to100_1J_TuneCP5_13p6TeV_amcatnloFXFX-pythia8/NANOAODSIM/130X_mcRun3_2023_realistic_postBPix_v2-v1/60000/bfd4d070-42c7-4c07-8eed-43e4aaa3a3a2.root
/store/mc/Run3Summer23BPixNanoAODv12/DYto2L-2Jets_MLL-50_PTLL-40to100_1J_TuneCP5_13p6TeV_amcatnloFXFX-pythia8/NANOAODSIM/130X_mcRun3_2023_realistic_postBPix_v2-v1/60000/bf5c8eac-a1b6-4347-8570-9a4003cba2eb.root
/store/mc/Run3Summer23BPixNanoAODv12/DYto2L-2Jets_MLL-50_PTLL-40to100_1J_TuneCP5_13p6TeV_amcatnloFXFX-pythia8/NANOAODSIM/130X_mcRun3_2023_realistic_postBPix_v2-v1/60000/3063816e-2f57-4a6a-a3ee-f434fb19c48d.root
/store/mc/Run3Summer23BPixNanoAODv12/DYto2L-2Jets_MLL-50_PTLL-40to100_1J_TuneCP5_13p6TeV_amcatnloFXFX-pythia8/NANOAODSIM/130X_mcRun3_2023_realistic_postBPix_v2-v1/60000/609299de-21c9-4508-b4dc-92dcb300df83.root
/store/mc/Run3Summer23BPixNanoAODv12/DYto2L-2Jets_MLL-50_PTLL-40to100_1J_TuneCP5_13p6TeV_amcatnloFXFX-pythia8/NANOAODSIM/130X_mcRun3_2023_realistic_postBPix_v2-v1/60000/2d0d3f5b-2d74-4975-b5fa-784c39054a1e.root
/store/mc/Run3Summer23BPixNanoAODv12/DYto2L-2Jets_MLL-50_PTLL-40to100_1J_TuneCP5_13p6TeV_amcatnloFXFX-pythia8/NANOAODSIM/130X_mcRun3_2023_realistic_postBPix_v2-v1/60000/46336647-e898-4a65-8bc2-6c605c284e6a.root
/store/mc/Run3Summer23BPixNanoAODv12/DYto2L-2Jets_MLL-50_PTLL-40to100_1J_TuneCP5_13p6TeV_amcatnloFXFX-pythia8/NANOAODSIM/130X_mcRun3_2023_realistic_postBPix_v2-v1/60000/249333ca-4221-4ca6-b7ad-bdc14fac8632.root
/store/mc/Run3Summer23BPixNanoAODv12/DYto2L-2Jets_MLL-50_PTLL-40to100_1J_TuneCP5_13p6TeV_amcatnloFXFX-pythia8/NANOAODSIM/130X_mcRun3_2023_realistic_postBPix_v2-v1/60000/ef55024c-9d94-4d54-975e-4c1b735e07a7.root
/store/mc/Run3Summer23BPixNanoAODv12/DYto2L-2Jets_MLL-50_PTLL-40to100_1J_TuneCP5_13p6TeV_amcatnloFXFX-pythia8/NANOAODSIM/130X_mcRun3_2023_realistic_postBPix_v2-v1/60000/e4ae4d60-80f8-4c4b-8d5e-2555b10583a8.root
/store/mc/Run3Summer23BPixNanoAODv12/DYto2L-2Jets_MLL-50_PTLL-40to100_1J_TuneCP5_13p6TeV_amcatnloFXFX-pythia8/NANOAODSIM/130X_mcRun3_2023_realistic_postBPix_v2-v1/60000/9fd51082-9d05-4a8e-8a91-fa2b81718376.root
/store/mc/Run3Summer23BPixNanoAODv12/DYto2L-2Jets_MLL-50_PTLL-40to100_1J_TuneCP5_13p6TeV_amcatnloFXFX-pythia8/NANOAODSIM/130X_mcRun3_2023_realistic_postBPix_v2-v1/60000/880854f8-c906-453d-900c-c67128fc9292.root
/store/mc/Run3Summer23BPixNanoAODv12/DYto2L-2Jets_MLL-50_PTLL-40to100_1J_TuneCP5_13p6TeV_amcatnloFXFX-pythia8/NANOAODSIM/130X_mcRun3_2023_realistic_postBPix_v2-v1/60000/f7fb57be-4fce-4a0a-8e18-f5730e394cad.root
/store/mc/Run3Summer23BPixNanoAODv12/DYto2L-2Jets_MLL-50_PTLL-40to100_1J_TuneCP5_13p6TeV_amcatnloFXFX-pythia8/NANOAODSIM/130X_mcRun3_2023_realistic_postBPix_v2-v1/60000/f9d86fa8-b23c-461b-86f1-78f7d9085d13.root
/store/mc/Run3Summer23BPixNanoAODv12/DYto2L-2Jets_MLL-50_PTLL-40to100_1J_TuneCP5_13p6TeV_amcatnloFXFX-pythia8/NANOAODSIM/130X_mcRun3_2023_realistic_postBPix_v2-v1/60000/bb332313-b42c-4dd7-9933-36d209cf918d.root
/store/mc/Run3Summer23BPixNanoAODv12/DYto2L-2Jets_MLL-50_PTLL-40to100_1J_TuneCP5_13p6TeV_amcatnloFXFX-pythia8/NANOAODSIM/130X_mcRun3_2023_realistic_postBPix_v2-v1/60000/9f1e61c5-e917-49c0-9f95-5379d7eb763b.root
/store/mc/Run3Summer23BPixNanoAODv12/DYto2L-2Jets_MLL-50_PTLL-40to100_1J_TuneCP5_13p6TeV_amcatnloFXFX-pythia8/NANOAODSIM/130X_mcRun3_2023_realistic_postBPix_v2-v1/60000/e2fc8af6-e3f9-4989-8618-eeb0e46e2eb4.root
/store/mc/Run3Summer23BPixNanoAODv12/DYto2L-2Jets_MLL-50_PTLL-40to100_1J_TuneCP5_13p6TeV_amcatnloFXFX-pythia8/NANOAODSIM/130X_mcRun3_2023_realistic_postBPix_v2-v1/60000/f23f914a-1afa-48f4-a4c0-e05e9f95ef6d.root
/store/mc/Run3Summer23BPixNanoAODv12/DYto2L-2Jets_MLL-50_PTLL-40to100_1J_TuneCP5_13p6TeV_amcatnloFXFX-pythia8/NANOAODSIM/130X_mcRun3_2023_realistic_postBPix_v2-v1/60000/fa40ccf6-58fe-48f4-a3aa-0632d5c67994.root
/store/mc/Run3Summer23BPixNanoAODv12/DYto2L-2Jets_MLL-50_PTLL-40to100_1J_TuneCP5_13p6TeV_amcatnloFXFX-pythia8/NANOAODSIM/130X_mcRun3_2023_realistic_postBPix_v2-v1/60000/b89eb954-6cc9-4eed-a32f-9137332e858f.root
/store/mc/Run3Summer23BPixNanoAODv12/DYto2L-2Jets_MLL-50_PTLL-40to100_1J_TuneCP5_13p6TeV_amcatnloFXFX-pythia8/NANOAODSIM/130X_mcRun3_2023_realistic_postBPix_v2-v1/60000/2d865f33-aaa8-40fd-ac66-3bdaeb7ad99d.root
/store/mc/Run3Summer23BPixNanoAODv12/DYto2L-2Jets_MLL-50_PTLL-40to100_1J_TuneCP5_13p6TeV_amcatnloFXFX-pythia8/NANOAODSIM/130X_mcRun3_2023_realistic_postBPix_v2-v1/60000/f4a51ce2-8369-4e2d-acad-4893ea185b02.root
/store/mc/Run3Summer23BPixNanoAODv12/DYto2L-2Jets_MLL-50_PTLL-40to100_1J_TuneCP5_13p6TeV_amcatnloFXFX-pythia8/NANOAODSIM/130X_mcRun3_2023_realistic_postBPix_v2-v1/60000/26febf41-b386-46ab-8b88-2bf181c2b0ac.root
/store/mc/Run3Summer23BPixNanoAODv12/DYto2L-2Jets_MLL-50_PTLL-40to100_1J_TuneCP5_13p6TeV_amcatnloFXFX-pythia8/NANOAODSIM/130X_mcRun3_2023_realistic_postBPix_v2-v1/60000/03795433-b4ad-4d06-b101-bd1f6d15f396.root
/store/mc/Run3Summer23BPixNanoAODv12/DYto2L-2Jets_MLL-50_PTLL-40to100_1J_TuneCP5_13p6TeV_amcatnloFXFX-pythia8/NANOAODSIM/130X_mcRun3_2023_realistic_postBPix_v2-v1/60000/570be7cb-bd50-4768-965d-9dbba4501516.root
/store/mc/Run3Summer23BPixNanoAODv12/DYto2L-2Jets_MLL-50_PTLL-40to100_1J_TuneCP5_13p6TeV_amcatnloFXFX-pythia8/NANOAODSIM/130X_mcRun3_2023_realistic_postBPix_v2-v1/60000/618807bd-f10e-48da-9a20-f2fe0469c795.root
/store/mc/Run3Summer23BPixNanoAODv12/DYto2L-2Jets_MLL-50_PTLL-40to100_1J_TuneCP5_13p6TeV_amcatnloFXFX-pythia8/NANOAODSIM/130X_mcRun3_2023_realistic_postBPix_v2-v1/60000/af74713c-9cc0-464a-8b26-70bc8832c4bb.root
/store/mc/Run3Summer23BPixNanoAODv12/DYto2L-2Jets_MLL-50_PTLL-40to100_1J_TuneCP5_13p6TeV_amcatnloFXFX-pythia8/NANOAODSIM/130X_mcRun3_2023_realistic_postBPix_v2-v1/60000/61cf410d-77d5-40f6-9796-017322f85c6b.root
/store/mc/Run3Summer23BPixNanoAODv12/DYto2L-2Jets_MLL-50_PTLL-40to100_1J_TuneCP5_13p6TeV_amcatnloFXFX-pythia8/NANOAODSIM/130X_mcRun3_2023_realistic_postBPix_v2-v1/60000/ad543af1-d009-4854-9068-e929944b5bcb.root
/store/mc/Run3Summer23BPixNanoAODv12/DYto2L-2Jets_MLL-50_PTLL-40to100_1J_TuneCP5_13p6TeV_amcatnloFXFX-pythia8/NANOAODSIM/130X_mcRun3_2023_realistic_postBPix_v2-v1/60000/e2753c6e-9388-400b-a08d-4246df7d6632.root
/store/mc/Run3Summer23BPixNanoAODv12/DYto2L-2Jets_MLL-50_PTLL-40to100_1J_TuneCP5_13p6TeV_amcatnloFXFX-pythia8/NANOAODSIM/130X_mcRun3_2023_realistic_postBPix_v2-v1/60000/78ea6d0f-6eaa-4ed3-a8de-b3f29e9a5262.root
/store/mc/Run3Summer23BPixNanoAODv12/DYto2L-2Jets_MLL-50_PTLL-40to100_1J_TuneCP5_13p6TeV_amcatnloFXFX-pythia8/NANOAODSIM/130X_mcRun3_2023_realistic_postBPix_v2-v1/60000/7b9aea64-3485-4ac9-a91f-f6d4a8c13d45.root
/store/mc/Run3Summer23BPixNanoAODv12/DYto2L-2Jets_MLL-50_PTLL-40to100_1J_TuneCP5_13p6TeV_amcatnloFXFX-pythia8/NANOAODSIM/130X_mcRun3_2023_realistic_postBPix_v2-v1/60000/efe0bac7-48e1-439e-93f7-76c0cbd9d485.root
/store/mc/Run3Summer23BPixNanoAODv12/DYto2L-2Jets_MLL-50_PTLL-40to100_1J_TuneCP5_13p6TeV_amcatnloFXFX-pythia8/NANOAODSIM/130X_mcRun3_2023_realistic_postBPix_v2-v1/60000/2d5d00c6-040c-4ff0-ade3-c14c4854b7ea.root
/store/mc/Run3Summer23BPixNanoAODv12/DYto2L-2Jets_MLL-50_PTLL-40to100_1J_TuneCP5_13p6TeV_amcatnloFXFX-pythia8/NANOAODSIM/130X_mcRun3_2023_realistic_postBPix_v2-v1/60000/654072c0-b32e-4d20-ac32-9185af8df1fc.root
/store/mc/Run3Summer23BPixNanoAODv12/DYto2L-2Jets_MLL-50_PTLL-40to100_1J_TuneCP5_13p6TeV_amcatnloFXFX-pythia8/NANOAODSIM/130X_mcRun3_2023_realistic_postBPix_v2-v1/60000/d3fca2ab-d7f9-4674-a360-659110453e97.root
/store/mc/Run3Summer23BPixNanoAODv12/DYto2L-2Jets_MLL-50_PTLL-40to100_1J_TuneCP5_13p6TeV_amcatnloFXFX-pythia8/NANOAODSIM/130X_mcRun3_2023_realistic_postBPix_v2-v1/60000/4fdda832-20e3-4408-b8ed-7b14e9bc6bb2.root
/store/mc/Run3Summer23BPixNanoAODv12/DYto2L-2Jets_MLL-50_PTLL-40to100_1J_TuneCP5_13p6TeV_amcatnloFXFX-pythia8/NANOAODSIM/130X_mcRun3_2023_realistic_postBPix_v2-v1/60000/1a717f05-22bc-4348-b8d4-e431e83c0033.root
/store/mc/Run3Summer23BPixNanoAODv12/DYto2L-2Jets_MLL-50_PTLL-40to100_1J_TuneCP5_13p6TeV_amcatnloFXFX-pythia8/NANOAODSIM/130X_mcRun3_2023_realistic_postBPix_v2-v1/60000/44bb2187-01df-48e0-8918-72bb880d97e1.root
/store/mc/Run3Summer23BPixNanoAODv12/DYto2L-2Jets_MLL-50_PTLL-40to100_1J_TuneCP5_13p6TeV_amcatnloFXFX-pythia8/NANOAODSIM/130X_mcRun3_2023_realistic_postBPix_v2-v1/60000/a304f3ab-99d3-4db0-9569-ce53955fdb30.root
/store/mc/Run3Summer23BPixNanoAODv12/DYto2L-2Jets_MLL-50_PTLL-40to100_1J_TuneCP5_13p6TeV_amcatnloFXFX-pythia8/NANOAODSIM/130X_mcRun3_2023_realistic_postBPix_v2-v1/60000/16bad60d-24a2-48c2-9079-95b1f3d106ac.root
/store/mc/Run3Summer23BPixNanoAODv12/DYto2L-2Jets_MLL-50_PTLL-40to100_1J_TuneCP5_13p6TeV_amcatnloFXFX-pythia8/NANOAODSIM/130X_mcRun3_2023_realistic_postBPix_v2-v1/60000/0477766d-a93b-49c6-ade2-c562a5db5cc9.root
/store/mc/Run3Summer23BPixNanoAODv12/DYto2L-2Jets_MLL-50_PTLL-40to100_1J_TuneCP5_13p6TeV_amcatnloFXFX-pythia8/NANOAODSIM/130X_mcRun3_2023_realistic_postBPix_v2-v1/60000/b8ce3c1d-748e-481d-99c2-da854f359299.root