/store/data/Run2023D/ParkingHH/NANOAOD/22Sep2023_v1-v1/2560000/eba446fb-95a9-48a8-9f5d-b077c06cae5e.root
/store/data/Run2023D/ParkingHH/NANOAOD/22Sep2023_v1-v1/2560000/27e608bb-4729-45c8-a120-c0a4cc5c43b2.root
/store/data/Run2023D/ParkingHH/NANOAOD/22Sep2023_v1-v1/2560000/d904bb87-207a-417b-a1ca-5e9c3fc4cdf2.root
/store/data/Run2023D/ParkingHH/NANOAOD/22Sep2023_v1-v1/2560000/818a45dd-56a6-4ef0-970e-f921909bd5e4.root
/store/data/Run2023D/ParkingHH/NANOAOD/22Sep2023_v1-v1/2560000/54da8602-8f18-47fe-b20a-585e43c567f6.root
/store/data/Run2023D/ParkingHH/NANOAOD/22Sep2023_v1-v1/2560000/485f3dc8-08c4-4a65-af98-d201327d6544.root
/store/data/Run2023D/ParkingHH/NANOAOD/22Sep2023_v1-v1/2560000/b14e54e7-59c4-4be3-8022-e3e608954264.root
/store/data/Run2023D/ParkingHH/NANOAOD/22Sep2023_v1-v1/60000/3f2cb671-fff3-4353-a7d5-fc615c21d2ed.root
/store/data/Run2023D/ParkingHH/NANOAOD/22Sep2023_v1-v1/70000/0b1d42a2-99ec-448f-9ecc-4fee2465ce13.root
/store/data/Run2023D/ParkingHH/NANOAOD/22Sep2023_v1-v1/60000/fad7bc73-5d75-4c73-ad83-df090b8bfd3c.root
/store/data/Run2023D/ParkingHH/NANOAOD/22Sep2023_v1-v1/60000/ae680161-6aef-40c2-bff1-61f24b158bb8.root
/store/data/Run2023D/ParkingHH/NANOAOD/22Sep2023_v1-v1/60000/e777c69f-7b36-48da-8587-5a67ce5cc543.root
/store/data/Run2023D/ParkingHH/NANOAOD/22Sep2023_v1-v1/60000/856d0b15-ae35-4c39-89ba-ba7c5e6a14b1.root
/store/data/Run2023D/ParkingHH/NANOAOD/22Sep2023_v1-v1/60000/2b939241-1f8c-4b72-b7c6-5f976883d5fa.root
/store/data/Run2023D/ParkingHH/NANOAOD/22Sep2023_v1-v1/60000/f36980f4-0e2c-4b1a-860d-092fb3b9e775.root
/store/data/Run2023D/ParkingHH/NANOAOD/22Sep2023_v1-v1/60000/ac4ac598-4026-416c-b50e-79b93e2a5911.root
/store/data/Run2023D/ParkingHH/NANOAOD/22Sep2023_v1-v1/60000/13dd41c5-32b3-4829-9a6a-16a0c24a6b43.root
/store/data/Run2023D/ParkingHH/NANOAOD/22Sep2023_v1-v1/60000/50e9d44f-8bf8-4ed7-b9ba-24fa8bdf27c4.root
/store/data/Run2023D/ParkingHH/NANOAOD/22Sep2023_v1-v1/60000/c8c0177b-5c22-45d3-a4a5-3d65947857b9.root
/store/data/Run2023D/ParkingHH/NANOAOD/22Sep2023_v1-v1/60000/3017b0f0-02ce-4bdb-9122-1ecbad43c46f.root
/store/data/Run2023D/ParkingHH/NANOAOD/22Sep2023_v1-v1/60000/00c8632d-4a7d-4f59-a40c-c514b89551ed.root
/store/data/Run2023D/ParkingHH/NANOAOD/22Sep2023_v1-v1/60000/bc3de455-3ecb-49dd-9492-824047bfd428.root
/store/data/Run2023D/ParkingHH/NANOAOD/22Sep2023_v1-v1/60000/c20f5e4e-58ef-4d23-8c14-b8bd12cd646a.root
/store/data/Run2023D/ParkingHH/NANOAOD/22Sep2023_v1-v1/60000/31ea1700-8936-44cc-82cb-6b2bdb1f9f1a.root
/store/data/Run2023D/ParkingHH/NANOAOD/22Sep2023_v1-v1/60000/d6d85444-d1ec-4abb-8d42-49a959558955.root
/store/data/Run2023D/ParkingHH/NANOAOD/22Sep2023_v1-v1/60000/9dbde4d1-4c08-4fb1-a56e-5de90412109a.root
/store/data/Run2023D/ParkingHH/NANOAOD/22Sep2023_v1-v1/60000/8ca02b37-92a6-4893-80af-8e4c084b9d99.root
/store/data/Run2023D/ParkingHH/NANOAOD/22Sep2023_v1-v1/60000/644c8e8f-2c6d-48d7-9125-c04adc333a80.root
/store/data/Run2023D/ParkingHH/NANOAOD/22Sep2023_v1-v1/60000/52201994-36d6-4dfd-aff1-de7ffd3f34a6.root
/store/data/Run2023D/ParkingHH/NANOAOD/22Sep2023_v1-v1/60000/6c1fe3c3-b0c7-4ad7-ab46-b017386b9772.root
/store/data/Run2023D/ParkingHH/NANOAOD/22Sep2023_v1-v1/60000/b4943c25-9a55-4f95-b143-4aba217e2e94.root
/store/data/Run2023D/ParkingHH/NANOAOD/22Sep2023_v1-v1/60000/f74f0984-255c-4b9a-a8ab-6b72ddde6efd.root
/store/data/Run2023D/ParkingHH/NANOAOD/22Sep2023_v1-v1/60000/0c979b39-ea78-4947-8170-33b53b0c929c.root
/store/data/Run2023D/ParkingHH/NANOAOD/22Sep2023_v1-v1/60000/06b84d44-9b1e-4897-9170-abfe75c25d0c.root
/store/data/Run2023D/ParkingHH/NANOAOD/22Sep2023_v1-v1/60000/ca1e2af8-6c3e-4330-b5d9-053de27755d6.root
/store/data/Run2023D/ParkingHH/NANOAOD/22Sep2023_v1-v1/60000/9b2471f0-86b8-4ffc-98b8-81186fa2f8de.root
/store/data/Run2023D/ParkingHH/NANOAOD/22Sep2023_v1-v1/60000/f35ee605-ce0b-4c68-94cb-60267839dcf8.root
/store/data/Run2023D/ParkingHH/NANOAOD/22Sep2023_v1-v1/60000/6d85357e-0003-4075-bf01-4a0562ae7e7d.root
/store/data/Run2023D/ParkingHH/NANOAOD/22Sep2023_v1-v1/60000/1c399826-0d46-4d53-9b24-c4b61c03bdbc.root
/store/data/Run2023D/ParkingHH/NANOAOD/22Sep2023_v1-v1/70000/8457988e-10b3-4fe0-bc70-fdad2b0b95be.root
/store/data/Run2023D/ParkingHH/NANOAOD/22Sep2023_v1-v1/70000/67ab99d7-4ae2-4173-8d07-d918c6fe779a.root
/store/data/Run2023D/ParkingHH/NANOAOD/22Sep2023_v1-v1/60000/be7f39d1-97bb-4d6e-b606-14da9aec5962.root
/store/data/Run2023D/ParkingHH/NANOAOD/22Sep2023_v1-v1/60000/5e686a9c-5223-4fc4-8f25-863c8ad030c1.root
/store/data/Run2023D/ParkingHH/NANOAOD/22Sep2023_v1-v1/60000/fd9d158d-ca18-49bf-b5be-223e281559b2.root
/store/data/Run2023D/ParkingHH/NANOAOD/22Sep2023_v1-v1/60000/635c0f63-152d-4b27-83c9-885e1b9f5975.root
/store/data/Run2023D/ParkingHH/NANOAOD/22Sep2023_v1-v1/60000/63ca966d-bf46-480c-8c72-b13c690067cc.root
/store/data/Run2023D/ParkingHH/NANOAOD/22Sep2023_v1-v1/60000/548a62f1-2d0c-4833-a122-61caf168d729.root
/store/data/Run2023D/ParkingHH/NANOAOD/22Sep2023_v1-v1/60000/69f6cf03-ab3e-49e8-8c2c-628b1ac5f3ba.root
/store/data/Run2023D/ParkingHH/NANOAOD/22Sep2023_v1-v1/60000/67344267-fce6-4901-90fb-c1441f1e5610.root
/store/data/Run2023D/ParkingHH/NANOAOD/22Sep2023_v1-v1/70000/81418845-b5e8-465c-9596-76ff048cace3.root
/store/data/Run2023D/ParkingHH/NANOAOD/22Sep2023_v1-v1/70000/1868e4ff-1dd7-4bf2-9e7c-279a2070f9a0.root
/store/data/Run2023D/ParkingHH/NANOAOD/22Sep2023_v1-v1/60000/d8568c3c-78ab-42bd-8316-8c8d3bce86e8.root
/store/data/Run2023D/ParkingHH/NANOAOD/22Sep2023_v1-v1/70000/397cb4e4-8e25-45c7-ad7e-a087c0facef9.root
/store/data/Run2023D/ParkingHH/NANOAOD/22Sep2023_v1-v1/70000/68123ff4-fc56-4ab5-9fd1-d773ea7cbbe7.root
/store/data/Run2023D/ParkingHH/NANOAOD/22Sep2023_v1-v1/70000/f8f0d0eb-09b9-4adb-9734-4a33dc72b921.root
/store/data/Run2023D/ParkingHH/NANOAOD/22Sep2023_v1-v1/60000/f68346ab-2c0f-4781-8b20-5dbede906670.root
/store/data/Run2023D/ParkingHH/NANOAOD/22Sep2023_v1-v1/60000/850ea0e4-8316-46d5-a0a0-0fb3f8ba9bb7.root
/store/data/Run2023D/ParkingHH/NANOAOD/22Sep2023_v1-v1/60000/66f0bc13-bd63-4c29-a488-2009ddb03600.root
/store/data/Run2023D/ParkingHH/NANOAOD/22Sep2023_v1-v1/60000/cbf1f954-859d-41d9-b677-031f345d84ad.root
/store/data/Run2023D/ParkingHH/NANOAOD/22Sep2023_v1-v1/60000/2ba30d8a-0c13-40ed-93d2-80ce78ce5632.root
/store/data/Run2023D/ParkingHH/NANOAOD/22Sep2023_v1-v1/60000/777de58e-a622-4852-90ed-277bd57ec1d7.root
/store/data/Run2023D/ParkingHH/NANOAOD/22Sep2023_v1-v1/60000/dc08a4c6-84ff-4bec-8be6-9907cdc0df98.root
/store/data/Run2023D/ParkingHH/NANOAOD/22Sep2023_v1-v1/60000/521e66bf-e2fb-4b82-8f72-f04dadc28ee6.root
/store/data/Run2023D/ParkingHH/NANOAOD/22Sep2023_v1-v1/60000/6e23bbe1-c99a-4e3d-a2e2-65dbcd73b87b.root
/store/data/Run2023D/ParkingHH/NANOAOD/22Sep2023_v1-v1/60000/284fe9f2-687c-48d1-985e-85c6f3c3063b.root
/store/data/Run2023D/ParkingHH/NANOAOD/22Sep2023_v1-v1/60000/50d4f0e2-c4df-4187-aa1b-d23dafcbca1a.root
/store/data/Run2023D/ParkingHH/NANOAOD/22Sep2023_v1-v1/60000/cef55d47-b2ce-4ed4-81f1-d8aa79bf3b84.root
/store/data/Run2023D/ParkingHH/NANOAOD/22Sep2023_v1-v1/60000/d42a4fa5-b838-4de6-a5c8-06b56a61bca2.root
/store/data/Run2023D/ParkingHH/NANOAOD/22Sep2023_v1-v1/60000/01ab6a05-f3d1-403e-8cfb-de165c1b5deb.root
/store/data/Run2023D/ParkingHH/NANOAOD/22Sep2023_v1-v1/60000/6dc838bf-b4fb-4492-a1f7-54134d141169.root
/store/data/Run2023D/ParkingHH/NANOAOD/22Sep2023_v1-v1/60000/506879a2-5531-4e70-b0b4-06f783cb2271.root
/store/data/Run2023D/ParkingHH/NANOAOD/22Sep2023_v1-v1/60000/2e614d03-3808-439b-be77-10089a112f7f.root
/store/data/Run2023D/ParkingHH/NANOAOD/22Sep2023_v1-v1/60000/c09758b4-3b6f-43c4-bd18-a6d02fcbf538.root
/store/data/Run2023D/ParkingHH/NANOAOD/22Sep2023_v1-v1/60000/a19df01c-68d3-48ff-99af-c926681d8c81.root
/store/data/Run2023D/ParkingHH/NANOAOD/22Sep2023_v1-v1/60000/e7225871-fddb-4342-8501-f579833cee85.root
/store/data/Run2023D/ParkingHH/NANOAOD/22Sep2023_v1-v1/70000/34f5f3db-69e4-45e5-85c3-5c337a47c508.root
/store/data/Run2023D/ParkingHH/NANOAOD/22Sep2023_v1-v1/70000/a67b81eb-6deb-4d3a-be24-98cc2d7262b1.root
/store/data/Run2023D/ParkingHH/NANOAOD/22Sep2023_v1-v1/70000/795edc5f-834d-4f9c-9f03-76ff20b2931f.root
/store/data/Run2023D/ParkingHH/NANOAOD/22Sep2023_v1-v1/70000/bf9b1d0e-8c57-4e02-bf8f-d58a1a95033f.root
/store/data/Run2023D/ParkingHH/NANOAOD/22Sep2023_v1-v1/70000/89f2f802-bcd0-495c-b538-1b73e131802b.root
/store/data/Run2023D/ParkingHH/NANOAOD/22Sep2023_v1-v1/70000/4b200d95-994a-488e-8285-027a1a799f8f.root
/store/data/Run2023D/ParkingHH/NANOAOD/22Sep2023_v1-v1/70000/9be525ab-26cf-4137-ad37-11094dabd788.root
/store/data/Run2023D/ParkingHH/NANOAOD/22Sep2023_v1-v1/70000/2fb4647a-a2b9-4f80-9bfa-e1dacf355305.root
/store/data/Run2023D/ParkingHH/NANOAOD/22Sep2023_v1-v1/2550000/7b6b326a-9194-424a-a808-caf4769f80dd.root
/store/data/Run2023D/ParkingHH/NANOAOD/22Sep2023_v1-v1/2550000/b6f4e687-08fa-4558-9e19-3b895e6b9d8f.root