/store/mc/Run3Summer23BPixNanoAODv13/VBFHHto2B2Tau_CV_m1p60_C2V_2p72_C3_m1p36_TuneCP5_13p6TeV_madgraph-pythia8/NANOAODSIM/133X_mcRun3_2023_realistic_postBPix_ForNanov13_v2-v2/80000/21d5e877-10e7-43bd-8a85-3548dcc8b781.root
/store/mc/Run3Summer23BPixNanoAODv13/VBFHHto2B2Tau_CV_m1p60_C2V_2p72_C3_m1p36_TuneCP5_13p6TeV_madgraph-pythia8/NANOAODSIM/133X_mcRun3_2023_realistic_postBPix_ForNanov13_v2-v2/80000/88884f3e-dcc7-498b-af6a-31652eb80bc1.root
/store/mc/Run3Summer23BPixNanoAODv13/VBFHHto2B2Tau_CV_m1p60_C2V_2p72_C3_m1p36_TuneCP5_13p6TeV_madgraph-pythia8/NANOAODSIM/133X_mcRun3_2023_realistic_postBPix_ForNanov13_v2-v2/80000/19244ea7-6b58-4f7c-b9ed-34877ed7a63f.root
/store/mc/Run3Summer23BPixNanoAODv13/VBFHHto2B2Tau_CV_m1p60_C2V_2p72_C3_m1p36_TuneCP5_13p6TeV_madgraph-pythia8/NANOAODSIM/133X_mcRun3_2023_realistic_postBPix_ForNanov13_v2-v2/80000/feee242a-3ab8-41f5-8fbc-d27e32e39643.root
/store/mc/Run3Summer23BPixNanoAODv13/VBFHHto2B2Tau_CV_m1p60_C2V_2p72_C3_m1p36_TuneCP5_13p6TeV_madgraph-pythia8/NANOAODSIM/133X_mcRun3_2023_realistic_postBPix_ForNanov13_v2-v2/80000/81134820-7b90-40d2-9b55-75fbcb8f2648.root