/store/mc/Run3Summer23BPixNanoAODv13/VBFHHto2B2Tau_CV_m0p012_C2V_0p030_C3_10p2_TuneCP5_13p6TeV_madgraph-pythia8/NANOAODSIM/133X_mcRun3_2023_realistic_postBPix_ForNanov13_v2-v2/2520000/1e0b096b-0ac3-429d-bd74-421d20a8ef95.root
/store/mc/Run3Summer23BPixNanoAODv13/VBFHHto2B2Tau_CV_m0p012_C2V_0p030_C3_10p2_TuneCP5_13p6TeV_madgraph-pythia8/NANOAODSIM/133X_mcRun3_2023_realistic_postBPix_ForNanov13_v2-v2/2520000/1d71ca94-0224-4213-a62e-d9ad5ecb31ec.root
/store/mc/Run3Summer23BPixNanoAODv13/VBFHHto2B2Tau_CV_m0p012_C2V_0p030_C3_10p2_TuneCP5_13p6TeV_madgraph-pythia8/NANOAODSIM/133X_mcRun3_2023_realistic_postBPix_ForNanov13_v2-v2/2520000/ceb7f40c-d3b0-48bd-8386-20687b1823d3.root
/store/mc/Run3Summer23BPixNanoAODv13/VBFHHto2B2Tau_CV_m0p012_C2V_0p030_C3_10p2_TuneCP5_13p6TeV_madgraph-pythia8/NANOAODSIM/133X_mcRun3_2023_realistic_postBPix_ForNanov13_v2-v2/2520000/8aaef113-dd2c-4bd7-94dd-d8d38a0978a4.root
/store/mc/Run3Summer23BPixNanoAODv13/VBFHHto2B2Tau_CV_m0p012_C2V_0p030_C3_10p2_TuneCP5_13p6TeV_madgraph-pythia8/NANOAODSIM/133X_mcRun3_2023_realistic_postBPix_ForNanov13_v2-v2/2520000/f1fde72b-6ac4-46af-804c-13d054b5d231.root
/store/mc/Run3Summer23BPixNanoAODv13/VBFHHto2B2Tau_CV_m0p012_C2V_0p030_C3_10p2_TuneCP5_13p6TeV_madgraph-pythia8/NANOAODSIM/133X_mcRun3_2023_realistic_postBPix_ForNanov13_v2-v2/2520000/f992125f-8ca5-4ae0-b633-a5a754ecf5ef.root
/store/mc/Run3Summer23BPixNanoAODv13/VBFHHto2B2Tau_CV_m0p012_C2V_0p030_C3_10p2_TuneCP5_13p6TeV_madgraph-pythia8/NANOAODSIM/133X_mcRun3_2023_realistic_postBPix_ForNanov13_v2-v2/2520000/d6d042be-553b-47f7-a07e-b06b5ddce082.root
/store/mc/Run3Summer23BPixNanoAODv13/VBFHHto2B2Tau_CV_m0p012_C2V_0p030_C3_10p2_TuneCP5_13p6TeV_madgraph-pythia8/NANOAODSIM/133X_mcRun3_2023_realistic_postBPix_ForNanov13_v2-v2/2520000/124b575e-4851-47d0-a89d-b2e9a7b48857.root
/store/mc/Run3Summer23BPixNanoAODv13/VBFHHto2B2Tau_CV_m0p012_C2V_0p030_C3_10p2_TuneCP5_13p6TeV_madgraph-pythia8/NANOAODSIM/133X_mcRun3_2023_realistic_postBPix_ForNanov13_v2-v2/2520000/80e64f20-2865-4837-a84f-bf047236760e.root
/store/mc/Run3Summer23BPixNanoAODv13/VBFHHto2B2Tau_CV_m0p012_C2V_0p030_C3_10p2_TuneCP5_13p6TeV_madgraph-pythia8/NANOAODSIM/133X_mcRun3_2023_realistic_postBPix_ForNanov13_v2-v2/2520000/8577d4aa-ecbc-457a-a744-96f46b90684d.root
/store/mc/Run3Summer23BPixNanoAODv13/VBFHHto2B2Tau_CV_m0p012_C2V_0p030_C3_10p2_TuneCP5_13p6TeV_madgraph-pythia8/NANOAODSIM/133X_mcRun3_2023_realistic_postBPix_ForNanov13_v2-v2/2520000/bb7224cb-3858-41e2-b9f2-37bf5dc7086f.root
/store/mc/Run3Summer23BPixNanoAODv13/VBFHHto2B2Tau_CV_m0p012_C2V_0p030_C3_10p2_TuneCP5_13p6TeV_madgraph-pythia8/NANOAODSIM/133X_mcRun3_2023_realistic_postBPix_ForNanov13_v2-v2/2520000/656f064d-9f74-4235-9b95-08252c4c10b4.root