/store/mc/Run3Summer23BPixNanoAODv12/WtoLNu-2Jets_PTLNu-200to400_2J_TuneCP5_13p6TeV_amcatnloFXFX-pythia8/NANOAODSIM/130X_mcRun3_2023_realistic_postBPix_v2-v3/2820000/b163500f-0d5c-454f-8952-f1e41849ad60.root
/store/mc/Run3Summer23BPixNanoAODv12/WtoLNu-2Jets_PTLNu-200to400_2J_TuneCP5_13p6TeV_amcatnloFXFX-pythia8/NANOAODSIM/130X_mcRun3_2023_realistic_postBPix_v2-v3/2820000/d8b474a0-8e48-4f95-b912-a80847c8810a.root
/store/mc/Run3Summer23BPixNanoAODv12/WtoLNu-2Jets_PTLNu-200to400_2J_TuneCP5_13p6TeV_amcatnloFXFX-pythia8/NANOAODSIM/130X_mcRun3_2023_realistic_postBPix_v2-v3/2810000/cb400d58-53cc-4529-84ba-3cde4b58a98d.root
/store/mc/Run3Summer23BPixNanoAODv12/WtoLNu-2Jets_PTLNu-200to400_2J_TuneCP5_13p6TeV_amcatnloFXFX-pythia8/NANOAODSIM/130X_mcRun3_2023_realistic_postBPix_v2-v3/2820000/775ff893-a6bc-41bb-89e6-bd34843bc467.root
/store/mc/Run3Summer23BPixNanoAODv12/WtoLNu-2Jets_PTLNu-200to400_2J_TuneCP5_13p6TeV_amcatnloFXFX-pythia8/NANOAODSIM/130X_mcRun3_2023_realistic_postBPix_v2-v3/2820000/b9d08005-23e2-4c21-af4f-b2966a1c11df.root
/store/mc/Run3Summer23BPixNanoAODv12/WtoLNu-2Jets_PTLNu-200to400_2J_TuneCP5_13p6TeV_amcatnloFXFX-pythia8/NANOAODSIM/130X_mcRun3_2023_realistic_postBPix_v2-v3/2810000/e50d22ba-53e5-43a1-8baa-9d8546186511.root
/store/mc/Run3Summer23BPixNanoAODv12/WtoLNu-2Jets_PTLNu-200to400_2J_TuneCP5_13p6TeV_amcatnloFXFX-pythia8/NANOAODSIM/130X_mcRun3_2023_realistic_postBPix_v2-v3/2810000/9448453d-308d-4c6b-8da5-fe00cf1d3610.root
/store/mc/Run3Summer23BPixNanoAODv12/WtoLNu-2Jets_PTLNu-200to400_2J_TuneCP5_13p6TeV_amcatnloFXFX-pythia8/NANOAODSIM/130X_mcRun3_2023_realistic_postBPix_v2-v3/2810000/e326ec9c-1a8a-4607-9bd7-9ba414009d41.root
/store/mc/Run3Summer23BPixNanoAODv12/WtoLNu-2Jets_PTLNu-200to400_2J_TuneCP5_13p6TeV_amcatnloFXFX-pythia8/NANOAODSIM/130X_mcRun3_2023_realistic_postBPix_v2-v3/2810000/12579ac6-0233-4a64-8d39-d6e065b540a6.root
/store/mc/Run3Summer23BPixNanoAODv12/WtoLNu-2Jets_PTLNu-200to400_2J_TuneCP5_13p6TeV_amcatnloFXFX-pythia8/NANOAODSIM/130X_mcRun3_2023_realistic_postBPix_v2-v3/2810000/45129d11-91b0-4392-b05b-b46871ed26a0.root
/store/mc/Run3Summer23BPixNanoAODv12/WtoLNu-2Jets_PTLNu-200to400_2J_TuneCP5_13p6TeV_amcatnloFXFX-pythia8/NANOAODSIM/130X_mcRun3_2023_realistic_postBPix_v2-v3/2810000/7d4d8670-cd67-4108-a9a7-f6c868242ab6.root
/store/mc/Run3Summer23BPixNanoAODv12/WtoLNu-2Jets_PTLNu-200to400_2J_TuneCP5_13p6TeV_amcatnloFXFX-pythia8/NANOAODSIM/130X_mcRun3_2023_realistic_postBPix_v2-v3/2810000/b068eb04-c087-4931-8b21-b14c2252254e.root
/store/mc/Run3Summer23BPixNanoAODv12/WtoLNu-2Jets_PTLNu-200to400_2J_TuneCP5_13p6TeV_amcatnloFXFX-pythia8/NANOAODSIM/130X_mcRun3_2023_realistic_postBPix_v2-v3/2810000/d911bb0f-0672-4394-b906-eb9828c6e4a5.root
/store/mc/Run3Summer23BPixNanoAODv12/WtoLNu-2Jets_PTLNu-200to400_2J_TuneCP5_13p6TeV_amcatnloFXFX-pythia8/NANOAODSIM/130X_mcRun3_2023_realistic_postBPix_v2-v3/2810000/7b1552cc-4e29-4026-a60d-3e130a8d5d6f.root
/store/mc/Run3Summer23BPixNanoAODv12/WtoLNu-2Jets_PTLNu-200to400_2J_TuneCP5_13p6TeV_amcatnloFXFX-pythia8/NANOAODSIM/130X_mcRun3_2023_realistic_postBPix_v2-v3/2810000/df72d6ee-3ef6-4667-8ef4-f51c2f27ef71.root
/store/mc/Run3Summer23BPixNanoAODv12/WtoLNu-2Jets_PTLNu-200to400_2J_TuneCP5_13p6TeV_amcatnloFXFX-pythia8/NANOAODSIM/130X_mcRun3_2023_realistic_postBPix_v2-v3/2810000/cbd31482-4ade-4567-933d-13f7b3dd1f60.root
/store/mc/Run3Summer23BPixNanoAODv12/WtoLNu-2Jets_PTLNu-200to400_2J_TuneCP5_13p6TeV_amcatnloFXFX-pythia8/NANOAODSIM/130X_mcRun3_2023_realistic_postBPix_v2-v3/2810000/424cd31c-3a7f-47d3-a30c-8dffdb09b0c3.root
/store/mc/Run3Summer23BPixNanoAODv12/WtoLNu-2Jets_PTLNu-200to400_2J_TuneCP5_13p6TeV_amcatnloFXFX-pythia8/NANOAODSIM/130X_mcRun3_2023_realistic_postBPix_v2-v3/2810000/9e8d396c-6d46-4ec3-844c-8988b63858d5.root
/store/mc/Run3Summer23BPixNanoAODv12/WtoLNu-2Jets_PTLNu-200to400_2J_TuneCP5_13p6TeV_amcatnloFXFX-pythia8/NANOAODSIM/130X_mcRun3_2023_realistic_postBPix_v2-v3/2810000/88a806c3-585f-455d-9247-283f9ddad2fd.root
/store/mc/Run3Summer23BPixNanoAODv12/WtoLNu-2Jets_PTLNu-200to400_2J_TuneCP5_13p6TeV_amcatnloFXFX-pythia8/NANOAODSIM/130X_mcRun3_2023_realistic_postBPix_v2-v3/2810000/afa22d4a-9e71-46d3-8f94-a7e06b16a66c.root
/store/mc/Run3Summer23BPixNanoAODv12/WtoLNu-2Jets_PTLNu-200to400_2J_TuneCP5_13p6TeV_amcatnloFXFX-pythia8/NANOAODSIM/130X_mcRun3_2023_realistic_postBPix_v2-v3/2810000/8528274c-1800-48ad-8b4f-45b8454d518b.root
/store/mc/Run3Summer23BPixNanoAODv12/WtoLNu-2Jets_PTLNu-200to400_2J_TuneCP5_13p6TeV_amcatnloFXFX-pythia8/NANOAODSIM/130X_mcRun3_2023_realistic_postBPix_v2-v3/2810000/e19d0d42-1fa6-4aff-9c6d-7e8df75b51cc.root
/store/mc/Run3Summer23BPixNanoAODv12/WtoLNu-2Jets_PTLNu-200to400_2J_TuneCP5_13p6TeV_amcatnloFXFX-pythia8/NANOAODSIM/130X_mcRun3_2023_realistic_postBPix_v2-v3/2810000/716349f4-bca3-488c-b21c-5f492933645a.root
/store/mc/Run3Summer23BPixNanoAODv12/WtoLNu-2Jets_PTLNu-200to400_2J_TuneCP5_13p6TeV_amcatnloFXFX-pythia8/NANOAODSIM/130X_mcRun3_2023_realistic_postBPix_v2-v3/2810000/fe2e524b-798f-485c-87b3-f0c6dffe7f90.root
/store/mc/Run3Summer23BPixNanoAODv12/WtoLNu-2Jets_PTLNu-200to400_2J_TuneCP5_13p6TeV_amcatnloFXFX-pythia8/NANOAODSIM/130X_mcRun3_2023_realistic_postBPix_v2-v3/2810000/1bbcb02a-7df3-4bbd-9b72-58926b42165a.root
/store/mc/Run3Summer23BPixNanoAODv12/WtoLNu-2Jets_PTLNu-200to400_2J_TuneCP5_13p6TeV_amcatnloFXFX-pythia8/NANOAODSIM/130X_mcRun3_2023_realistic_postBPix_v2-v3/2810000/afa53298-0789-4d3b-837f-d86852a3262f.root
/store/mc/Run3Summer23BPixNanoAODv12/WtoLNu-2Jets_PTLNu-200to400_2J_TuneCP5_13p6TeV_amcatnloFXFX-pythia8/NANOAODSIM/130X_mcRun3_2023_realistic_postBPix_v2-v3/2810000/a20859a8-bf5d-47b0-a90a-741cc7f659c9.root
/store/mc/Run3Summer23BPixNanoAODv12/WtoLNu-2Jets_PTLNu-200to400_2J_TuneCP5_13p6TeV_amcatnloFXFX-pythia8/NANOAODSIM/130X_mcRun3_2023_realistic_postBPix_v2-v3/2810000/13a3b59c-bdc7-4840-aca7-fe420615bbf2.root
/store/mc/Run3Summer23BPixNanoAODv12/WtoLNu-2Jets_PTLNu-200to400_2J_TuneCP5_13p6TeV_amcatnloFXFX-pythia8/NANOAODSIM/130X_mcRun3_2023_realistic_postBPix_v2-v3/2810000/e0be0e82-5b4d-4a7a-8d3d-4bc77de04cc7.root
/store/mc/Run3Summer23BPixNanoAODv12/WtoLNu-2Jets_PTLNu-200to400_2J_TuneCP5_13p6TeV_amcatnloFXFX-pythia8/NANOAODSIM/130X_mcRun3_2023_realistic_postBPix_v2-v3/2810000/2f276abf-66c5-4706-b784-37f986137e3f.root
/store/mc/Run3Summer23BPixNanoAODv12/WtoLNu-2Jets_PTLNu-200to400_2J_TuneCP5_13p6TeV_amcatnloFXFX-pythia8/NANOAODSIM/130X_mcRun3_2023_realistic_postBPix_v2-v3/2810000/a03ae0ed-a1c3-4ca9-a9bc-84e0de47e1f4.root
/store/mc/Run3Summer23BPixNanoAODv12/WtoLNu-2Jets_PTLNu-200to400_2J_TuneCP5_13p6TeV_amcatnloFXFX-pythia8/NANOAODSIM/130X_mcRun3_2023_realistic_postBPix_v2-v3/2810000/b85e1b2b-cb40-4024-88dd-6b903c15ee5f.root
/store/mc/Run3Summer23BPixNanoAODv12/WtoLNu-2Jets_PTLNu-200to400_2J_TuneCP5_13p6TeV_amcatnloFXFX-pythia8/NANOAODSIM/130X_mcRun3_2023_realistic_postBPix_v2-v3/2810000/fa694740-5528-4c4b-8613-863dd45f7793.root
/store/mc/Run3Summer23BPixNanoAODv12/WtoLNu-2Jets_PTLNu-200to400_2J_TuneCP5_13p6TeV_amcatnloFXFX-pythia8/NANOAODSIM/130X_mcRun3_2023_realistic_postBPix_v2-v3/2810000/439dff74-18da-48f7-acd7-41eaab479781.root
/store/mc/Run3Summer23BPixNanoAODv12/WtoLNu-2Jets_PTLNu-200to400_2J_TuneCP5_13p6TeV_amcatnloFXFX-pythia8/NANOAODSIM/130X_mcRun3_2023_realistic_postBPix_v2-v3/2810000/316e4385-487e-484c-9dc4-ec7bb160c503.root
/store/mc/Run3Summer23BPixNanoAODv12/WtoLNu-2Jets_PTLNu-200to400_2J_TuneCP5_13p6TeV_amcatnloFXFX-pythia8/NANOAODSIM/130X_mcRun3_2023_realistic_postBPix_v2-v3/2810000/41fb8e5d-53f2-477e-aa1d-bc21d209174c.root
/store/mc/Run3Summer23BPixNanoAODv12/WtoLNu-2Jets_PTLNu-200to400_2J_TuneCP5_13p6TeV_amcatnloFXFX-pythia8/NANOAODSIM/130X_mcRun3_2023_realistic_postBPix_v2-v3/2810000/f9b5a0e8-d48c-470b-9ce5-4486e8622c55.root
/store/mc/Run3Summer23BPixNanoAODv12/WtoLNu-2Jets_PTLNu-200to400_2J_TuneCP5_13p6TeV_amcatnloFXFX-pythia8/NANOAODSIM/130X_mcRun3_2023_realistic_postBPix_v2-v3/2810000/6ad1f060-2ef9-4892-930d-ecd60fc88c3d.root
/store/mc/Run3Summer23BPixNanoAODv12/WtoLNu-2Jets_PTLNu-200to400_2J_TuneCP5_13p6TeV_amcatnloFXFX-pythia8/NANOAODSIM/130X_mcRun3_2023_realistic_postBPix_v2-v3/2810000/90abba22-105e-4fab-a9f8-54367e9e83cd.root
/store/mc/Run3Summer23BPixNanoAODv12/WtoLNu-2Jets_PTLNu-200to400_2J_TuneCP5_13p6TeV_amcatnloFXFX-pythia8/NANOAODSIM/130X_mcRun3_2023_realistic_postBPix_v2-v3/2810000/c4c7d89f-623c-4bd8-a518-2b0fb51b5f7a.root
/store/mc/Run3Summer23BPixNanoAODv12/WtoLNu-2Jets_PTLNu-200to400_2J_TuneCP5_13p6TeV_amcatnloFXFX-pythia8/NANOAODSIM/130X_mcRun3_2023_realistic_postBPix_v2-v3/2810000/7a0444b5-e9d1-4d3c-9b6a-0c794de396cd.root
/store/mc/Run3Summer23BPixNanoAODv12/WtoLNu-2Jets_PTLNu-200to400_2J_TuneCP5_13p6TeV_amcatnloFXFX-pythia8/NANOAODSIM/130X_mcRun3_2023_realistic_postBPix_v2-v3/2810000/76cc225b-dfcc-4314-a590-0d65ce2f76ff.root
/store/mc/Run3Summer23BPixNanoAODv12/WtoLNu-2Jets_PTLNu-200to400_2J_TuneCP5_13p6TeV_amcatnloFXFX-pythia8/NANOAODSIM/130X_mcRun3_2023_realistic_postBPix_v2-v3/2810000/ecafd29e-baeb-4308-957b-beabd71dec6c.root
/store/mc/Run3Summer23BPixNanoAODv12/WtoLNu-2Jets_PTLNu-200to400_2J_TuneCP5_13p6TeV_amcatnloFXFX-pythia8/NANOAODSIM/130X_mcRun3_2023_realistic_postBPix_v2-v3/2810000/5405bae8-9b62-4952-9fef-ad583d0fd7fe.root
/store/mc/Run3Summer23BPixNanoAODv12/WtoLNu-2Jets_PTLNu-200to400_2J_TuneCP5_13p6TeV_amcatnloFXFX-pythia8/NANOAODSIM/130X_mcRun3_2023_realistic_postBPix_v2-v3/2810000/2ce74b39-a620-444c-a86f-63d8c9efd5ab.root
/store/mc/Run3Summer23BPixNanoAODv12/WtoLNu-2Jets_PTLNu-200to400_2J_TuneCP5_13p6TeV_amcatnloFXFX-pythia8/NANOAODSIM/130X_mcRun3_2023_realistic_postBPix_v2-v3/2810000/0b477136-5058-4e68-add4-a9d3ff3978a7.root
/store/mc/Run3Summer23BPixNanoAODv12/WtoLNu-2Jets_PTLNu-200to400_2J_TuneCP5_13p6TeV_amcatnloFXFX-pythia8/NANOAODSIM/130X_mcRun3_2023_realistic_postBPix_v2-v3/2810000/6b5d9982-3b2c-4a0c-bef1-73776d4f0b23.root
/store/mc/Run3Summer23BPixNanoAODv12/WtoLNu-2Jets_PTLNu-200to400_2J_TuneCP5_13p6TeV_amcatnloFXFX-pythia8/NANOAODSIM/130X_mcRun3_2023_realistic_postBPix_v2-v3/2810000/978be3fe-858a-416d-b658-5191ed19d426.root
/store/mc/Run3Summer23BPixNanoAODv12/WtoLNu-2Jets_PTLNu-200to400_2J_TuneCP5_13p6TeV_amcatnloFXFX-pythia8/NANOAODSIM/130X_mcRun3_2023_realistic_postBPix_v2-v3/2810000/7dbe8fac-bbe5-4e0e-be9f-6990478b6519.root
/store/mc/Run3Summer23BPixNanoAODv12/WtoLNu-2Jets_PTLNu-200to400_2J_TuneCP5_13p6TeV_amcatnloFXFX-pythia8/NANOAODSIM/130X_mcRun3_2023_realistic_postBPix_v2-v3/2810000/8e3243ef-5e8f-44c6-a2b9-4325ab154421.root
/store/mc/Run3Summer23BPixNanoAODv12/WtoLNu-2Jets_PTLNu-200to400_2J_TuneCP5_13p6TeV_amcatnloFXFX-pythia8/NANOAODSIM/130X_mcRun3_2023_realistic_postBPix_v2-v3/2810000/8116ad6d-41f6-49c2-ad16-461c0036ad0c.root
/store/mc/Run3Summer23BPixNanoAODv12/WtoLNu-2Jets_PTLNu-200to400_2J_TuneCP5_13p6TeV_amcatnloFXFX-pythia8/NANOAODSIM/130X_mcRun3_2023_realistic_postBPix_v2-v3/2810000/df122dcf-1577-4f7f-a7d1-e4b5e515d245.root
/store/mc/Run3Summer23BPixNanoAODv12/WtoLNu-2Jets_PTLNu-200to400_2J_TuneCP5_13p6TeV_amcatnloFXFX-pythia8/NANOAODSIM/130X_mcRun3_2023_realistic_postBPix_v2-v3/2810000/80c7e6db-763a-4785-871e-5d78f7436471.root
/store/mc/Run3Summer23BPixNanoAODv12/WtoLNu-2Jets_PTLNu-200to400_2J_TuneCP5_13p6TeV_amcatnloFXFX-pythia8/NANOAODSIM/130X_mcRun3_2023_realistic_postBPix_v2-v3/2810000/f450a3ba-9321-4274-bb0f-2f2cf6f58931.root
/store/mc/Run3Summer23BPixNanoAODv12/WtoLNu-2Jets_PTLNu-200to400_2J_TuneCP5_13p6TeV_amcatnloFXFX-pythia8/NANOAODSIM/130X_mcRun3_2023_realistic_postBPix_v2-v3/2810000/a26ff52c-610d-42b6-8b7c-bb0dcfad0256.root
/store/mc/Run3Summer23BPixNanoAODv12/WtoLNu-2Jets_PTLNu-200to400_2J_TuneCP5_13p6TeV_amcatnloFXFX-pythia8/NANOAODSIM/130X_mcRun3_2023_realistic_postBPix_v2-v3/2820000/52a25e55-f1ed-4d0d-ae62-395ada8ca110.root
/store/mc/Run3Summer23BPixNanoAODv12/WtoLNu-2Jets_PTLNu-200to400_2J_TuneCP5_13p6TeV_amcatnloFXFX-pythia8/NANOAODSIM/130X_mcRun3_2023_realistic_postBPix_v2-v3/2820000/541c8469-d296-413a-8a10-020393004107.root
/store/mc/Run3Summer23BPixNanoAODv12/WtoLNu-2Jets_PTLNu-200to400_2J_TuneCP5_13p6TeV_amcatnloFXFX-pythia8/NANOAODSIM/130X_mcRun3_2023_realistic_postBPix_v2-v3/2820000/e3a64e37-07d6-40cf-b2e6-842d5dd5361d.root
/store/mc/Run3Summer23BPixNanoAODv12/WtoLNu-2Jets_PTLNu-200to400_2J_TuneCP5_13p6TeV_amcatnloFXFX-pythia8/NANOAODSIM/130X_mcRun3_2023_realistic_postBPix_v2-v3/2820000/4a1c2a32-77cf-457c-8eae-fdabd78a4da5.root
/store/mc/Run3Summer23BPixNanoAODv12/WtoLNu-2Jets_PTLNu-200to400_2J_TuneCP5_13p6TeV_amcatnloFXFX-pythia8/NANOAODSIM/130X_mcRun3_2023_realistic_postBPix_v2-v3/2820000/88fb2e4d-a27f-4896-ae0e-ddfea7d3587a.root
/store/mc/Run3Summer23BPixNanoAODv12/WtoLNu-2Jets_PTLNu-200to400_2J_TuneCP5_13p6TeV_amcatnloFXFX-pythia8/NANOAODSIM/130X_mcRun3_2023_realistic_postBPix_v2-v3/2820000/2824e5a6-9621-42ba-8123-18f466f3275c.root
/store/mc/Run3Summer23BPixNanoAODv12/WtoLNu-2Jets_PTLNu-200to400_2J_TuneCP5_13p6TeV_amcatnloFXFX-pythia8/NANOAODSIM/130X_mcRun3_2023_realistic_postBPix_v2-v3/2820000/19b3bf8a-9cd1-4d84-a660-b588069b6648.root
/store/mc/Run3Summer23BPixNanoAODv12/WtoLNu-2Jets_PTLNu-200to400_2J_TuneCP5_13p6TeV_amcatnloFXFX-pythia8/NANOAODSIM/130X_mcRun3_2023_realistic_postBPix_v2-v3/2820000/8fc848ec-e4eb-416c-ade5-8f2774abc5ca.root
/store/mc/Run3Summer23BPixNanoAODv12/WtoLNu-2Jets_PTLNu-200to400_2J_TuneCP5_13p6TeV_amcatnloFXFX-pythia8/NANOAODSIM/130X_mcRun3_2023_realistic_postBPix_v2-v3/2820000/f8d7d1b6-4557-49bd-b818-6150ede631fd.root
/store/mc/Run3Summer23BPixNanoAODv12/WtoLNu-2Jets_PTLNu-200to400_2J_TuneCP5_13p6TeV_amcatnloFXFX-pythia8/NANOAODSIM/130X_mcRun3_2023_realistic_postBPix_v2-v3/2820000/2cab3bac-5964-4c61-8570-2507518d24eb.root
/store/mc/Run3Summer23BPixNanoAODv12/WtoLNu-2Jets_PTLNu-200to400_2J_TuneCP5_13p6TeV_amcatnloFXFX-pythia8/NANOAODSIM/130X_mcRun3_2023_realistic_postBPix_v2-v3/2820000/48d439e5-bdcb-4962-9058-66f02739122f.root
/store/mc/Run3Summer23BPixNanoAODv12/WtoLNu-2Jets_PTLNu-200to400_2J_TuneCP5_13p6TeV_amcatnloFXFX-pythia8/NANOAODSIM/130X_mcRun3_2023_realistic_postBPix_v2-v3/2820000/20620ee0-efe2-486d-ba27-71562c87971e.root
/store/mc/Run3Summer23BPixNanoAODv12/WtoLNu-2Jets_PTLNu-200to400_2J_TuneCP5_13p6TeV_amcatnloFXFX-pythia8/NANOAODSIM/130X_mcRun3_2023_realistic_postBPix_v2-v3/2820000/a1faded4-02d2-4646-a572-a871e08ab4f6.root
/store/mc/Run3Summer23BPixNanoAODv12/WtoLNu-2Jets_PTLNu-200to400_2J_TuneCP5_13p6TeV_amcatnloFXFX-pythia8/NANOAODSIM/130X_mcRun3_2023_realistic_postBPix_v2-v3/2820000/2e6b8163-9c26-4290-9334-4e32c40e6488.root
/store/mc/Run3Summer23BPixNanoAODv12/WtoLNu-2Jets_PTLNu-200to400_2J_TuneCP5_13p6TeV_amcatnloFXFX-pythia8/NANOAODSIM/130X_mcRun3_2023_realistic_postBPix_v2-v3/2820000/a05facd7-ea4d-430a-a1bc-6f635526e7c3.root
/store/mc/Run3Summer23BPixNanoAODv12/WtoLNu-2Jets_PTLNu-200to400_2J_TuneCP5_13p6TeV_amcatnloFXFX-pythia8/NANOAODSIM/130X_mcRun3_2023_realistic_postBPix_v2-v3/2820000/9c1cce92-c2b0-4e14-ba44-cbf2fbdb3ae6.root
/store/mc/Run3Summer23BPixNanoAODv12/WtoLNu-2Jets_PTLNu-200to400_2J_TuneCP5_13p6TeV_amcatnloFXFX-pythia8/NANOAODSIM/130X_mcRun3_2023_realistic_postBPix_v2-v3/2820000/bcc5a418-4c56-4f78-9f62-d87220e2c06d.root
/store/mc/Run3Summer23BPixNanoAODv12/WtoLNu-2Jets_PTLNu-200to400_2J_TuneCP5_13p6TeV_amcatnloFXFX-pythia8/NANOAODSIM/130X_mcRun3_2023_realistic_postBPix_v2-v3/2820000/34e38ca2-e218-4691-91bc-f56b1f8a0414.root
/store/mc/Run3Summer23BPixNanoAODv12/WtoLNu-2Jets_PTLNu-200to400_2J_TuneCP5_13p6TeV_amcatnloFXFX-pythia8/NANOAODSIM/130X_mcRun3_2023_realistic_postBPix_v2-v3/2820000/4cc5df9d-c969-4668-a233-ccc306b398a7.root
/store/mc/Run3Summer23BPixNanoAODv12/WtoLNu-2Jets_PTLNu-200to400_2J_TuneCP5_13p6TeV_amcatnloFXFX-pythia8/NANOAODSIM/130X_mcRun3_2023_realistic_postBPix_v2-v3/2820000/2a572914-1844-4218-a0ea-72d2ba10d56a.root
/store/mc/Run3Summer23BPixNanoAODv12/WtoLNu-2Jets_PTLNu-200to400_2J_TuneCP5_13p6TeV_amcatnloFXFX-pythia8/NANOAODSIM/130X_mcRun3_2023_realistic_postBPix_v2-v3/2820000/457080e0-8b38-41e8-836d-96c31f0c8b8f.root
/store/mc/Run3Summer23BPixNanoAODv12/WtoLNu-2Jets_PTLNu-200to400_2J_TuneCP5_13p6TeV_amcatnloFXFX-pythia8/NANOAODSIM/130X_mcRun3_2023_realistic_postBPix_v2-v3/2820000/18726fdc-2d38-48f4-b425-aa13b3ed1955.root
/store/mc/Run3Summer23BPixNanoAODv12/WtoLNu-2Jets_PTLNu-200to400_2J_TuneCP5_13p6TeV_amcatnloFXFX-pythia8/NANOAODSIM/130X_mcRun3_2023_realistic_postBPix_v2-v3/2820000/63099d9e-7372-42e2-898e-0b78c4cdac87.root
/store/mc/Run3Summer23BPixNanoAODv12/WtoLNu-2Jets_PTLNu-200to400_2J_TuneCP5_13p6TeV_amcatnloFXFX-pythia8/NANOAODSIM/130X_mcRun3_2023_realistic_postBPix_v2-v3/2820000/0a51beed-941c-42a8-bb1d-3eb7e1eeb486.root
/store/mc/Run3Summer23BPixNanoAODv12/WtoLNu-2Jets_PTLNu-200to400_2J_TuneCP5_13p6TeV_amcatnloFXFX-pythia8/NANOAODSIM/130X_mcRun3_2023_realistic_postBPix_v2-v3/2820000/c44ce7bf-c0cf-4e52-b3f1-722783eb5b20.root
/store/mc/Run3Summer23BPixNanoAODv12/WtoLNu-2Jets_PTLNu-200to400_2J_TuneCP5_13p6TeV_amcatnloFXFX-pythia8/NANOAODSIM/130X_mcRun3_2023_realistic_postBPix_v2-v3/2820000/1a666091-d020-4750-abd4-c3e334df2228.root
/store/mc/Run3Summer23BPixNanoAODv12/WtoLNu-2Jets_PTLNu-200to400_2J_TuneCP5_13p6TeV_amcatnloFXFX-pythia8/NANOAODSIM/130X_mcRun3_2023_realistic_postBPix_v2-v3/2820000/63e8565c-0a72-4dec-a53c-6b4ffb3904fd.root
/store/mc/Run3Summer23BPixNanoAODv12/WtoLNu-2Jets_PTLNu-200to400_2J_TuneCP5_13p6TeV_amcatnloFXFX-pythia8/NANOAODSIM/130X_mcRun3_2023_realistic_postBPix_v2-v3/2820000/818a7d86-f3b9-4749-b4e0-a704fa507737.root
/store/mc/Run3Summer23BPixNanoAODv12/WtoLNu-2Jets_PTLNu-200to400_2J_TuneCP5_13p6TeV_amcatnloFXFX-pythia8/NANOAODSIM/130X_mcRun3_2023_realistic_postBPix_v2-v3/2820000/bcde32a7-275b-4809-849a-f2fdb61462eb.root
/store/mc/Run3Summer23BPixNanoAODv12/WtoLNu-2Jets_PTLNu-200to400_2J_TuneCP5_13p6TeV_amcatnloFXFX-pythia8/NANOAODSIM/130X_mcRun3_2023_realistic_postBPix_v2-v3/2820000/db3a7a34-7cb4-42f8-9182-099e2abb3ead.root
/store/mc/Run3Summer23BPixNanoAODv12/WtoLNu-2Jets_PTLNu-200to400_2J_TuneCP5_13p6TeV_amcatnloFXFX-pythia8/NANOAODSIM/130X_mcRun3_2023_realistic_postBPix_v2-v3/2820000/6cd125af-6235-468b-9249-37f240e6f669.root
/store/mc/Run3Summer23BPixNanoAODv12/WtoLNu-2Jets_PTLNu-200to400_2J_TuneCP5_13p6TeV_amcatnloFXFX-pythia8/NANOAODSIM/130X_mcRun3_2023_realistic_postBPix_v2-v3/2820000/e3440068-c231-4edd-9db5-d52a453c435b.root