/store/mc/Run3Summer23NanoAODv12/DYto2L-2Jets_MLL-50_PTLL-100to200_2J_TuneCP5_13p6TeV_amcatnloFXFX-pythia8/NANOAODSIM/130X_mcRun3_2023_realistic_v14-v1/2550000/12ffedb6-4b68-4036-897a-60987da29f7e.root
/store/mc/Run3Summer23NanoAODv12/DYto2L-2Jets_MLL-50_PTLL-100to200_2J_TuneCP5_13p6TeV_amcatnloFXFX-pythia8/NANOAODSIM/130X_mcRun3_2023_realistic_v14-v1/2550000/6ed5f62b-eca5-47ec-80e6-403d3564ffae.root
/store/mc/Run3Summer23NanoAODv12/DYto2L-2Jets_MLL-50_PTLL-100to200_2J_TuneCP5_13p6TeV_amcatnloFXFX-pythia8/NANOAODSIM/130X_mcRun3_2023_realistic_v14-v1/2550000/883b6e51-d5a2-4561-91f1-f1e6d7d2666a.root
/store/mc/Run3Summer23NanoAODv12/DYto2L-2Jets_MLL-50_PTLL-100to200_2J_TuneCP5_13p6TeV_amcatnloFXFX-pythia8/NANOAODSIM/130X_mcRun3_2023_realistic_v14-v1/2550000/681d4239-070d-4bd0-8e32-ba8f9d38f5bb.root
/store/mc/Run3Summer23NanoAODv12/DYto2L-2Jets_MLL-50_PTLL-100to200_2J_TuneCP5_13p6TeV_amcatnloFXFX-pythia8/NANOAODSIM/130X_mcRun3_2023_realistic_v14-v1/2550000/847096af-5459-441b-988f-403bae2788f4.root
/store/mc/Run3Summer23NanoAODv12/DYto2L-2Jets_MLL-50_PTLL-100to200_2J_TuneCP5_13p6TeV_amcatnloFXFX-pythia8/NANOAODSIM/130X_mcRun3_2023_realistic_v14-v1/2550000/dbc1dc95-32ef-401d-90bd-0ade8fe2ea8a.root
/store/mc/Run3Summer23NanoAODv12/DYto2L-2Jets_MLL-50_PTLL-100to200_2J_TuneCP5_13p6TeV_amcatnloFXFX-pythia8/NANOAODSIM/130X_mcRun3_2023_realistic_v14-v1/2550000/fc56298d-c4a3-4a08-9ad0-c6b755b12726.root
/store/mc/Run3Summer23NanoAODv12/DYto2L-2Jets_MLL-50_PTLL-100to200_2J_TuneCP5_13p6TeV_amcatnloFXFX-pythia8/NANOAODSIM/130X_mcRun3_2023_realistic_v14-v1/2550000/35303194-43b9-4d81-a11a-c7dd4bde8915.root
/store/mc/Run3Summer23NanoAODv12/DYto2L-2Jets_MLL-50_PTLL-100to200_2J_TuneCP5_13p6TeV_amcatnloFXFX-pythia8/NANOAODSIM/130X_mcRun3_2023_realistic_v14-v1/2550000/1975b944-a7f5-475d-b29f-fe55559a22a2.root
/store/mc/Run3Summer23NanoAODv12/DYto2L-2Jets_MLL-50_PTLL-100to200_2J_TuneCP5_13p6TeV_amcatnloFXFX-pythia8/NANOAODSIM/130X_mcRun3_2023_realistic_v14-v1/2550000/601f5586-fcf8-4e27-8d65-fbf100fe1cb3.root
/store/mc/Run3Summer23NanoAODv12/DYto2L-2Jets_MLL-50_PTLL-100to200_2J_TuneCP5_13p6TeV_amcatnloFXFX-pythia8/NANOAODSIM/130X_mcRun3_2023_realistic_v14-v1/2550000/0ab74710-6fb1-437d-a07a-8ea24df372db.root
/store/mc/Run3Summer23NanoAODv12/DYto2L-2Jets_MLL-50_PTLL-100to200_2J_TuneCP5_13p6TeV_amcatnloFXFX-pythia8/NANOAODSIM/130X_mcRun3_2023_realistic_v14-v1/2550000/27c726e7-5e0d-44df-9614-b62a21825f93.root
/store/mc/Run3Summer23NanoAODv12/DYto2L-2Jets_MLL-50_PTLL-100to200_2J_TuneCP5_13p6TeV_amcatnloFXFX-pythia8/NANOAODSIM/130X_mcRun3_2023_realistic_v14-v1/2550000/96760f20-72b5-427d-a93d-f7a9ee276098.root
/store/mc/Run3Summer23NanoAODv12/DYto2L-2Jets_MLL-50_PTLL-100to200_2J_TuneCP5_13p6TeV_amcatnloFXFX-pythia8/NANOAODSIM/130X_mcRun3_2023_realistic_v14-v1/2550000/353bf063-563e-4c04-acea-2165167ca6f1.root
/store/mc/Run3Summer23NanoAODv12/DYto2L-2Jets_MLL-50_PTLL-100to200_2J_TuneCP5_13p6TeV_amcatnloFXFX-pythia8/NANOAODSIM/130X_mcRun3_2023_realistic_v14-v1/2550000/00ab7593-5c22-473c-8888-02068bf0aa71.root
/store/mc/Run3Summer23NanoAODv12/DYto2L-2Jets_MLL-50_PTLL-100to200_2J_TuneCP5_13p6TeV_amcatnloFXFX-pythia8/NANOAODSIM/130X_mcRun3_2023_realistic_v14-v1/2550000/9bbfb31e-fdf3-4e7e-a6da-1b878fd477dc.root
/store/mc/Run3Summer23NanoAODv12/DYto2L-2Jets_MLL-50_PTLL-100to200_2J_TuneCP5_13p6TeV_amcatnloFXFX-pythia8/NANOAODSIM/130X_mcRun3_2023_realistic_v14-v1/2550000/fea8a83f-a4b0-44e8-99db-09b4e53b617a.root
/store/mc/Run3Summer23NanoAODv12/DYto2L-2Jets_MLL-50_PTLL-100to200_2J_TuneCP5_13p6TeV_amcatnloFXFX-pythia8/NANOAODSIM/130X_mcRun3_2023_realistic_v14-v1/2550000/c1453a82-44cd-45df-baf2-7335ed85e365.root
/store/mc/Run3Summer23NanoAODv12/DYto2L-2Jets_MLL-50_PTLL-100to200_2J_TuneCP5_13p6TeV_amcatnloFXFX-pythia8/NANOAODSIM/130X_mcRun3_2023_realistic_v14-v1/2550000/a7975c91-3410-42a6-9459-620dcb510002.root
/store/mc/Run3Summer23NanoAODv12/DYto2L-2Jets_MLL-50_PTLL-100to200_2J_TuneCP5_13p6TeV_amcatnloFXFX-pythia8/NANOAODSIM/130X_mcRun3_2023_realistic_v14-v1/2550000/dcb303c9-7850-4462-adc6-c33e9f9179eb.root
/store/mc/Run3Summer23NanoAODv12/DYto2L-2Jets_MLL-50_PTLL-100to200_2J_TuneCP5_13p6TeV_amcatnloFXFX-pythia8/NANOAODSIM/130X_mcRun3_2023_realistic_v14-v1/2550000/6c0fe60f-22ef-4ac2-bbf5-bcec41d99ef6.root
/store/mc/Run3Summer23NanoAODv12/DYto2L-2Jets_MLL-50_PTLL-100to200_2J_TuneCP5_13p6TeV_amcatnloFXFX-pythia8/NANOAODSIM/130X_mcRun3_2023_realistic_v14-v1/2550000/6d5f75c7-11ab-4f10-91a1-c879241dde66.root
/store/mc/Run3Summer23NanoAODv12/DYto2L-2Jets_MLL-50_PTLL-100to200_2J_TuneCP5_13p6TeV_amcatnloFXFX-pythia8/NANOAODSIM/130X_mcRun3_2023_realistic_v14-v1/2550000/0f148e21-bd94-4a8e-973d-757a243f7460.root
/store/mc/Run3Summer23NanoAODv12/DYto2L-2Jets_MLL-50_PTLL-100to200_2J_TuneCP5_13p6TeV_amcatnloFXFX-pythia8/NANOAODSIM/130X_mcRun3_2023_realistic_v14-v1/2550000/5c8628c5-3d5c-4024-990b-b35b1461424c.root
/store/mc/Run3Summer23NanoAODv12/DYto2L-2Jets_MLL-50_PTLL-100to200_2J_TuneCP5_13p6TeV_amcatnloFXFX-pythia8/NANOAODSIM/130X_mcRun3_2023_realistic_v14-v1/2550000/602e9b86-b5d1-40f5-be39-702c4981233f.root
/store/mc/Run3Summer23NanoAODv12/DYto2L-2Jets_MLL-50_PTLL-100to200_2J_TuneCP5_13p6TeV_amcatnloFXFX-pythia8/NANOAODSIM/130X_mcRun3_2023_realistic_v14-v1/2550000/d095b9a4-dac9-4134-b450-e71012595ed5.root
/store/mc/Run3Summer23NanoAODv12/DYto2L-2Jets_MLL-50_PTLL-100to200_2J_TuneCP5_13p6TeV_amcatnloFXFX-pythia8/NANOAODSIM/130X_mcRun3_2023_realistic_v14-v1/2550000/e06ce5c0-8b18-49d5-a254-56ca0a9917a6.root
/store/mc/Run3Summer23NanoAODv12/DYto2L-2Jets_MLL-50_PTLL-100to200_2J_TuneCP5_13p6TeV_amcatnloFXFX-pythia8/NANOAODSIM/130X_mcRun3_2023_realistic_v14-v1/2550000/530572af-3fa7-4258-a529-c1c7a06244d6.root
/store/mc/Run3Summer23NanoAODv12/DYto2L-2Jets_MLL-50_PTLL-100to200_2J_TuneCP5_13p6TeV_amcatnloFXFX-pythia8/NANOAODSIM/130X_mcRun3_2023_realistic_v14-v1/2550000/244bc9ba-add6-4a97-a7d9-0b7d6bbe0f20.root
/store/mc/Run3Summer23NanoAODv12/DYto2L-2Jets_MLL-50_PTLL-100to200_2J_TuneCP5_13p6TeV_amcatnloFXFX-pythia8/NANOAODSIM/130X_mcRun3_2023_realistic_v14-v1/2550000/caf197ba-154b-4a97-82b3-d1bbd11b6c3d.root
/store/mc/Run3Summer23NanoAODv12/DYto2L-2Jets_MLL-50_PTLL-100to200_2J_TuneCP5_13p6TeV_amcatnloFXFX-pythia8/NANOAODSIM/130X_mcRun3_2023_realistic_v14-v1/2550000/7cbc77dd-9268-496a-b5e3-4682a836f3a9.root
/store/mc/Run3Summer23NanoAODv12/DYto2L-2Jets_MLL-50_PTLL-100to200_2J_TuneCP5_13p6TeV_amcatnloFXFX-pythia8/NANOAODSIM/130X_mcRun3_2023_realistic_v14-v1/2550000/e0cdd5f2-c0da-439b-b58f-f5f2edd2a2b9.root
/store/mc/Run3Summer23NanoAODv12/DYto2L-2Jets_MLL-50_PTLL-100to200_2J_TuneCP5_13p6TeV_amcatnloFXFX-pythia8/NANOAODSIM/130X_mcRun3_2023_realistic_v14-v1/2550000/17cbb36e-b894-4f33-95d9-2f172f037184.root
/store/mc/Run3Summer23NanoAODv12/DYto2L-2Jets_MLL-50_PTLL-100to200_2J_TuneCP5_13p6TeV_amcatnloFXFX-pythia8/NANOAODSIM/130X_mcRun3_2023_realistic_v14-v1/2550000/3b85373a-e52f-4793-af55-29e657834ff5.root
/store/mc/Run3Summer23NanoAODv12/DYto2L-2Jets_MLL-50_PTLL-100to200_2J_TuneCP5_13p6TeV_amcatnloFXFX-pythia8/NANOAODSIM/130X_mcRun3_2023_realistic_v14-v1/2550000/acb5daf6-8dcc-40e4-988e-8a71b0a29bb5.root
/store/mc/Run3Summer23NanoAODv12/DYto2L-2Jets_MLL-50_PTLL-100to200_2J_TuneCP5_13p6TeV_amcatnloFXFX-pythia8/NANOAODSIM/130X_mcRun3_2023_realistic_v14-v1/60000/24722642-eb0b-434e-9730-4d4506e7329d.root
/store/mc/Run3Summer23NanoAODv12/DYto2L-2Jets_MLL-50_PTLL-100to200_2J_TuneCP5_13p6TeV_amcatnloFXFX-pythia8/NANOAODSIM/130X_mcRun3_2023_realistic_v14-v1/60000/4a2d50b7-2a80-4b8c-8cc2-496543e75a72.root
/store/mc/Run3Summer23NanoAODv12/DYto2L-2Jets_MLL-50_PTLL-100to200_2J_TuneCP5_13p6TeV_amcatnloFXFX-pythia8/NANOAODSIM/130X_mcRun3_2023_realistic_v14-v1/60000/f6e39dd3-0624-41f0-929c-33dc09da357c.root
/store/mc/Run3Summer23NanoAODv12/DYto2L-2Jets_MLL-50_PTLL-100to200_2J_TuneCP5_13p6TeV_amcatnloFXFX-pythia8/NANOAODSIM/130X_mcRun3_2023_realistic_v14-v1/60000/5a95cb11-edb9-47c8-ac5d-5b19ded54933.root
/store/mc/Run3Summer23NanoAODv12/DYto2L-2Jets_MLL-50_PTLL-100to200_2J_TuneCP5_13p6TeV_amcatnloFXFX-pythia8/NANOAODSIM/130X_mcRun3_2023_realistic_v14-v1/60000/2bcba30d-7679-4ca7-9b2b-d6b64ccdd444.root
/store/mc/Run3Summer23NanoAODv12/DYto2L-2Jets_MLL-50_PTLL-100to200_2J_TuneCP5_13p6TeV_amcatnloFXFX-pythia8/NANOAODSIM/130X_mcRun3_2023_realistic_v14-v1/60000/556a54d8-bba5-43d2-9dd7-34745ba79093.root
/store/mc/Run3Summer23NanoAODv12/DYto2L-2Jets_MLL-50_PTLL-100to200_2J_TuneCP5_13p6TeV_amcatnloFXFX-pythia8/NANOAODSIM/130X_mcRun3_2023_realistic_v14-v1/60000/db21f032-f744-4d22-ba0f-e1956d098d89.root
/store/mc/Run3Summer23NanoAODv12/DYto2L-2Jets_MLL-50_PTLL-100to200_2J_TuneCP5_13p6TeV_amcatnloFXFX-pythia8/NANOAODSIM/130X_mcRun3_2023_realistic_v14-v1/60000/fceb82c0-bab3-45f9-a9d2-722c0a8fe87d.root
/store/mc/Run3Summer23NanoAODv12/DYto2L-2Jets_MLL-50_PTLL-100to200_2J_TuneCP5_13p6TeV_amcatnloFXFX-pythia8/NANOAODSIM/130X_mcRun3_2023_realistic_v14-v1/60000/07d5bba8-0d61-4e20-b0c0-0e518763c5a7.root
/store/mc/Run3Summer23NanoAODv12/DYto2L-2Jets_MLL-50_PTLL-100to200_2J_TuneCP5_13p6TeV_amcatnloFXFX-pythia8/NANOAODSIM/130X_mcRun3_2023_realistic_v14-v1/60000/cf6fbdba-8e1f-4b57-b898-e956862672cb.root
/store/mc/Run3Summer23NanoAODv12/DYto2L-2Jets_MLL-50_PTLL-100to200_2J_TuneCP5_13p6TeV_amcatnloFXFX-pythia8/NANOAODSIM/130X_mcRun3_2023_realistic_v14-v1/60000/467e692d-03db-434b-b2c2-da6943366016.root
/store/mc/Run3Summer23NanoAODv12/DYto2L-2Jets_MLL-50_PTLL-100to200_2J_TuneCP5_13p6TeV_amcatnloFXFX-pythia8/NANOAODSIM/130X_mcRun3_2023_realistic_v14-v1/60000/4a99379d-aaf7-417d-9f5e-d5129fec499f.root
/store/mc/Run3Summer23NanoAODv12/DYto2L-2Jets_MLL-50_PTLL-100to200_2J_TuneCP5_13p6TeV_amcatnloFXFX-pythia8/NANOAODSIM/130X_mcRun3_2023_realistic_v14-v1/60000/369a6a75-8dca-45db-b385-7ad9218b40a4.root
/store/mc/Run3Summer23NanoAODv12/DYto2L-2Jets_MLL-50_PTLL-100to200_2J_TuneCP5_13p6TeV_amcatnloFXFX-pythia8/NANOAODSIM/130X_mcRun3_2023_realistic_v14-v1/60000/d874eabb-0b78-4a65-a6df-202e60ce3638.root
/store/mc/Run3Summer23NanoAODv12/DYto2L-2Jets_MLL-50_PTLL-100to200_2J_TuneCP5_13p6TeV_amcatnloFXFX-pythia8/NANOAODSIM/130X_mcRun3_2023_realistic_v14-v1/60000/b8630762-5504-45ef-98ad-a8e69d4927ce.root
/store/mc/Run3Summer23NanoAODv12/DYto2L-2Jets_MLL-50_PTLL-100to200_2J_TuneCP5_13p6TeV_amcatnloFXFX-pythia8/NANOAODSIM/130X_mcRun3_2023_realistic_v14-v1/60000/8488d5ab-8b1e-46f0-8a57-eefa04fb3e21.root
/store/mc/Run3Summer23NanoAODv12/DYto2L-2Jets_MLL-50_PTLL-100to200_2J_TuneCP5_13p6TeV_amcatnloFXFX-pythia8/NANOAODSIM/130X_mcRun3_2023_realistic_v14-v1/60000/4ce01be6-933d-44ee-a65b-505ee918bcac.root
/store/mc/Run3Summer23NanoAODv12/DYto2L-2Jets_MLL-50_PTLL-100to200_2J_TuneCP5_13p6TeV_amcatnloFXFX-pythia8/NANOAODSIM/130X_mcRun3_2023_realistic_v14-v1/60000/31804a4f-d04e-43a7-9336-1306657204e2.root
/store/mc/Run3Summer23NanoAODv12/DYto2L-2Jets_MLL-50_PTLL-100to200_2J_TuneCP5_13p6TeV_amcatnloFXFX-pythia8/NANOAODSIM/130X_mcRun3_2023_realistic_v14-v1/60000/94d7e0be-41f7-4898-9e7f-694f5206b620.root
/store/mc/Run3Summer23NanoAODv12/DYto2L-2Jets_MLL-50_PTLL-100to200_2J_TuneCP5_13p6TeV_amcatnloFXFX-pythia8/NANOAODSIM/130X_mcRun3_2023_realistic_v14-v1/60000/89c815ea-a6e5-44f1-9191-aaecfed20df3.root
/store/mc/Run3Summer23NanoAODv12/DYto2L-2Jets_MLL-50_PTLL-100to200_2J_TuneCP5_13p6TeV_amcatnloFXFX-pythia8/NANOAODSIM/130X_mcRun3_2023_realistic_v14-v1/60000/d995ed92-5885-4ed1-88d0-4f800ba3cae6.root
/store/mc/Run3Summer23NanoAODv12/DYto2L-2Jets_MLL-50_PTLL-100to200_2J_TuneCP5_13p6TeV_amcatnloFXFX-pythia8/NANOAODSIM/130X_mcRun3_2023_realistic_v14-v1/60000/b1e0c216-ea8a-4d86-8d86-5bcfb7ece48a.root
/store/mc/Run3Summer23NanoAODv12/DYto2L-2Jets_MLL-50_PTLL-100to200_2J_TuneCP5_13p6TeV_amcatnloFXFX-pythia8/NANOAODSIM/130X_mcRun3_2023_realistic_v14-v1/60000/b91b9bce-6b36-46d6-955e-7609517f53ab.root
/store/mc/Run3Summer23NanoAODv12/DYto2L-2Jets_MLL-50_PTLL-100to200_2J_TuneCP5_13p6TeV_amcatnloFXFX-pythia8/NANOAODSIM/130X_mcRun3_2023_realistic_v14-v1/60000/8cf9cfda-4b74-4735-b023-79fc6f9dc58b.root
/store/mc/Run3Summer23NanoAODv12/DYto2L-2Jets_MLL-50_PTLL-100to200_2J_TuneCP5_13p6TeV_amcatnloFXFX-pythia8/NANOAODSIM/130X_mcRun3_2023_realistic_v14-v1/60000/9c39d850-1bbf-45e8-8293-8271a8a25885.root
/store/mc/Run3Summer23NanoAODv12/DYto2L-2Jets_MLL-50_PTLL-100to200_2J_TuneCP5_13p6TeV_amcatnloFXFX-pythia8/NANOAODSIM/130X_mcRun3_2023_realistic_v14-v1/60000/c8bdf80c-6ba6-468d-ba12-abea95368179.root
/store/mc/Run3Summer23NanoAODv12/DYto2L-2Jets_MLL-50_PTLL-100to200_2J_TuneCP5_13p6TeV_amcatnloFXFX-pythia8/NANOAODSIM/130X_mcRun3_2023_realistic_v14-v1/60000/f90d5d7a-373f-4bdd-8c41-ab60c210f992.root
/store/mc/Run3Summer23NanoAODv12/DYto2L-2Jets_MLL-50_PTLL-100to200_2J_TuneCP5_13p6TeV_amcatnloFXFX-pythia8/NANOAODSIM/130X_mcRun3_2023_realistic_v14-v1/60000/021a2056-2c8d-4835-929d-982000f045a8.root
/store/mc/Run3Summer23NanoAODv12/DYto2L-2Jets_MLL-50_PTLL-100to200_2J_TuneCP5_13p6TeV_amcatnloFXFX-pythia8/NANOAODSIM/130X_mcRun3_2023_realistic_v14-v1/60000/6d678765-efae-4d3d-b95b-84cae4ff37f4.root
/store/mc/Run3Summer23NanoAODv12/DYto2L-2Jets_MLL-50_PTLL-100to200_2J_TuneCP5_13p6TeV_amcatnloFXFX-pythia8/NANOAODSIM/130X_mcRun3_2023_realistic_v14-v1/60000/96da1d5f-289e-4367-90ad-9b29d750a9f4.root
/store/mc/Run3Summer23NanoAODv12/DYto2L-2Jets_MLL-50_PTLL-100to200_2J_TuneCP5_13p6TeV_amcatnloFXFX-pythia8/NANOAODSIM/130X_mcRun3_2023_realistic_v14-v1/60000/1bbe5d1e-e1f7-4520-8a09-afb08e654c11.root
/store/mc/Run3Summer23NanoAODv12/DYto2L-2Jets_MLL-50_PTLL-100to200_2J_TuneCP5_13p6TeV_amcatnloFXFX-pythia8/NANOAODSIM/130X_mcRun3_2023_realistic_v14-v1/60000/fc484334-ab72-406c-82cf-bc1e6a76df8a.root
/store/mc/Run3Summer23NanoAODv12/DYto2L-2Jets_MLL-50_PTLL-100to200_2J_TuneCP5_13p6TeV_amcatnloFXFX-pythia8/NANOAODSIM/130X_mcRun3_2023_realistic_v14-v1/70000/661f9f9c-7eef-473a-9608-95585353466f.root
/store/mc/Run3Summer23NanoAODv12/DYto2L-2Jets_MLL-50_PTLL-100to200_2J_TuneCP5_13p6TeV_amcatnloFXFX-pythia8/NANOAODSIM/130X_mcRun3_2023_realistic_v14-v1/70000/db2702a5-c9e8-4d12-95ed-74f35f5a41f9.root
/store/mc/Run3Summer23NanoAODv12/DYto2L-2Jets_MLL-50_PTLL-100to200_2J_TuneCP5_13p6TeV_amcatnloFXFX-pythia8/NANOAODSIM/130X_mcRun3_2023_realistic_v14-v1/70000/69272cac-102d-4ddd-b75c-6afd414b0216.root
/store/mc/Run3Summer23NanoAODv12/DYto2L-2Jets_MLL-50_PTLL-100to200_2J_TuneCP5_13p6TeV_amcatnloFXFX-pythia8/NANOAODSIM/130X_mcRun3_2023_realistic_v14-v1/70000/13dc643c-1670-4421-a3c5-51f6b2304bc6.root
/store/mc/Run3Summer23NanoAODv12/DYto2L-2Jets_MLL-50_PTLL-100to200_2J_TuneCP5_13p6TeV_amcatnloFXFX-pythia8/NANOAODSIM/130X_mcRun3_2023_realistic_v14-v1/70000/93314c6c-33fa-4c9e-9498-4693c6d4d4f4.root
/store/mc/Run3Summer23NanoAODv12/DYto2L-2Jets_MLL-50_PTLL-100to200_2J_TuneCP5_13p6TeV_amcatnloFXFX-pythia8/NANOAODSIM/130X_mcRun3_2023_realistic_v14-v1/70000/92fff3e6-03cc-40c2-9b6e-2d0227e11c3d.root
/store/mc/Run3Summer23NanoAODv12/DYto2L-2Jets_MLL-50_PTLL-100to200_2J_TuneCP5_13p6TeV_amcatnloFXFX-pythia8/NANOAODSIM/130X_mcRun3_2023_realistic_v14-v1/70000/e4e0f30b-6bb2-48bf-85d8-d67c0eb4d8e4.root
/store/mc/Run3Summer23NanoAODv12/DYto2L-2Jets_MLL-50_PTLL-100to200_2J_TuneCP5_13p6TeV_amcatnloFXFX-pythia8/NANOAODSIM/130X_mcRun3_2023_realistic_v14-v1/70000/3f91ca36-ab25-4400-b731-6a636e759323.root
/store/mc/Run3Summer23NanoAODv12/DYto2L-2Jets_MLL-50_PTLL-100to200_2J_TuneCP5_13p6TeV_amcatnloFXFX-pythia8/NANOAODSIM/130X_mcRun3_2023_realistic_v14-v1/70000/8fa2c0e2-f51c-4924-9bbb-47c2d63e9b58.root
/store/mc/Run3Summer23NanoAODv12/DYto2L-2Jets_MLL-50_PTLL-100to200_2J_TuneCP5_13p6TeV_amcatnloFXFX-pythia8/NANOAODSIM/130X_mcRun3_2023_realistic_v14-v1/70000/333ff671-d5cb-42e8-840b-fbba30140221.root
/store/mc/Run3Summer23NanoAODv12/DYto2L-2Jets_MLL-50_PTLL-100to200_2J_TuneCP5_13p6TeV_amcatnloFXFX-pythia8/NANOAODSIM/130X_mcRun3_2023_realistic_v14-v1/60000/eaa9770a-e6b8-46e9-89b6-4896c63ee2a7.root
/store/mc/Run3Summer23NanoAODv12/DYto2L-2Jets_MLL-50_PTLL-100to200_2J_TuneCP5_13p6TeV_amcatnloFXFX-pythia8/NANOAODSIM/130X_mcRun3_2023_realistic_v14-v1/60000/8eac6863-8aca-4c01-b759-aba1e20e8fa0.root
/store/mc/Run3Summer23NanoAODv12/DYto2L-2Jets_MLL-50_PTLL-100to200_2J_TuneCP5_13p6TeV_amcatnloFXFX-pythia8/NANOAODSIM/130X_mcRun3_2023_realistic_v14-v1/60000/e6d2d670-4a7f-4b82-a4f0-8b53a4b1d1a3.root
/store/mc/Run3Summer23NanoAODv12/DYto2L-2Jets_MLL-50_PTLL-100to200_2J_TuneCP5_13p6TeV_amcatnloFXFX-pythia8/NANOAODSIM/130X_mcRun3_2023_realistic_v14-v1/60000/3f94d71d-9c3a-478e-ae35-80b8dfa37fae.root
/store/mc/Run3Summer23NanoAODv12/DYto2L-2Jets_MLL-50_PTLL-100to200_2J_TuneCP5_13p6TeV_amcatnloFXFX-pythia8/NANOAODSIM/130X_mcRun3_2023_realistic_v14-v1/60000/1e6bbed5-5fc4-45bb-affb-920413957725.root
/store/mc/Run3Summer23NanoAODv12/DYto2L-2Jets_MLL-50_PTLL-100to200_2J_TuneCP5_13p6TeV_amcatnloFXFX-pythia8/NANOAODSIM/130X_mcRun3_2023_realistic_v14-v1/60000/3cdf571e-a887-4519-9bb3-dd472ae9776c.root
/store/mc/Run3Summer23NanoAODv12/DYto2L-2Jets_MLL-50_PTLL-100to200_2J_TuneCP5_13p6TeV_amcatnloFXFX-pythia8/NANOAODSIM/130X_mcRun3_2023_realistic_v14-v1/60000/10e38d26-ddcd-47fc-b860-1593338b7262.root
/store/mc/Run3Summer23NanoAODv12/DYto2L-2Jets_MLL-50_PTLL-100to200_2J_TuneCP5_13p6TeV_amcatnloFXFX-pythia8/NANOAODSIM/130X_mcRun3_2023_realistic_v14-v1/60000/c9ffc484-f721-4aa5-b932-50eb88e12fd4.root
/store/mc/Run3Summer23NanoAODv12/DYto2L-2Jets_MLL-50_PTLL-100to200_2J_TuneCP5_13p6TeV_amcatnloFXFX-pythia8/NANOAODSIM/130X_mcRun3_2023_realistic_v14-v1/70000/5de5cef1-3d4f-4df6-b2f2-58b1c2064357.root
/store/mc/Run3Summer23NanoAODv12/DYto2L-2Jets_MLL-50_PTLL-100to200_2J_TuneCP5_13p6TeV_amcatnloFXFX-pythia8/NANOAODSIM/130X_mcRun3_2023_realistic_v14-v1/70000/706704a8-b87c-4465-bca9-c43533ee743e.root
/store/mc/Run3Summer23NanoAODv12/DYto2L-2Jets_MLL-50_PTLL-100to200_2J_TuneCP5_13p6TeV_amcatnloFXFX-pythia8/NANOAODSIM/130X_mcRun3_2023_realistic_v14-v1/60000/2f1cefee-97c6-4063-99b9-591f64950300.root
/store/mc/Run3Summer23NanoAODv12/DYto2L-2Jets_MLL-50_PTLL-100to200_2J_TuneCP5_13p6TeV_amcatnloFXFX-pythia8/NANOAODSIM/130X_mcRun3_2023_realistic_v14-v1/60000/46d84683-a46a-45e8-aa2e-1f5cea8229bf.root
/store/mc/Run3Summer23NanoAODv12/DYto2L-2Jets_MLL-50_PTLL-100to200_2J_TuneCP5_13p6TeV_amcatnloFXFX-pythia8/NANOAODSIM/130X_mcRun3_2023_realistic_v14-v1/60000/b1252092-197d-4cf1-96e5-590ba6c856d4.root
/store/mc/Run3Summer23NanoAODv12/DYto2L-2Jets_MLL-50_PTLL-100to200_2J_TuneCP5_13p6TeV_amcatnloFXFX-pythia8/NANOAODSIM/130X_mcRun3_2023_realistic_v14-v1/60000/e30c50a1-7da8-4ec2-b017-9d02ecc923c8.root
/store/mc/Run3Summer23NanoAODv12/DYto2L-2Jets_MLL-50_PTLL-100to200_2J_TuneCP5_13p6TeV_amcatnloFXFX-pythia8/NANOAODSIM/130X_mcRun3_2023_realistic_v14-v1/60000/7a2a76f1-586a-4aed-8fe3-b650d363c3b4.root
/store/mc/Run3Summer23NanoAODv12/DYto2L-2Jets_MLL-50_PTLL-100to200_2J_TuneCP5_13p6TeV_amcatnloFXFX-pythia8/NANOAODSIM/130X_mcRun3_2023_realistic_v14-v1/60000/353b5b77-7035-4c44-9931-7bbbfcc51449.root
/store/mc/Run3Summer23NanoAODv12/DYto2L-2Jets_MLL-50_PTLL-100to200_2J_TuneCP5_13p6TeV_amcatnloFXFX-pythia8/NANOAODSIM/130X_mcRun3_2023_realistic_v14-v1/60000/a9db2a43-4ebf-4bc3-9735-5476b9c667f6.root
/store/mc/Run3Summer23NanoAODv12/DYto2L-2Jets_MLL-50_PTLL-100to200_2J_TuneCP5_13p6TeV_amcatnloFXFX-pythia8/NANOAODSIM/130X_mcRun3_2023_realistic_v14-v1/70000/65fe23d9-0123-40dd-bd42-d842e247f027.root
/store/mc/Run3Summer23NanoAODv12/DYto2L-2Jets_MLL-50_PTLL-100to200_2J_TuneCP5_13p6TeV_amcatnloFXFX-pythia8/NANOAODSIM/130X_mcRun3_2023_realistic_v14-v1/70000/9a186aeb-f876-42ff-8b4b-0685213a1d06.root
/store/mc/Run3Summer23NanoAODv12/DYto2L-2Jets_MLL-50_PTLL-100to200_2J_TuneCP5_13p6TeV_amcatnloFXFX-pythia8/NANOAODSIM/130X_mcRun3_2023_realistic_v14-v1/70000/eba65020-1a96-4c81-806d-32d74ef396e1.root
/store/mc/Run3Summer23NanoAODv12/DYto2L-2Jets_MLL-50_PTLL-100to200_2J_TuneCP5_13p6TeV_amcatnloFXFX-pythia8/NANOAODSIM/130X_mcRun3_2023_realistic_v14-v1/70000/ff09ca10-983b-43ff-924b-e20b30a53a8d.root
/store/mc/Run3Summer23NanoAODv12/DYto2L-2Jets_MLL-50_PTLL-100to200_2J_TuneCP5_13p6TeV_amcatnloFXFX-pythia8/NANOAODSIM/130X_mcRun3_2023_realistic_v14-v1/70000/f839ea5d-146a-4aa8-9e2e-87dd3358f8df.root
/store/mc/Run3Summer23NanoAODv12/DYto2L-2Jets_MLL-50_PTLL-100to200_2J_TuneCP5_13p6TeV_amcatnloFXFX-pythia8/NANOAODSIM/130X_mcRun3_2023_realistic_v14-v1/70000/4524ed9e-7b78-4320-94d0-d4342c14c9f2.root
/store/mc/Run3Summer23NanoAODv12/DYto2L-2Jets_MLL-50_PTLL-100to200_2J_TuneCP5_13p6TeV_amcatnloFXFX-pythia8/NANOAODSIM/130X_mcRun3_2023_realistic_v14-v1/70000/dc0f1437-cef1-4a1c-9abe-3d3993f69574.root
/store/mc/Run3Summer23NanoAODv12/DYto2L-2Jets_MLL-50_PTLL-100to200_2J_TuneCP5_13p6TeV_amcatnloFXFX-pythia8/NANOAODSIM/130X_mcRun3_2023_realistic_v14-v1/70000/5cff3706-dd51-4705-a768-039b5cfb8032.root
/store/mc/Run3Summer23NanoAODv12/DYto2L-2Jets_MLL-50_PTLL-100to200_2J_TuneCP5_13p6TeV_amcatnloFXFX-pythia8/NANOAODSIM/130X_mcRun3_2023_realistic_v14-v1/70000/f863462f-424b-4730-bbee-31441e62b1ff.root
/store/mc/Run3Summer23NanoAODv12/DYto2L-2Jets_MLL-50_PTLL-100to200_2J_TuneCP5_13p6TeV_amcatnloFXFX-pythia8/NANOAODSIM/130X_mcRun3_2023_realistic_v14-v1/70000/3893ae8e-ab8f-4133-b081-f3c2e9a449b2.root
/store/mc/Run3Summer23NanoAODv12/DYto2L-2Jets_MLL-50_PTLL-100to200_2J_TuneCP5_13p6TeV_amcatnloFXFX-pythia8/NANOAODSIM/130X_mcRun3_2023_realistic_v14-v1/2550000/04a7c59b-d657-4c09-86aa-91c05cd63891.root
/store/mc/Run3Summer23NanoAODv12/DYto2L-2Jets_MLL-50_PTLL-100to200_2J_TuneCP5_13p6TeV_amcatnloFXFX-pythia8/NANOAODSIM/130X_mcRun3_2023_realistic_v14-v1/70000/cf94bb6c-b780-4824-ab2f-5dc95ae18b79.root
/store/mc/Run3Summer23NanoAODv12/DYto2L-2Jets_MLL-50_PTLL-100to200_2J_TuneCP5_13p6TeV_amcatnloFXFX-pythia8/NANOAODSIM/130X_mcRun3_2023_realistic_v14-v1/70000/8796cad1-c48e-4554-bcb4-a3ca42d188c5.root
/store/mc/Run3Summer23NanoAODv12/DYto2L-2Jets_MLL-50_PTLL-100to200_2J_TuneCP5_13p6TeV_amcatnloFXFX-pythia8/NANOAODSIM/130X_mcRun3_2023_realistic_v14-v1/2550000/7b840fb3-52d0-4f11-819b-ff4bfcc74e31.root
/store/mc/Run3Summer23NanoAODv12/DYto2L-2Jets_MLL-50_PTLL-100to200_2J_TuneCP5_13p6TeV_amcatnloFXFX-pythia8/NANOAODSIM/130X_mcRun3_2023_realistic_v14-v1/70000/7f10aaf3-02e1-4477-a84c-ed7b68681a4b.root
/store/mc/Run3Summer23NanoAODv12/DYto2L-2Jets_MLL-50_PTLL-100to200_2J_TuneCP5_13p6TeV_amcatnloFXFX-pythia8/NANOAODSIM/130X_mcRun3_2023_realistic_v14-v1/70000/87bd24e7-284f-4661-897b-c5afc47276db.root
/store/mc/Run3Summer23NanoAODv12/DYto2L-2Jets_MLL-50_PTLL-100to200_2J_TuneCP5_13p6TeV_amcatnloFXFX-pythia8/NANOAODSIM/130X_mcRun3_2023_realistic_v14-v1/70000/e0fdc81b-c1a7-45d3-b474-4de90a16957a.root
/store/mc/Run3Summer23NanoAODv12/DYto2L-2Jets_MLL-50_PTLL-100to200_2J_TuneCP5_13p6TeV_amcatnloFXFX-pythia8/NANOAODSIM/130X_mcRun3_2023_realistic_v14-v1/2550000/5d734a88-7eaa-4690-ba9b-afbb1a804c86.root
/store/mc/Run3Summer23NanoAODv12/DYto2L-2Jets_MLL-50_PTLL-100to200_2J_TuneCP5_13p6TeV_amcatnloFXFX-pythia8/NANOAODSIM/130X_mcRun3_2023_realistic_v14-v1/70000/83b7fcf7-6bd3-4707-adc4-a096d3af325c.root
/store/mc/Run3Summer23NanoAODv12/DYto2L-2Jets_MLL-50_PTLL-100to200_2J_TuneCP5_13p6TeV_amcatnloFXFX-pythia8/NANOAODSIM/130X_mcRun3_2023_realistic_v14-v1/70000/a055e26b-94bd-4a54-8f6e-0780ac04ed08.root
/store/mc/Run3Summer23NanoAODv12/DYto2L-2Jets_MLL-50_PTLL-100to200_2J_TuneCP5_13p6TeV_amcatnloFXFX-pythia8/NANOAODSIM/130X_mcRun3_2023_realistic_v14-v1/70000/6a6d3521-e1b6-47f7-beb5-420a5b55be2e.root
/store/mc/Run3Summer23NanoAODv12/DYto2L-2Jets_MLL-50_PTLL-100to200_2J_TuneCP5_13p6TeV_amcatnloFXFX-pythia8/NANOAODSIM/130X_mcRun3_2023_realistic_v14-v1/70000/a6ca5808-b854-4a9f-8d0a-6e5175ccf8c0.root
/store/mc/Run3Summer23NanoAODv12/DYto2L-2Jets_MLL-50_PTLL-100to200_2J_TuneCP5_13p6TeV_amcatnloFXFX-pythia8/NANOAODSIM/130X_mcRun3_2023_realistic_v14-v1/70000/0855e59c-f6f0-4272-abf5-4741ca76f6f7.root
/store/mc/Run3Summer23NanoAODv12/DYto2L-2Jets_MLL-50_PTLL-100to200_2J_TuneCP5_13p6TeV_amcatnloFXFX-pythia8/NANOAODSIM/130X_mcRun3_2023_realistic_v14-v1/70000/03ab0700-e53d-42e9-9b15-3199272f7775.root
/store/mc/Run3Summer23NanoAODv12/DYto2L-2Jets_MLL-50_PTLL-100to200_2J_TuneCP5_13p6TeV_amcatnloFXFX-pythia8/NANOAODSIM/130X_mcRun3_2023_realistic_v14-v1/70000/124813b8-c354-432f-a880-023c1541811f.root
/store/mc/Run3Summer23NanoAODv12/DYto2L-2Jets_MLL-50_PTLL-100to200_2J_TuneCP5_13p6TeV_amcatnloFXFX-pythia8/NANOAODSIM/130X_mcRun3_2023_realistic_v14-v1/70000/08ca3a24-8682-430a-ba2c-dc5369900423.root
/store/mc/Run3Summer23NanoAODv12/DYto2L-2Jets_MLL-50_PTLL-100to200_2J_TuneCP5_13p6TeV_amcatnloFXFX-pythia8/NANOAODSIM/130X_mcRun3_2023_realistic_v14-v1/70000/7894a1b6-cf2c-4183-ba5d-b7eacfe6755b.root
/store/mc/Run3Summer23NanoAODv12/DYto2L-2Jets_MLL-50_PTLL-100to200_2J_TuneCP5_13p6TeV_amcatnloFXFX-pythia8/NANOAODSIM/130X_mcRun3_2023_realistic_v14-v1/2550000/1c19bad3-9a6d-4309-8641-6459f32cd5e6.root
/store/mc/Run3Summer23NanoAODv12/DYto2L-2Jets_MLL-50_PTLL-100to200_2J_TuneCP5_13p6TeV_amcatnloFXFX-pythia8/NANOAODSIM/130X_mcRun3_2023_realistic_v14-v1/2550000/83b1402c-5002-4dcd-b43c-a7bcaa43c196.root
/store/mc/Run3Summer23NanoAODv12/DYto2L-2Jets_MLL-50_PTLL-100to200_2J_TuneCP5_13p6TeV_amcatnloFXFX-pythia8/NANOAODSIM/130X_mcRun3_2023_realistic_v14-v1/2550000/2d3b2b1b-00dd-4a98-8c00-615fc109818b.root
/store/mc/Run3Summer23NanoAODv12/DYto2L-2Jets_MLL-50_PTLL-100to200_2J_TuneCP5_13p6TeV_amcatnloFXFX-pythia8/NANOAODSIM/130X_mcRun3_2023_realistic_v14-v1/2550000/13ecb088-3dcb-47b0-9874-c4ecd095bafd.root
/store/mc/Run3Summer23NanoAODv12/DYto2L-2Jets_MLL-50_PTLL-100to200_2J_TuneCP5_13p6TeV_amcatnloFXFX-pythia8/NANOAODSIM/130X_mcRun3_2023_realistic_v14-v1/2550000/040751b8-f651-4e2b-b0c3-1757caeda7b3.root
/store/mc/Run3Summer23NanoAODv12/DYto2L-2Jets_MLL-50_PTLL-100to200_2J_TuneCP5_13p6TeV_amcatnloFXFX-pythia8/NANOAODSIM/130X_mcRun3_2023_realistic_v14-v1/2550000/7b8dde19-be43-452e-a8a5-cdee09a51162.root
/store/mc/Run3Summer23NanoAODv12/DYto2L-2Jets_MLL-50_PTLL-100to200_2J_TuneCP5_13p6TeV_amcatnloFXFX-pythia8/NANOAODSIM/130X_mcRun3_2023_realistic_v14-v1/2550000/6f2b1e34-c004-4aea-9613-b61df077c9ee.root
/store/mc/Run3Summer23NanoAODv12/DYto2L-2Jets_MLL-50_PTLL-100to200_2J_TuneCP5_13p6TeV_amcatnloFXFX-pythia8/NANOAODSIM/130X_mcRun3_2023_realistic_v14-v1/2550000/11ad22e2-d7ce-4e45-a144-c101ae5cde4c.root
/store/mc/Run3Summer23NanoAODv12/DYto2L-2Jets_MLL-50_PTLL-100to200_2J_TuneCP5_13p6TeV_amcatnloFXFX-pythia8/NANOAODSIM/130X_mcRun3_2023_realistic_v14-v1/2550000/725bc87d-d3cb-4394-b415-ec62962ac15f.root
/store/mc/Run3Summer23NanoAODv12/DYto2L-2Jets_MLL-50_PTLL-100to200_2J_TuneCP5_13p6TeV_amcatnloFXFX-pythia8/NANOAODSIM/130X_mcRun3_2023_realistic_v14-v1/2550000/64c83f59-4bc1-4cbc-a36a-f0a0e4ded625.root
/store/mc/Run3Summer23NanoAODv12/DYto2L-2Jets_MLL-50_PTLL-100to200_2J_TuneCP5_13p6TeV_amcatnloFXFX-pythia8/NANOAODSIM/130X_mcRun3_2023_realistic_v14-v1/2550000/b2a86c47-bac0-40d9-b3ba-c06832f13623.root
/store/mc/Run3Summer23NanoAODv12/DYto2L-2Jets_MLL-50_PTLL-100to200_2J_TuneCP5_13p6TeV_amcatnloFXFX-pythia8/NANOAODSIM/130X_mcRun3_2023_realistic_v14-v1/2550000/b9e202c1-a92b-4479-8bf3-de4d7fd66ce0.root
/store/mc/Run3Summer23NanoAODv12/DYto2L-2Jets_MLL-50_PTLL-100to200_2J_TuneCP5_13p6TeV_amcatnloFXFX-pythia8/NANOAODSIM/130X_mcRun3_2023_realistic_v14-v1/2550000/60347cd3-a771-40a1-9fc8-3970579029c2.root
/store/mc/Run3Summer23NanoAODv12/DYto2L-2Jets_MLL-50_PTLL-100to200_2J_TuneCP5_13p6TeV_amcatnloFXFX-pythia8/NANOAODSIM/130X_mcRun3_2023_realistic_v14-v1/2550000/b2498f2f-3fab-44a3-be81-d81674cc5034.root
/store/mc/Run3Summer23NanoAODv12/DYto2L-2Jets_MLL-50_PTLL-100to200_2J_TuneCP5_13p6TeV_amcatnloFXFX-pythia8/NANOAODSIM/130X_mcRun3_2023_realistic_v14-v1/2550000/41c3002d-5836-4851-a7f1-17632721cd02.root
/store/mc/Run3Summer23NanoAODv12/DYto2L-2Jets_MLL-50_PTLL-100to200_2J_TuneCP5_13p6TeV_amcatnloFXFX-pythia8/NANOAODSIM/130X_mcRun3_2023_realistic_v14-v1/2550000/6e488cbb-379d-457c-b270-7ce31d527fa1.root
/store/mc/Run3Summer23NanoAODv12/DYto2L-2Jets_MLL-50_PTLL-100to200_2J_TuneCP5_13p6TeV_amcatnloFXFX-pythia8/NANOAODSIM/130X_mcRun3_2023_realistic_v14-v1/2550000/26ae178e-d8f8-4c78-87a1-3e0a41c831d3.root
/store/mc/Run3Summer23NanoAODv12/DYto2L-2Jets_MLL-50_PTLL-100to200_2J_TuneCP5_13p6TeV_amcatnloFXFX-pythia8/NANOAODSIM/130X_mcRun3_2023_realistic_v14-v1/2550000/289a8b08-e972-4cd1-b76b-35441e0632ae.root
/store/mc/Run3Summer23NanoAODv12/DYto2L-2Jets_MLL-50_PTLL-100to200_2J_TuneCP5_13p6TeV_amcatnloFXFX-pythia8/NANOAODSIM/130X_mcRun3_2023_realistic_v14-v1/2550000/188b5ff1-261d-4a7e-9434-88a2a2324e67.root
/store/mc/Run3Summer23NanoAODv12/DYto2L-2Jets_MLL-50_PTLL-100to200_2J_TuneCP5_13p6TeV_amcatnloFXFX-pythia8/NANOAODSIM/130X_mcRun3_2023_realistic_v14-v1/2550000/71f07108-bf3c-48de-a2a5-afc0d4a04288.root
/store/mc/Run3Summer23NanoAODv12/DYto2L-2Jets_MLL-50_PTLL-100to200_2J_TuneCP5_13p6TeV_amcatnloFXFX-pythia8/NANOAODSIM/130X_mcRun3_2023_realistic_v14-v1/2550000/393f073a-d074-49ad-9a22-ca877a8a0129.root
/store/mc/Run3Summer23NanoAODv12/DYto2L-2Jets_MLL-50_PTLL-100to200_2J_TuneCP5_13p6TeV_amcatnloFXFX-pythia8/NANOAODSIM/130X_mcRun3_2023_realistic_v14-v1/2550000/85c578ef-29c7-44f1-8a43-75f693577b33.root
/store/mc/Run3Summer23NanoAODv12/DYto2L-2Jets_MLL-50_PTLL-100to200_2J_TuneCP5_13p6TeV_amcatnloFXFX-pythia8/NANOAODSIM/130X_mcRun3_2023_realistic_v14-v1/60000/07f544f9-b34d-4eb9-b77d-125e4055a265.root
/store/mc/Run3Summer23NanoAODv12/DYto2L-2Jets_MLL-50_PTLL-100to200_2J_TuneCP5_13p6TeV_amcatnloFXFX-pythia8/NANOAODSIM/130X_mcRun3_2023_realistic_v14-v1/2560000/8fbe4d77-c3bb-4cc1-89b2-81accc39cf26.root
/store/mc/Run3Summer23NanoAODv12/DYto2L-2Jets_MLL-50_PTLL-100to200_2J_TuneCP5_13p6TeV_amcatnloFXFX-pythia8/NANOAODSIM/130X_mcRun3_2023_realistic_v14-v1/2560000/6d15c523-7912-46b0-9c0d-7445f6017839.root
/store/mc/Run3Summer23NanoAODv12/DYto2L-2Jets_MLL-50_PTLL-100to200_2J_TuneCP5_13p6TeV_amcatnloFXFX-pythia8/NANOAODSIM/130X_mcRun3_2023_realistic_v14-v1/2560000/9befcb59-608e-496b-8307-e9694c52a160.root
/store/mc/Run3Summer23NanoAODv12/DYto2L-2Jets_MLL-50_PTLL-100to200_2J_TuneCP5_13p6TeV_amcatnloFXFX-pythia8/NANOAODSIM/130X_mcRun3_2023_realistic_v14-v1/2550000/d54d09b5-0478-4e87-af2b-10bef689356b.root
/store/mc/Run3Summer23NanoAODv12/DYto2L-2Jets_MLL-50_PTLL-100to200_2J_TuneCP5_13p6TeV_amcatnloFXFX-pythia8/NANOAODSIM/130X_mcRun3_2023_realistic_v14-v1/2550000/b8a9ff83-a519-400b-98f1-525dfa0748ab.root
/store/mc/Run3Summer23NanoAODv12/DYto2L-2Jets_MLL-50_PTLL-100to200_2J_TuneCP5_13p6TeV_amcatnloFXFX-pythia8/NANOAODSIM/130X_mcRun3_2023_realistic_v14-v1/2550000/3fc0117f-1a1b-4c02-a19f-9b7b864c4a27.root
/store/mc/Run3Summer23NanoAODv12/DYto2L-2Jets_MLL-50_PTLL-100to200_2J_TuneCP5_13p6TeV_amcatnloFXFX-pythia8/NANOAODSIM/130X_mcRun3_2023_realistic_v14-v1/2550000/71e3a24a-2ecf-4e5b-a918-67ffb6d3c4ce.root
/store/mc/Run3Summer23NanoAODv12/DYto2L-2Jets_MLL-50_PTLL-100to200_2J_TuneCP5_13p6TeV_amcatnloFXFX-pythia8/NANOAODSIM/130X_mcRun3_2023_realistic_v14-v1/2550000/687e81a2-25ef-4a44-a313-3917e3c9c064.root
/store/mc/Run3Summer23NanoAODv12/DYto2L-2Jets_MLL-50_PTLL-100to200_2J_TuneCP5_13p6TeV_amcatnloFXFX-pythia8/NANOAODSIM/130X_mcRun3_2023_realistic_v14-v1/2550000/729af0a9-2f17-400b-9b25-c19e6de40e6c.root
/store/mc/Run3Summer23NanoAODv12/DYto2L-2Jets_MLL-50_PTLL-100to200_2J_TuneCP5_13p6TeV_amcatnloFXFX-pythia8/NANOAODSIM/130X_mcRun3_2023_realistic_v14-v1/2550000/eba36195-796f-4a74-84d6-7c63e7afe41c.root
/store/mc/Run3Summer23NanoAODv12/DYto2L-2Jets_MLL-50_PTLL-100to200_2J_TuneCP5_13p6TeV_amcatnloFXFX-pythia8/NANOAODSIM/130X_mcRun3_2023_realistic_v14-v1/60000/99eb4f10-e81b-4561-8964-1e3b2ea3193b.root
/store/mc/Run3Summer23NanoAODv12/DYto2L-2Jets_MLL-50_PTLL-100to200_2J_TuneCP5_13p6TeV_amcatnloFXFX-pythia8/NANOAODSIM/130X_mcRun3_2023_realistic_v14-v1/2550000/edbe28de-3e4e-4e6a-8428-41d569c4c93c.root
/store/mc/Run3Summer23NanoAODv12/DYto2L-2Jets_MLL-50_PTLL-100to200_2J_TuneCP5_13p6TeV_amcatnloFXFX-pythia8/NANOAODSIM/130X_mcRun3_2023_realistic_v14-v1/2550000/81b58347-fbe4-4ce5-9e76-897913225e2e.root
/store/mc/Run3Summer23NanoAODv12/DYto2L-2Jets_MLL-50_PTLL-100to200_2J_TuneCP5_13p6TeV_amcatnloFXFX-pythia8/NANOAODSIM/130X_mcRun3_2023_realistic_v14-v1/2550000/84bfb241-554b-4c3a-b52a-3cfa2769bf42.root
/store/mc/Run3Summer23NanoAODv12/DYto2L-2Jets_MLL-50_PTLL-100to200_2J_TuneCP5_13p6TeV_amcatnloFXFX-pythia8/NANOAODSIM/130X_mcRun3_2023_realistic_v14-v1/2550000/bac92df5-fa62-47d8-9350-a9d2fecf4b1d.root
/store/mc/Run3Summer23NanoAODv12/DYto2L-2Jets_MLL-50_PTLL-100to200_2J_TuneCP5_13p6TeV_amcatnloFXFX-pythia8/NANOAODSIM/130X_mcRun3_2023_realistic_v14-v1/2550000/8a94e70c-2d21-4266-b8c9-f6ccfa9b83ba.root
/store/mc/Run3Summer23NanoAODv12/DYto2L-2Jets_MLL-50_PTLL-100to200_2J_TuneCP5_13p6TeV_amcatnloFXFX-pythia8/NANOAODSIM/130X_mcRun3_2023_realistic_v14-v1/2550000/10600dfb-df00-4ea7-b204-637f1fbb8209.root
/store/mc/Run3Summer23NanoAODv12/DYto2L-2Jets_MLL-50_PTLL-100to200_2J_TuneCP5_13p6TeV_amcatnloFXFX-pythia8/NANOAODSIM/130X_mcRun3_2023_realistic_v14-v1/2550000/ec0e2033-2f5f-42c6-891a-c8f8031b1c84.root
/store/mc/Run3Summer23NanoAODv12/DYto2L-2Jets_MLL-50_PTLL-100to200_2J_TuneCP5_13p6TeV_amcatnloFXFX-pythia8/NANOAODSIM/130X_mcRun3_2023_realistic_v14-v1/2550000/bc7a61ce-c9eb-470c-b4a2-34e3a79e5c04.root
/store/mc/Run3Summer23NanoAODv12/DYto2L-2Jets_MLL-50_PTLL-100to200_2J_TuneCP5_13p6TeV_amcatnloFXFX-pythia8/NANOAODSIM/130X_mcRun3_2023_realistic_v14-v1/2550000/2fc54187-1c18-49ae-b20d-b2c14f8705d3.root
/store/mc/Run3Summer23NanoAODv12/DYto2L-2Jets_MLL-50_PTLL-100to200_2J_TuneCP5_13p6TeV_amcatnloFXFX-pythia8/NANOAODSIM/130X_mcRun3_2023_realistic_v14-v1/2550000/fee988d9-4e05-4f83-ac13-14631828b80b.root
/store/mc/Run3Summer23NanoAODv12/DYto2L-2Jets_MLL-50_PTLL-100to200_2J_TuneCP5_13p6TeV_amcatnloFXFX-pythia8/NANOAODSIM/130X_mcRun3_2023_realistic_v14-v1/2550000/35e753ba-ab95-477c-9732-7c8a27d799ac.root
/store/mc/Run3Summer23NanoAODv12/DYto2L-2Jets_MLL-50_PTLL-100to200_2J_TuneCP5_13p6TeV_amcatnloFXFX-pythia8/NANOAODSIM/130X_mcRun3_2023_realistic_v14-v1/2550000/4d7924dc-a6b8-4f9c-afbe-cc668a0fb4ee.root
/store/mc/Run3Summer23NanoAODv12/DYto2L-2Jets_MLL-50_PTLL-100to200_2J_TuneCP5_13p6TeV_amcatnloFXFX-pythia8/NANOAODSIM/130X_mcRun3_2023_realistic_v14-v1/2550000/25e60d10-d61f-483a-8ddd-0e73d20b15a8.root
/store/mc/Run3Summer23NanoAODv12/DYto2L-2Jets_MLL-50_PTLL-100to200_2J_TuneCP5_13p6TeV_amcatnloFXFX-pythia8/NANOAODSIM/130X_mcRun3_2023_realistic_v14-v1/2550000/f860350d-2416-4f79-af48-31c3abe88c8b.root
/store/mc/Run3Summer23NanoAODv12/DYto2L-2Jets_MLL-50_PTLL-100to200_2J_TuneCP5_13p6TeV_amcatnloFXFX-pythia8/NANOAODSIM/130X_mcRun3_2023_realistic_v14-v1/2550000/5303865d-2f1e-44c4-a4ab-1fd0eead9a4f.root
/store/mc/Run3Summer23NanoAODv12/DYto2L-2Jets_MLL-50_PTLL-100to200_2J_TuneCP5_13p6TeV_amcatnloFXFX-pythia8/NANOAODSIM/130X_mcRun3_2023_realistic_v14-v1/60000/14161d07-4a4e-4be9-9170-4a538d784880.root
/store/mc/Run3Summer23NanoAODv12/DYto2L-2Jets_MLL-50_PTLL-100to200_2J_TuneCP5_13p6TeV_amcatnloFXFX-pythia8/NANOAODSIM/130X_mcRun3_2023_realistic_v14-v1/2560000/47ff4b95-7504-4b61-b699-7a9a6fb0ee32.root
/store/mc/Run3Summer23NanoAODv12/DYto2L-2Jets_MLL-50_PTLL-100to200_2J_TuneCP5_13p6TeV_amcatnloFXFX-pythia8/NANOAODSIM/130X_mcRun3_2023_realistic_v14-v1/2560000/84ab5b8a-80fd-4049-aaea-9856814f266d.root
/store/mc/Run3Summer23NanoAODv12/DYto2L-2Jets_MLL-50_PTLL-100to200_2J_TuneCP5_13p6TeV_amcatnloFXFX-pythia8/NANOAODSIM/130X_mcRun3_2023_realistic_v14-v1/2560000/f238b18d-e3ed-46b9-92d4-3ea455790e45.root
/store/mc/Run3Summer23NanoAODv12/DYto2L-2Jets_MLL-50_PTLL-100to200_2J_TuneCP5_13p6TeV_amcatnloFXFX-pythia8/NANOAODSIM/130X_mcRun3_2023_realistic_v14-v1/2560000/e5b5d781-93bf-4126-89e4-c15cf33d3af7.root
/store/mc/Run3Summer23NanoAODv12/DYto2L-2Jets_MLL-50_PTLL-100to200_2J_TuneCP5_13p6TeV_amcatnloFXFX-pythia8/NANOAODSIM/130X_mcRun3_2023_realistic_v14-v1/2560000/bc936f0a-6f00-4222-af36-487c45f1985a.root
/store/mc/Run3Summer23NanoAODv12/DYto2L-2Jets_MLL-50_PTLL-100to200_2J_TuneCP5_13p6TeV_amcatnloFXFX-pythia8/NANOAODSIM/130X_mcRun3_2023_realistic_v14-v1/2560000/f6203fa5-520f-482d-a066-56ebede68fd5.root
/store/mc/Run3Summer23NanoAODv12/DYto2L-2Jets_MLL-50_PTLL-100to200_2J_TuneCP5_13p6TeV_amcatnloFXFX-pythia8/NANOAODSIM/130X_mcRun3_2023_realistic_v14-v1/2560000/edcec028-bab4-4cff-813e-6f80a71b2190.root
/store/mc/Run3Summer23NanoAODv12/DYto2L-2Jets_MLL-50_PTLL-100to200_2J_TuneCP5_13p6TeV_amcatnloFXFX-pythia8/NANOAODSIM/130X_mcRun3_2023_realistic_v14-v1/2560000/a88d9073-f1a1-465d-b279-c2a87d083776.root
/store/mc/Run3Summer23NanoAODv12/DYto2L-2Jets_MLL-50_PTLL-100to200_2J_TuneCP5_13p6TeV_amcatnloFXFX-pythia8/NANOAODSIM/130X_mcRun3_2023_realistic_v14-v1/2560000/3216b42a-fd29-428b-b13f-bdedf69c7254.root
/store/mc/Run3Summer23NanoAODv12/DYto2L-2Jets_MLL-50_PTLL-100to200_2J_TuneCP5_13p6TeV_amcatnloFXFX-pythia8/NANOAODSIM/130X_mcRun3_2023_realistic_v14-v1/2560000/7dc1df4d-90a5-41e9-8101-de32cecacd58.root
/store/mc/Run3Summer23NanoAODv12/DYto2L-2Jets_MLL-50_PTLL-100to200_2J_TuneCP5_13p6TeV_amcatnloFXFX-pythia8/NANOAODSIM/130X_mcRun3_2023_realistic_v14-v1/2560000/56c4f9d6-ccb2-46c1-b912-d42eb6ac3331.root
/store/mc/Run3Summer23NanoAODv12/DYto2L-2Jets_MLL-50_PTLL-100to200_2J_TuneCP5_13p6TeV_amcatnloFXFX-pythia8/NANOAODSIM/130X_mcRun3_2023_realistic_v14-v1/2560000/f652963d-ec05-4b84-afeb-52c613f0a293.root
/store/mc/Run3Summer23NanoAODv12/DYto2L-2Jets_MLL-50_PTLL-100to200_2J_TuneCP5_13p6TeV_amcatnloFXFX-pythia8/NANOAODSIM/130X_mcRun3_2023_realistic_v14-v1/2560000/8b5bb428-6a19-46a7-93e2-6e4013e83cfe.root
/store/mc/Run3Summer23NanoAODv12/DYto2L-2Jets_MLL-50_PTLL-100to200_2J_TuneCP5_13p6TeV_amcatnloFXFX-pythia8/NANOAODSIM/130X_mcRun3_2023_realistic_v14-v1/2560000/c73f0212-8e22-462d-91ec-ff84391c38e9.root
/store/mc/Run3Summer23NanoAODv12/DYto2L-2Jets_MLL-50_PTLL-100to200_2J_TuneCP5_13p6TeV_amcatnloFXFX-pythia8/NANOAODSIM/130X_mcRun3_2023_realistic_v14-v1/2560000/10701cae-3f8f-4723-938f-00ee1729a610.root
/store/mc/Run3Summer23NanoAODv12/DYto2L-2Jets_MLL-50_PTLL-100to200_2J_TuneCP5_13p6TeV_amcatnloFXFX-pythia8/NANOAODSIM/130X_mcRun3_2023_realistic_v14-v1/2560000/baa5ac29-c248-47d2-b80f-387933cd92d2.root
/store/mc/Run3Summer23NanoAODv12/DYto2L-2Jets_MLL-50_PTLL-100to200_2J_TuneCP5_13p6TeV_amcatnloFXFX-pythia8/NANOAODSIM/130X_mcRun3_2023_realistic_v14-v1/2560000/d362d92d-8cd2-4112-bdc8-077e5048a949.root
/store/mc/Run3Summer23NanoAODv12/DYto2L-2Jets_MLL-50_PTLL-100to200_2J_TuneCP5_13p6TeV_amcatnloFXFX-pythia8/NANOAODSIM/130X_mcRun3_2023_realistic_v14-v1/2560000/56d3215a-97e7-44a3-88e5-bf76535c6875.root
/store/mc/Run3Summer23NanoAODv12/DYto2L-2Jets_MLL-50_PTLL-100to200_2J_TuneCP5_13p6TeV_amcatnloFXFX-pythia8/NANOAODSIM/130X_mcRun3_2023_realistic_v14-v1/2560000/35ddf8fd-1bf0-4a36-89c1-3648198a697f.root
/store/mc/Run3Summer23NanoAODv12/DYto2L-2Jets_MLL-50_PTLL-100to200_2J_TuneCP5_13p6TeV_amcatnloFXFX-pythia8/NANOAODSIM/130X_mcRun3_2023_realistic_v14-v1/2560000/2d79ec13-c76c-4b9b-a1be-a36cfd919e90.root
/store/mc/Run3Summer23NanoAODv12/DYto2L-2Jets_MLL-50_PTLL-100to200_2J_TuneCP5_13p6TeV_amcatnloFXFX-pythia8/NANOAODSIM/130X_mcRun3_2023_realistic_v14-v1/2560000/4c16ca98-85be-4c3c-ab9d-6bb19cbea1fb.root
/store/mc/Run3Summer23NanoAODv12/DYto2L-2Jets_MLL-50_PTLL-100to200_2J_TuneCP5_13p6TeV_amcatnloFXFX-pythia8/NANOAODSIM/130X_mcRun3_2023_realistic_v14-v1/2560000/bdf4b588-574f-4446-8674-f62327fa6bcc.root
/store/mc/Run3Summer23NanoAODv12/DYto2L-2Jets_MLL-50_PTLL-100to200_2J_TuneCP5_13p6TeV_amcatnloFXFX-pythia8/NANOAODSIM/130X_mcRun3_2023_realistic_v14-v1/2560000/400079ae-a75c-42f3-ac1d-36b0afd26481.root
/store/mc/Run3Summer23NanoAODv12/DYto2L-2Jets_MLL-50_PTLL-100to200_2J_TuneCP5_13p6TeV_amcatnloFXFX-pythia8/NANOAODSIM/130X_mcRun3_2023_realistic_v14-v1/2560000/c55c7362-095f-4797-8c86-a6a93c9741fc.root
/store/mc/Run3Summer23NanoAODv12/DYto2L-2Jets_MLL-50_PTLL-100to200_2J_TuneCP5_13p6TeV_amcatnloFXFX-pythia8/NANOAODSIM/130X_mcRun3_2023_realistic_v14-v1/2560000/b4e5184d-1088-42f0-8124-f4e74b4736d7.root
/store/mc/Run3Summer23NanoAODv12/DYto2L-2Jets_MLL-50_PTLL-100to200_2J_TuneCP5_13p6TeV_amcatnloFXFX-pythia8/NANOAODSIM/130X_mcRun3_2023_realistic_v14-v1/2560000/facb411f-1b9d-4852-98a6-3d755fffdf1e.root
/store/mc/Run3Summer23NanoAODv12/DYto2L-2Jets_MLL-50_PTLL-100to200_2J_TuneCP5_13p6TeV_amcatnloFXFX-pythia8/NANOAODSIM/130X_mcRun3_2023_realistic_v14-v1/2560000/1677238d-de5a-4191-96af-ae8061634000.root
/store/mc/Run3Summer23NanoAODv12/DYto2L-2Jets_MLL-50_PTLL-100to200_2J_TuneCP5_13p6TeV_amcatnloFXFX-pythia8/NANOAODSIM/130X_mcRun3_2023_realistic_v14-v1/2560000/6400df40-b655-4378-860e-e0253b156cf3.root
/store/mc/Run3Summer23NanoAODv12/DYto2L-2Jets_MLL-50_PTLL-100to200_2J_TuneCP5_13p6TeV_amcatnloFXFX-pythia8/NANOAODSIM/130X_mcRun3_2023_realistic_v14-v1/2560000/ffd04085-eee0-408a-896d-4c7a8ba0bfc8.root
/store/mc/Run3Summer23NanoAODv12/DYto2L-2Jets_MLL-50_PTLL-100to200_2J_TuneCP5_13p6TeV_amcatnloFXFX-pythia8/NANOAODSIM/130X_mcRun3_2023_realistic_v14-v1/2560000/1ac102fe-4cfb-438f-8fb7-afbad59409df.root
/store/mc/Run3Summer23NanoAODv12/DYto2L-2Jets_MLL-50_PTLL-100to200_2J_TuneCP5_13p6TeV_amcatnloFXFX-pythia8/NANOAODSIM/130X_mcRun3_2023_realistic_v14-v1/60000/692d1c34-5f1e-4afd-8761-15e5f432e439.root
/store/mc/Run3Summer23NanoAODv12/DYto2L-2Jets_MLL-50_PTLL-100to200_2J_TuneCP5_13p6TeV_amcatnloFXFX-pythia8/NANOAODSIM/130X_mcRun3_2023_realistic_v14-v1/60000/04bc9416-1355-4745-95b5-8a7a2fa1c240.root
/store/mc/Run3Summer23NanoAODv12/DYto2L-2Jets_MLL-50_PTLL-100to200_2J_TuneCP5_13p6TeV_amcatnloFXFX-pythia8/NANOAODSIM/130X_mcRun3_2023_realistic_v14-v1/2560000/28444209-ffa8-47b9-af94-99dbe457f8eb.root
/store/mc/Run3Summer23NanoAODv12/DYto2L-2Jets_MLL-50_PTLL-100to200_2J_TuneCP5_13p6TeV_amcatnloFXFX-pythia8/NANOAODSIM/130X_mcRun3_2023_realistic_v14-v1/2560000/8ca05a74-132e-47db-914a-b906173d34bf.root
/store/mc/Run3Summer23NanoAODv12/DYto2L-2Jets_MLL-50_PTLL-100to200_2J_TuneCP5_13p6TeV_amcatnloFXFX-pythia8/NANOAODSIM/130X_mcRun3_2023_realistic_v14-v1/2560000/70210be3-ced0-4320-b9ac-926709d42674.root
/store/mc/Run3Summer23NanoAODv12/DYto2L-2Jets_MLL-50_PTLL-100to200_2J_TuneCP5_13p6TeV_amcatnloFXFX-pythia8/NANOAODSIM/130X_mcRun3_2023_realistic_v14-v1/2560000/35d6e06c-fa51-4b1e-81a4-de0d516acbe3.root
/store/mc/Run3Summer23NanoAODv12/DYto2L-2Jets_MLL-50_PTLL-100to200_2J_TuneCP5_13p6TeV_amcatnloFXFX-pythia8/NANOAODSIM/130X_mcRun3_2023_realistic_v14-v1/2560000/708ebdd7-6798-46fc-9df5-e97468d30ca5.root
/store/mc/Run3Summer23NanoAODv12/DYto2L-2Jets_MLL-50_PTLL-100to200_2J_TuneCP5_13p6TeV_amcatnloFXFX-pythia8/NANOAODSIM/130X_mcRun3_2023_realistic_v14-v1/2560000/8ad9562e-117f-451a-985f-cfe892098884.root
/store/mc/Run3Summer23NanoAODv12/DYto2L-2Jets_MLL-50_PTLL-100to200_2J_TuneCP5_13p6TeV_amcatnloFXFX-pythia8/NANOAODSIM/130X_mcRun3_2023_realistic_v14-v1/2560000/467a0090-59f7-4424-bc66-af2c5325831e.root
/store/mc/Run3Summer23NanoAODv12/DYto2L-2Jets_MLL-50_PTLL-100to200_2J_TuneCP5_13p6TeV_amcatnloFXFX-pythia8/NANOAODSIM/130X_mcRun3_2023_realistic_v14-v1/2560000/263b2c5c-1526-4472-a464-320d641bb28e.root
/store/mc/Run3Summer23NanoAODv12/DYto2L-2Jets_MLL-50_PTLL-100to200_2J_TuneCP5_13p6TeV_amcatnloFXFX-pythia8/NANOAODSIM/130X_mcRun3_2023_realistic_v14-v1/2560000/6a1cbbaf-85c3-4372-a456-1a6002dc939b.root
/store/mc/Run3Summer23NanoAODv12/DYto2L-2Jets_MLL-50_PTLL-100to200_2J_TuneCP5_13p6TeV_amcatnloFXFX-pythia8/NANOAODSIM/130X_mcRun3_2023_realistic_v14-v1/2560000/0a6507c6-a968-4000-a874-2f61996e4a6e.root
/store/mc/Run3Summer23NanoAODv12/DYto2L-2Jets_MLL-50_PTLL-100to200_2J_TuneCP5_13p6TeV_amcatnloFXFX-pythia8/NANOAODSIM/130X_mcRun3_2023_realistic_v14-v1/2560000/046c858a-ea19-4a5c-a78a-33d021fadbd1.root
/store/mc/Run3Summer23NanoAODv12/DYto2L-2Jets_MLL-50_PTLL-100to200_2J_TuneCP5_13p6TeV_amcatnloFXFX-pythia8/NANOAODSIM/130X_mcRun3_2023_realistic_v14-v1/2560000/81eda0c8-a76a-4c6d-9a7a-6049c3c7dac0.root
/store/mc/Run3Summer23NanoAODv12/DYto2L-2Jets_MLL-50_PTLL-100to200_2J_TuneCP5_13p6TeV_amcatnloFXFX-pythia8/NANOAODSIM/130X_mcRun3_2023_realistic_v14-v1/2560000/9dbc01ed-0c49-4035-8fc5-c72faaefe8c7.root
/store/mc/Run3Summer23NanoAODv12/DYto2L-2Jets_MLL-50_PTLL-100to200_2J_TuneCP5_13p6TeV_amcatnloFXFX-pythia8/NANOAODSIM/130X_mcRun3_2023_realistic_v14-v1/2560000/540f81bf-f00e-4666-b801-5c3ebf75b71b.root
/store/mc/Run3Summer23NanoAODv12/DYto2L-2Jets_MLL-50_PTLL-100to200_2J_TuneCP5_13p6TeV_amcatnloFXFX-pythia8/NANOAODSIM/130X_mcRun3_2023_realistic_v14-v1/2560000/726fa4e1-bc0f-4352-8513-a5cbebb33674.root
/store/mc/Run3Summer23NanoAODv12/DYto2L-2Jets_MLL-50_PTLL-100to200_2J_TuneCP5_13p6TeV_amcatnloFXFX-pythia8/NANOAODSIM/130X_mcRun3_2023_realistic_v14-v1/2560000/cf55697c-ba15-4ee1-a845-40ec51c6cc1d.root
/store/mc/Run3Summer23NanoAODv12/DYto2L-2Jets_MLL-50_PTLL-100to200_2J_TuneCP5_13p6TeV_amcatnloFXFX-pythia8/NANOAODSIM/130X_mcRun3_2023_realistic_v14-v1/2560000/078582b4-b618-4b38-9759-a0d123662c41.root
/store/mc/Run3Summer23NanoAODv12/DYto2L-2Jets_MLL-50_PTLL-100to200_2J_TuneCP5_13p6TeV_amcatnloFXFX-pythia8/NANOAODSIM/130X_mcRun3_2023_realistic_v14-v1/2560000/002fc316-b4fe-45ab-b686-677f267b2c7b.root
/store/mc/Run3Summer23NanoAODv12/DYto2L-2Jets_MLL-50_PTLL-100to200_2J_TuneCP5_13p6TeV_amcatnloFXFX-pythia8/NANOAODSIM/130X_mcRun3_2023_realistic_v14-v1/2560000/9e33bad4-a1a6-4f1d-b460-486fe216cbb7.root
/store/mc/Run3Summer23NanoAODv12/DYto2L-2Jets_MLL-50_PTLL-100to200_2J_TuneCP5_13p6TeV_amcatnloFXFX-pythia8/NANOAODSIM/130X_mcRun3_2023_realistic_v14-v1/2560000/d5822b00-6a30-4911-acf6-191d53dda8eb.root
/store/mc/Run3Summer23NanoAODv12/DYto2L-2Jets_MLL-50_PTLL-100to200_2J_TuneCP5_13p6TeV_amcatnloFXFX-pythia8/NANOAODSIM/130X_mcRun3_2023_realistic_v14-v1/2560000/2885296f-0716-4fb4-9ef1-bc95911b6d05.root