/store/data/Run2023C/Muon0/NANOAOD/22Sep2023_v1-v1/30000/0ceac210-9c0b-49a3-baea-ea57c85de9d4.root
/store/data/Run2023C/Muon0/NANOAOD/22Sep2023_v1-v1/40000/b313589d-09f6-4e44-b597-5727da3666b1.root
/store/data/Run2023C/Muon0/NANOAOD/22Sep2023_v1-v1/40000/f0af2e1a-60ba-42cb-9b28-ce1266a30530.root
/store/data/Run2023C/Muon0/NANOAOD/22Sep2023_v1-v1/40000/77003501-44e4-4953-9d0d-a501f43a9933.root
/store/data/Run2023C/Muon0/NANOAOD/22Sep2023_v1-v1/40000/2957661b-bc71-4485-bf2c-809ba0cab05f.root
/store/data/Run2023C/Muon0/NANOAOD/22Sep2023_v1-v1/40000/ce4602f3-399c-4a95-8fc8-3fdf8d023f44.root
/store/data/Run2023C/Muon0/NANOAOD/22Sep2023_v1-v1/50000/b7853966-5dd3-400c-a50f-86022e9c9dc3.root
/store/data/Run2023C/Muon0/NANOAOD/22Sep2023_v1-v1/50000/3cb4ffb4-1937-4475-8ced-99f9a3228e60.root
/store/data/Run2023C/Muon0/NANOAOD/22Sep2023_v1-v1/2540000/3f60d7a9-f2e2-44da-b6c4-10a78959d6a3.root
/store/data/Run2023C/Muon0/NANOAOD/22Sep2023_v1-v1/2540000/2a8e1cc7-c1b4-4a7e-ae57-7f9d96b13a92.root
/store/data/Run2023C/Muon0/NANOAOD/22Sep2023_v1-v1/30000/3047544b-9df5-4e06-81a4-d3217254ef25.root
/store/data/Run2023C/Muon0/NANOAOD/22Sep2023_v1-v1/30000/f088960b-29cc-4673-94f9-b231ca134da3.root
/store/data/Run2023C/Muon0/NANOAOD/22Sep2023_v1-v1/2540000/221e1cb2-9040-44dd-82a8-be899f9f0cab.root
/store/data/Run2023C/Muon0/NANOAOD/22Sep2023_v1-v1/2540000/dfb2556b-98ab-419c-824e-8b8a410802ac.root
/store/data/Run2023C/Muon0/NANOAOD/22Sep2023_v1-v1/2530000/04be2311-15a9-445c-97c1-5d9d0bdc288c.root
/store/data/Run2023C/Muon0/NANOAOD/22Sep2023_v1-v1/2530000/d264e574-5090-47ef-9534-9481677d5534.root
/store/data/Run2023C/Muon0/NANOAOD/22Sep2023_v1-v1/2530000/3a773b96-9c73-4277-9f9e-7a120e64ac0e.root
/store/data/Run2023C/Muon0/NANOAOD/22Sep2023_v1-v1/2530000/5e9c50dc-f778-4799-be1e-880c961f583c.root
/store/data/Run2023C/Muon0/NANOAOD/22Sep2023_v1-v1/2530000/9ce8a798-3b4a-4606-9d18-739ea3741c88.root
/store/data/Run2023C/Muon0/NANOAOD/22Sep2023_v1-v1/40000/480b958f-37ba-404d-be97-91cbdf538e9e.root
/store/data/Run2023C/Muon0/NANOAOD/22Sep2023_v1-v1/40000/121de26c-9df3-4a02-8a7b-2ad7caa64ef4.root
/store/data/Run2023C/Muon0/NANOAOD/22Sep2023_v1-v1/30000/2601be33-50aa-4dd7-9557-790af0a5053c.root
/store/data/Run2023C/Muon0/NANOAOD/22Sep2023_v1-v1/30000/173a25d7-0f5c-4971-8fd8-123696e09b2d.root
/store/data/Run2023C/Muon0/NANOAOD/22Sep2023_v1-v1/40000/5fee5678-5721-4f02-9fb0-e0b083c39577.root
/store/data/Run2023C/Muon0/NANOAOD/22Sep2023_v1-v1/40000/701c1a8d-3e2e-467d-977a-3ba2ba86803d.root
/store/data/Run2023C/Muon0/NANOAOD/22Sep2023_v1-v1/40000/3189549b-8dbd-492e-967a-f85e5ed74d97.root
/store/data/Run2023C/Muon0/NANOAOD/22Sep2023_v1-v1/40000/01e84393-6b2e-4d57-87a4-f71475c051a2.root
/store/data/Run2023C/Muon0/NANOAOD/22Sep2023_v1-v1/40000/7b98faf5-dbe3-460a-8265-8c7a17514200.root
/store/data/Run2023C/Muon0/NANOAOD/22Sep2023_v1-v1/40000/27a8b79a-9050-4b9f-b866-9720a1e01596.root
/store/data/Run2023C/Muon0/NANOAOD/22Sep2023_v1-v1/30000/6199fce0-a01e-4609-b2ee-18e8ed9b4576.root
/store/data/Run2023C/Muon0/NANOAOD/22Sep2023_v1-v1/30000/f8f5442f-bf98-45e0-bfea-1a81e94feed0.root
/store/data/Run2023C/Muon0/NANOAOD/22Sep2023_v1-v1/40000/f4e77457-c449-45c7-8966-312c9ddcac0d.root
/store/data/Run2023C/Muon0/NANOAOD/22Sep2023_v1-v1/40000/48539d10-55ab-455e-8cd3-1257b16e4f7d.root
/store/data/Run2023C/Muon0/NANOAOD/22Sep2023_v1-v1/40000/20495722-38df-41c1-93d4-a269a2eac03f.root
/store/data/Run2023C/Muon0/NANOAOD/22Sep2023_v1-v1/40000/6ef59e04-d646-4608-818b-107af7cf4cf1.root
/store/data/Run2023C/Muon0/NANOAOD/22Sep2023_v1-v1/2530000/5294850a-186f-4130-95dd-fd1948bf785c.root
/store/data/Run2023C/Muon0/NANOAOD/22Sep2023_v1-v1/2530000/c7e6e916-4926-40c5-b9e7-3ada04587319.root
/store/data/Run2023C/Muon0/NANOAOD/22Sep2023_v1-v1/2530000/18236c1d-624a-4e24-878e-520e7fb8aeca.root
/store/data/Run2023C/Muon0/NANOAOD/22Sep2023_v1-v1/2530000/9b7d96c3-c037-4881-af74-14f2b6ef7341.root
/store/data/Run2023C/Muon0/NANOAOD/22Sep2023_v1-v1/2530000/16f6aed4-4590-4f74-9f8c-bc74d5d4d37f.root
/store/data/Run2023C/Muon0/NANOAOD/22Sep2023_v1-v1/2530000/1c6efbec-fcaa-4cb7-9e04-22c626fa906a.root
/store/data/Run2023C/Muon0/NANOAOD/22Sep2023_v1-v1/2530000/2c48b968-8e95-4787-9e08-34a9ae681e3c.root
/store/data/Run2023C/Muon0/NANOAOD/22Sep2023_v1-v1/2530000/030eead5-93f9-405c-863c-a62244712e91.root
/store/data/Run2023C/Muon0/NANOAOD/22Sep2023_v1-v1/2530000/17ad7659-30fd-46fe-826f-b514237c2741.root
/store/data/Run2023C/Muon0/NANOAOD/22Sep2023_v1-v1/2530000/b396d662-2c84-4192-b923-f459986d6cf6.root
/store/data/Run2023C/Muon0/NANOAOD/22Sep2023_v1-v1/50000/a11c521c-59fc-4565-b039-ac200de1a158.root
/store/data/Run2023C/Muon0/NANOAOD/22Sep2023_v1-v1/50000/13910f8e-c88b-4c2a-8379-bc48aeda4745.root
/store/data/Run2023C/Muon0/NANOAOD/22Sep2023_v1-v1/50000/ce9b5d12-27c2-4163-89b2-4bb91eedf6a2.root
/store/data/Run2023C/Muon0/NANOAOD/22Sep2023_v1-v1/50000/be5455e6-a509-4bd8-8f75-48382868aa41.root
/store/data/Run2023C/Muon0/NANOAOD/22Sep2023_v1-v1/50000/18edbceb-371c-461d-adb3-154a8e74fe23.root
/store/data/Run2023C/Muon0/NANOAOD/22Sep2023_v1-v1/50000/0fb67cef-5646-4c59-9de5-62a71979e7cc.root
/store/data/Run2023C/Muon0/NANOAOD/22Sep2023_v1-v1/30000/7f918773-5f05-4e57-b526-941a0fa9c2c1.root
/store/data/Run2023C/Muon0/NANOAOD/22Sep2023_v1-v1/30000/d98eb65c-62bb-4f69-ae67-cd44cd9a4857.root
/store/data/Run2023C/Muon0/NANOAOD/22Sep2023_v1-v1/2530000/0aec6958-3366-4c6f-9822-1effca62804a.root
/store/data/Run2023C/Muon0/NANOAOD/22Sep2023_v1-v1/2530000/a0ce88ec-1259-43d6-8119-351d5ce1434c.root
/store/data/Run2023C/Muon0/NANOAOD/22Sep2023_v1-v1/50000/f655d8dc-fb11-45ba-9ae9-8947ed37e0b4.root
/store/data/Run2023C/Muon0/NANOAOD/22Sep2023_v1-v1/2530000/a7a02693-48e5-4cbd-8837-b684053b3db1.root
/store/data/Run2023C/Muon0/NANOAOD/22Sep2023_v1-v1/2530000/16b68d0a-f66b-406f-a3bd-dcaa02620186.root
/store/data/Run2023C/Muon0/NANOAOD/22Sep2023_v1-v1/2530000/e1e858c7-4d7e-41fa-9521-37f81687ba6c.root
/store/data/Run2023C/Muon0/NANOAOD/22Sep2023_v1-v1/2530000/d2df6c1a-685c-44dd-a3f1-d8801892780f.root
/store/data/Run2023C/Muon0/NANOAOD/22Sep2023_v1-v1/2530000/f67d55ee-70a7-4525-a2b9-e34ca7643d9f.root
/store/data/Run2023C/Muon0/NANOAOD/22Sep2023_v1-v1/2530000/29680141-b5c2-4b02-83ec-4927552375a0.root
/store/data/Run2023C/Muon0/NANOAOD/22Sep2023_v1-v1/50000/c710d3c5-cb2d-4058-933b-bddae65774a2.root
/store/data/Run2023C/Muon0/NANOAOD/22Sep2023_v1-v1/50000/5f362d01-88b4-43a4-9076-190d429b9980.root
/store/data/Run2023C/Muon0/NANOAOD/22Sep2023_v1-v1/50000/28c5ad4e-9164-4d11-95cd-47aa9284e9cb.root
/store/data/Run2023C/Muon0/NANOAOD/22Sep2023_v1-v1/50000/a4e8b282-0c14-4280-bfa3-de108850c732.root
/store/data/Run2023C/Muon0/NANOAOD/22Sep2023_v1-v1/50000/8c01f5f0-cbdd-4156-ba3e-43d7c456b6e7.root
/store/data/Run2023C/Muon0/NANOAOD/22Sep2023_v1-v1/30000/84dd8779-91ce-4949-9cbe-78ed8ba67367.root
/store/data/Run2023C/Muon0/NANOAOD/22Sep2023_v1-v1/2530000/bb6d9a9d-1aea-45c6-b09a-21496263e55c.root
/store/data/Run2023C/Muon0/NANOAOD/22Sep2023_v1-v1/2530000/76bd4153-66bf-4240-8809-5240ff3cfa97.root
/store/data/Run2023C/Muon0/NANOAOD/22Sep2023_v1-v1/30000/89a4aaff-d23b-4110-868d-467142200f33.root
/store/data/Run2023C/Muon0/NANOAOD/22Sep2023_v1-v1/30000/a562058f-4db4-4ca1-aedc-07ac6a44f14d.root
/store/data/Run2023C/Muon0/NANOAOD/22Sep2023_v1-v1/30000/77d9f905-c0cf-4909-81a9-28e1e5462a7c.root
/store/data/Run2023C/Muon0/NANOAOD/22Sep2023_v1-v1/30000/0420dc5a-8337-4520-8136-8681bdff8219.root
/store/data/Run2023C/Muon0/NANOAOD/22Sep2023_v1-v1/30000/7b1da3b7-b3a6-49d1-98d1-6e7302783da6.root
/store/data/Run2023C/Muon0/NANOAOD/22Sep2023_v1-v1/50000/e59eb26f-ab0b-44c1-b90f-e21cf0a9f722.root
/store/data/Run2023C/Muon0/NANOAOD/22Sep2023_v1-v1/2530000/80402f2f-3b22-4e6a-b727-e3320d439de6.root
/store/data/Run2023C/Muon0/NANOAOD/22Sep2023_v1-v1/2530000/b6a25269-1158-44ab-a5b0-a433cb761cdf.root
/store/data/Run2023C/Muon0/NANOAOD/22Sep2023_v1-v1/2530000/5d3f0096-4fce-46cd-bd05-2ce779ce84fc.root
/store/data/Run2023C/Muon0/NANOAOD/22Sep2023_v1-v1/2530000/5f1b7772-2311-45e2-9670-608108c2c4f0.root
/store/data/Run2023C/Muon0/NANOAOD/22Sep2023_v1-v1/2530000/af6912bb-9eb6-47df-a7a8-65f218b3cb67.root
/store/data/Run2023C/Muon0/NANOAOD/22Sep2023_v1-v1/2530000/5cbd6f9f-ad35-4009-bac5-f2a39b1b9842.root
/store/data/Run2023C/Muon0/NANOAOD/22Sep2023_v1-v1/2530000/e5d07f96-7534-41cb-8ec0-06f3f119d729.root
/store/data/Run2023C/Muon0/NANOAOD/22Sep2023_v1-v1/2530000/85b8c013-21fb-4937-97fa-49363a054359.root
/store/data/Run2023C/Muon0/NANOAOD/22Sep2023_v1-v1/2530000/cb617a34-c436-484b-90c9-350458d28776.root
/store/data/Run2023C/Muon0/NANOAOD/22Sep2023_v1-v1/2530000/0644a745-461c-4099-96e9-e023fd8d1e5f.root
/store/data/Run2023C/Muon0/NANOAOD/22Sep2023_v1-v1/25310000/91885358-1072-4166-b54e-743ba9414f65.root
/store/data/Run2023C/Muon0/NANOAOD/22Sep2023_v1-v1/30000/301068ae-9d56-46b5-b887-538b27f243fe.root
/store/data/Run2023C/Muon0/NANOAOD/22Sep2023_v1-v1/30000/75b26d21-ed9a-4b86-81a4-37f636fad859.root
/store/data/Run2023C/Muon0/NANOAOD/22Sep2023_v1-v1/30000/65bffc0c-7e15-4efe-aa88-3465370de9a3.root