/store/data/Run2023C/Tau/NANOAOD/22Sep2023_v4-v1/2540000/6bf50ef6-3842-4bfc-9507-6fd978e78a67.root
/store/data/Run2023C/Tau/NANOAOD/22Sep2023_v4-v1/2540000/4c1296f1-c9be-4a7f-980a-46f4a2c54ac7.root
/store/data/Run2023C/Tau/NANOAOD/22Sep2023_v4-v1/2540000/09e26e78-e31a-49f2-9cf1-90673a558701.root
/store/data/Run2023C/Tau/NANOAOD/22Sep2023_v4-v1/2540000/bda04277-ea1c-43d2-af18-15408bf498c6.root
/store/data/Run2023C/Tau/NANOAOD/22Sep2023_v4-v1/2540000/abc985f8-1ccf-4808-bc9a-24dda78f9646.root
/store/data/Run2023C/Tau/NANOAOD/22Sep2023_v4-v1/2540000/1a2d45e6-1be9-4655-9beb-7d88226876f6.root
/store/data/Run2023C/Tau/NANOAOD/22Sep2023_v4-v1/2540000/65406fb8-3df1-4cf0-bcc4-13c53f79e55b.root
/store/data/Run2023C/Tau/NANOAOD/22Sep2023_v4-v1/2540000/b4ab97ca-92dd-44ce-8e68-b20d503bfe05.root
/store/data/Run2023C/Tau/NANOAOD/22Sep2023_v4-v1/2540000/7aa4f6fb-c6d1-4602-a5b3-c849134d2ac9.root
/store/data/Run2023C/Tau/NANOAOD/22Sep2023_v4-v1/2540000/6ba638d0-82b3-4e7b-8d7c-12f7d0750fb9.root
/store/data/Run2023C/Tau/NANOAOD/22Sep2023_v4-v1/2540000/ee4775db-940e-43fd-81b1-15da35697531.root
/store/data/Run2023C/Tau/NANOAOD/22Sep2023_v4-v1/2540000/1f3e802e-b626-4631-9165-21121eeb54d3.root
/store/data/Run2023C/Tau/NANOAOD/22Sep2023_v4-v1/2540000/0ccc3423-8616-4931-b447-8cc4504195ef.root
/store/data/Run2023C/Tau/NANOAOD/22Sep2023_v4-v1/2540000/658605d5-847f-47b7-969b-b9fa43dfa844.root
/store/data/Run2023C/Tau/NANOAOD/22Sep2023_v4-v1/2540000/790c21b1-2361-48f9-8bf3-067a0f4d045f.root
/store/data/Run2023C/Tau/NANOAOD/22Sep2023_v4-v1/2540000/6ca4217d-6103-4300-aa82-1ea52b9c9cad.root
/store/data/Run2023C/Tau/NANOAOD/22Sep2023_v4-v1/2530000/4d248efc-b251-4df2-a50a-a7dcb1eda144.root
/store/data/Run2023C/Tau/NANOAOD/22Sep2023_v4-v1/30000/4d2841de-4ee1-4737-97e7-b55edf62d7e7.root
/store/data/Run2023C/Tau/NANOAOD/22Sep2023_v4-v1/2540000/b29fac5e-6e16-460a-bb9d-f36662f45038.root
/store/data/Run2023C/Tau/NANOAOD/22Sep2023_v4-v1/2540000/f56b5bed-f70f-4706-87a0-743b621b034a.root
/store/data/Run2023C/Tau/NANOAOD/22Sep2023_v4-v1/2540000/53f761f5-044a-48bc-8de2-c23418692e4a.root
/store/data/Run2023C/Tau/NANOAOD/22Sep2023_v4-v1/2540000/e0b85bf6-6b49-4ef7-bb3a-c63a39c6c80c.root
/store/data/Run2023C/Tau/NANOAOD/22Sep2023_v4-v1/2540000/43c2455c-1913-4f2c-92ed-ac61fef0c368.root
/store/data/Run2023C/Tau/NANOAOD/22Sep2023_v4-v1/2540000/c2846295-65d1-4782-8323-007014b2b8c7.root
/store/data/Run2023C/Tau/NANOAOD/22Sep2023_v4-v1/2540000/29fa23de-1885-4e33-9aed-03f5cfbf9bb6.root
/store/data/Run2023C/Tau/NANOAOD/22Sep2023_v4-v1/2540000/4b5114d0-1140-4dcc-8f83-8e0935c89cd5.root
/store/data/Run2023C/Tau/NANOAOD/22Sep2023_v4-v1/2530000/4c6d10e6-fe8d-47a8-ae92-e80c71049aa5.root
/store/data/Run2023C/Tau/NANOAOD/22Sep2023_v4-v1/2530000/6ee41570-2374-4155-9cc8-3275efadf56d.root
/store/data/Run2023C/Tau/NANOAOD/22Sep2023_v4-v1/30000/9c4512b8-e4c8-456c-8f04-314b32743040.root
/store/data/Run2023C/Tau/NANOAOD/22Sep2023_v4-v1/30000/ceb3bbfc-c6ea-42be-8ef0-0300f13c68dc.root
/store/data/Run2023C/Tau/NANOAOD/22Sep2023_v4-v1/30000/cc9fc0bf-d1fe-4585-89f6-d358521e3fa9.root
/store/data/Run2023C/Tau/NANOAOD/22Sep2023_v4-v1/2530000/0b616d06-de32-4849-9419-baf5013d3953.root
/store/data/Run2023C/Tau/NANOAOD/22Sep2023_v4-v1/30000/f08bd722-de3c-4112-a34e-1832d123e773.root
/store/data/Run2023C/Tau/NANOAOD/22Sep2023_v4-v1/2540000/a82e6e25-a11d-4204-9034-efc388281ed3.root
/store/data/Run2023C/Tau/NANOAOD/22Sep2023_v4-v1/2540000/df761f4d-542a-48c1-b6fe-ce9aed3cc072.root
/store/data/Run2023C/Tau/NANOAOD/22Sep2023_v4-v1/2540000/b237fe89-4251-40ce-aa66-ebdce336d364.root
/store/data/Run2023C/Tau/NANOAOD/22Sep2023_v4-v1/2540000/b7cf89f4-ac94-400e-94fc-4400a3232652.root
/store/data/Run2023C/Tau/NANOAOD/22Sep2023_v4-v1/2540000/10043c62-4673-4d95-b698-07566a2048f2.root
/store/data/Run2023C/Tau/NANOAOD/22Sep2023_v4-v1/2530000/c25285b2-1f8a-4d24-a9a5-e119cf402f19.root
/store/data/Run2023C/Tau/NANOAOD/22Sep2023_v4-v1/2530000/9fbc7246-af43-49fe-b3b4-340f18f2d980.root
/store/data/Run2023C/Tau/NANOAOD/22Sep2023_v4-v1/2530000/8f737087-13ff-4d46-b740-323106793c0c.root
/store/data/Run2023C/Tau/NANOAOD/22Sep2023_v4-v1/30000/cf81ee52-16ec-4b80-874f-1072ec3ee94b.root
/store/data/Run2023C/Tau/NANOAOD/22Sep2023_v4-v1/30000/2f31592e-0eb7-45c9-ba5e-c6eea1013aab.root
/store/data/Run2023C/Tau/NANOAOD/22Sep2023_v4-v1/30000/e7cd5939-bc8e-4447-bfe2-54eee59ac0bc.root
/store/data/Run2023C/Tau/NANOAOD/22Sep2023_v4-v1/30000/1dd3c5b3-3e0a-4d7a-b7de-b199784efd7d.root
/store/data/Run2023C/Tau/NANOAOD/22Sep2023_v4-v1/30000/0773ff31-c0f5-483e-b639-a4cc22bbc8a6.root
/store/data/Run2023C/Tau/NANOAOD/22Sep2023_v4-v1/2530000/2bb9d110-c588-47e2-bc1b-ba24fa925f1c.root
/store/data/Run2023C/Tau/NANOAOD/22Sep2023_v4-v1/2530000/53c4cc04-65bb-4775-8494-224a65d8dbe2.root
/store/data/Run2023C/Tau/NANOAOD/22Sep2023_v4-v1/2530000/201547de-eecc-46b0-852a-b1dffa4c1578.root
/store/data/Run2023C/Tau/NANOAOD/22Sep2023_v4-v1/30000/0f27423c-cdf0-49b5-a9ad-9de0c1a4fce5.root
/store/data/Run2023C/Tau/NANOAOD/22Sep2023_v4-v1/30000/2e93c5c9-4765-4741-9645-a19aa7f8756a.root
/store/data/Run2023C/Tau/NANOAOD/22Sep2023_v4-v1/50000/d5dafc34-a971-43eb-a456-5f826bb2a6ff.root
/store/data/Run2023C/Tau/NANOAOD/22Sep2023_v4-v1/50000/a366fc99-2553-4d87-9edb-a3d789851548.root
/store/data/Run2023C/Tau/NANOAOD/22Sep2023_v4-v1/50000/bb9a52cd-3879-4b7f-8c48-71e09d396515.root
/store/data/Run2023C/Tau/NANOAOD/22Sep2023_v4-v1/50000/df2fffcd-9af1-415b-8faf-31c72f9de920.root
/store/data/Run2023C/Tau/NANOAOD/22Sep2023_v4-v1/50000/d7273ff3-6dee-4808-8b90-9953e919c0e0.root
/store/data/Run2023C/Tau/NANOAOD/22Sep2023_v4-v1/50000/2ad2fa24-61b3-4afa-8d05-76eaab7f0f7e.root
/store/data/Run2023C/Tau/NANOAOD/22Sep2023_v4-v1/50000/d25076f0-a8a0-47cf-94cf-9783efc98c60.root
/store/data/Run2023C/Tau/NANOAOD/22Sep2023_v4-v1/50000/32721b56-00bf-4fb1-8a4b-88bb25ef5f6a.root
/store/data/Run2023C/Tau/NANOAOD/22Sep2023_v4-v1/50000/92012f9a-f91d-43e8-bebd-1d06585a37a6.root
/store/data/Run2023C/Tau/NANOAOD/22Sep2023_v4-v1/50000/914638e6-1e62-498f-a41c-6cb3df550cf7.root
/store/data/Run2023C/Tau/NANOAOD/22Sep2023_v4-v1/50000/ba7c3983-85f9-49b3-b2c5-a1339e32812e.root
/store/data/Run2023C/Tau/NANOAOD/22Sep2023_v4-v1/50000/252cca47-116f-48ad-84e2-dbd1f76e5365.root
/store/data/Run2023C/Tau/NANOAOD/22Sep2023_v4-v1/50000/a62cc518-a813-44de-a0ac-60db4a5cdd3c.root
/store/data/Run2023C/Tau/NANOAOD/22Sep2023_v4-v1/50000/570ff92c-406b-4607-8864-78507fee507e.root
/store/data/Run2023C/Tau/NANOAOD/22Sep2023_v4-v1/50000/3f55c594-7fdc-4807-9812-0e6128c31b20.root
/store/data/Run2023C/Tau/NANOAOD/22Sep2023_v4-v1/50000/8abe36ed-a779-4a4d-85a1-d3607b4e29f1.root
/store/data/Run2023C/Tau/NANOAOD/22Sep2023_v4-v1/50000/ebf83cda-5b54-4c62-a44e-c899efcc3fca.root
/store/data/Run2023C/Tau/NANOAOD/22Sep2023_v4-v1/50000/5579b7c4-ab79-4db6-b724-47faa963af8d.root
/store/data/Run2023C/Tau/NANOAOD/22Sep2023_v4-v1/50000/4b22f1e8-fc38-486d-9292-9c5ee4a6a4cf.root