/store/mc/Run3Summer23NanoAODv13/VBFHHto2B2Tau_CV_1_C2V_1_C3_1_TuneCP5_13p6TeV_madgraph-pythia8/NANOAODSIM/133X_mcRun3_2023_realistic_ForNanov13_v1-v2/2530000/050d1060-ba5a-43e8-94f2-41e7306800f8.root
/store/mc/Run3Summer23NanoAODv13/VBFHHto2B2Tau_CV_1_C2V_1_C3_1_TuneCP5_13p6TeV_madgraph-pythia8/NANOAODSIM/133X_mcRun3_2023_realistic_ForNanov13_v1-v2/2530000/08c69b8d-1102-4416-99be-b284e466c44b.root
/store/mc/Run3Summer23NanoAODv13/VBFHHto2B2Tau_CV_1_C2V_1_C3_1_TuneCP5_13p6TeV_madgraph-pythia8/NANOAODSIM/133X_mcRun3_2023_realistic_ForNanov13_v1-v2/2530000/e2e02d8e-9abc-4f76-aadd-6fcc8acdbc44.root
/store/mc/Run3Summer23NanoAODv13/VBFHHto2B2Tau_CV_1_C2V_1_C3_1_TuneCP5_13p6TeV_madgraph-pythia8/NANOAODSIM/133X_mcRun3_2023_realistic_ForNanov13_v1-v2/2530000/7631bf82-31db-466a-af71-7995fef21121.root
/store/mc/Run3Summer23NanoAODv13/VBFHHto2B2Tau_CV_1_C2V_1_C3_1_TuneCP5_13p6TeV_madgraph-pythia8/NANOAODSIM/133X_mcRun3_2023_realistic_ForNanov13_v1-v2/2530000/8c32db37-85d8-4a5a-a0c1-36bcc96a0154.root
/store/mc/Run3Summer23NanoAODv13/VBFHHto2B2Tau_CV_1_C2V_1_C3_1_TuneCP5_13p6TeV_madgraph-pythia8/NANOAODSIM/133X_mcRun3_2023_realistic_ForNanov13_v1-v2/2530000/5b370a28-aa15-4245-aae1-13b61b98ede5.root
/store/mc/Run3Summer23NanoAODv13/VBFHHto2B2Tau_CV_1_C2V_1_C3_1_TuneCP5_13p6TeV_madgraph-pythia8/NANOAODSIM/133X_mcRun3_2023_realistic_ForNanov13_v1-v2/2530000/fb1d149e-7814-4886-ade8-5ef0964ca67f.root
/store/mc/Run3Summer23NanoAODv13/VBFHHto2B2Tau_CV_1_C2V_1_C3_1_TuneCP5_13p6TeV_madgraph-pythia8/NANOAODSIM/133X_mcRun3_2023_realistic_ForNanov13_v1-v2/2530000/24b5fdb5-3f16-4b0c-97a1-6b37cd12406a.root
/store/mc/Run3Summer23NanoAODv13/VBFHHto2B2Tau_CV_1_C2V_1_C3_1_TuneCP5_13p6TeV_madgraph-pythia8/NANOAODSIM/133X_mcRun3_2023_realistic_ForNanov13_v1-v2/2530000/439e8ece-4c57-466a-bcc7-d606470c313c.root
/store/mc/Run3Summer23NanoAODv13/VBFHHto2B2Tau_CV_1_C2V_1_C3_1_TuneCP5_13p6TeV_madgraph-pythia8/NANOAODSIM/133X_mcRun3_2023_realistic_ForNanov13_v1-v2/2530000/e3b07b4b-7a52-4655-a046-378ea2ed0e16.root
/store/mc/Run3Summer23NanoAODv13/VBFHHto2B2Tau_CV_1_C2V_1_C3_1_TuneCP5_13p6TeV_madgraph-pythia8/NANOAODSIM/133X_mcRun3_2023_realistic_ForNanov13_v1-v2/2530000/3e8023cc-30be-4d35-bc13-b4400c340017.root
/store/mc/Run3Summer23NanoAODv13/VBFHHto2B2Tau_CV_1_C2V_1_C3_1_TuneCP5_13p6TeV_madgraph-pythia8/NANOAODSIM/133X_mcRun3_2023_realistic_ForNanov13_v1-v2/2530000/49c45f0a-8e7e-4c60-b86d-0eecacbc440c.root
/store/mc/Run3Summer23NanoAODv13/VBFHHto2B2Tau_CV_1_C2V_1_C3_1_TuneCP5_13p6TeV_madgraph-pythia8/NANOAODSIM/133X_mcRun3_2023_realistic_ForNanov13_v1-v2/2530000/b022f24d-d2d7-4372-b63d-6d9e87fae981.root
/store/mc/Run3Summer23NanoAODv13/VBFHHto2B2Tau_CV_1_C2V_1_C3_1_TuneCP5_13p6TeV_madgraph-pythia8/NANOAODSIM/133X_mcRun3_2023_realistic_ForNanov13_v1-v2/2530000/8db4d062-f849-4583-922b-2e71f7f1de9e.root
/store/mc/Run3Summer23NanoAODv13/VBFHHto2B2Tau_CV_1_C2V_1_C3_1_TuneCP5_13p6TeV_madgraph-pythia8/NANOAODSIM/133X_mcRun3_2023_realistic_ForNanov13_v1-v2/2530000/75f19a23-a9dc-4193-b527-73dfaab3e1e3.root
/store/mc/Run3Summer23NanoAODv13/VBFHHto2B2Tau_CV_1_C2V_1_C3_1_TuneCP5_13p6TeV_madgraph-pythia8/NANOAODSIM/133X_mcRun3_2023_realistic_ForNanov13_v1-v2/2530000/f2bf5fcb-093e-45c7-b7aa-e832d37524e3.root
/store/mc/Run3Summer23NanoAODv13/VBFHHto2B2Tau_CV_1_C2V_1_C3_1_TuneCP5_13p6TeV_madgraph-pythia8/NANOAODSIM/133X_mcRun3_2023_realistic_ForNanov13_v1-v2/2530000/7556abb6-6294-4b1f-87f4-5c6d4f9ad401.root
/store/mc/Run3Summer23NanoAODv13/VBFHHto2B2Tau_CV_1_C2V_1_C3_1_TuneCP5_13p6TeV_madgraph-pythia8/NANOAODSIM/133X_mcRun3_2023_realistic_ForNanov13_v1-v2/2530000/8a955ac9-9a54-4676-8fab-f1c651ef8393.root
/store/mc/Run3Summer23NanoAODv13/VBFHHto2B2Tau_CV_1_C2V_1_C3_1_TuneCP5_13p6TeV_madgraph-pythia8/NANOAODSIM/133X_mcRun3_2023_realistic_ForNanov13_v1-v2/2530000/84bc6925-bfa8-45b1-99b4-b866e8570de3.root
/store/mc/Run3Summer23NanoAODv13/VBFHHto2B2Tau_CV_1_C2V_1_C3_1_TuneCP5_13p6TeV_madgraph-pythia8/NANOAODSIM/133X_mcRun3_2023_realistic_ForNanov13_v1-v2/2530000/89499b20-003e-41a1-aaca-fe027d602ef2.root
/store/mc/Run3Summer23NanoAODv13/VBFHHto2B2Tau_CV_1_C2V_1_C3_1_TuneCP5_13p6TeV_madgraph-pythia8/NANOAODSIM/133X_mcRun3_2023_realistic_ForNanov13_v1-v2/2530000/d22dc2aa-1421-4774-b2ab-5e0a901deb65.root
/store/mc/Run3Summer23NanoAODv13/VBFHHto2B2Tau_CV_1_C2V_1_C3_1_TuneCP5_13p6TeV_madgraph-pythia8/NANOAODSIM/133X_mcRun3_2023_realistic_ForNanov13_v1-v2/2530000/d8dda666-f08b-4680-884c-bc17deaec8c6.root
/store/mc/Run3Summer23NanoAODv13/VBFHHto2B2Tau_CV_1_C2V_1_C3_1_TuneCP5_13p6TeV_madgraph-pythia8/NANOAODSIM/133X_mcRun3_2023_realistic_ForNanov13_v1-v2/2530000/1dcfe67d-0eae-4fd1-a412-7288d71e944c.root
/store/mc/Run3Summer23NanoAODv13/VBFHHto2B2Tau_CV_1_C2V_1_C3_1_TuneCP5_13p6TeV_madgraph-pythia8/NANOAODSIM/133X_mcRun3_2023_realistic_ForNanov13_v1-v2/2530000/42c25e74-2395-4077-8195-782a0eeedfa9.root
/store/mc/Run3Summer23NanoAODv13/VBFHHto2B2Tau_CV_1_C2V_1_C3_1_TuneCP5_13p6TeV_madgraph-pythia8/NANOAODSIM/133X_mcRun3_2023_realistic_ForNanov13_v1-v2/2530000/9a235987-6401-44aa-8e4e-46e59e9f4d21.root
/store/mc/Run3Summer23NanoAODv13/VBFHHto2B2Tau_CV_1_C2V_1_C3_1_TuneCP5_13p6TeV_madgraph-pythia8/NANOAODSIM/133X_mcRun3_2023_realistic_ForNanov13_v1-v2/2530000/9a2cbc31-23e3-4886-a8c5-2c7df8d744b4.root
/store/mc/Run3Summer23NanoAODv13/VBFHHto2B2Tau_CV_1_C2V_1_C3_1_TuneCP5_13p6TeV_madgraph-pythia8/NANOAODSIM/133X_mcRun3_2023_realistic_ForNanov13_v1-v2/2530000/027de9c4-12a4-4d86-b322-aeae324b31ff.root
/store/mc/Run3Summer23NanoAODv13/VBFHHto2B2Tau_CV_1_C2V_1_C3_1_TuneCP5_13p6TeV_madgraph-pythia8/NANOAODSIM/133X_mcRun3_2023_realistic_ForNanov13_v1-v2/2530000/1d29e815-4910-4762-8dac-94cbf71a7091.root
/store/mc/Run3Summer23NanoAODv13/VBFHHto2B2Tau_CV_1_C2V_1_C3_1_TuneCP5_13p6TeV_madgraph-pythia8/NANOAODSIM/133X_mcRun3_2023_realistic_ForNanov13_v1-v2/2530000/13a405eb-63bd-4f38-9ce1-4e858f8385a1.root
/store/mc/Run3Summer23NanoAODv13/VBFHHto2B2Tau_CV_1_C2V_1_C3_1_TuneCP5_13p6TeV_madgraph-pythia8/NANOAODSIM/133X_mcRun3_2023_realistic_ForNanov13_v1-v2/2530000/246d24b0-c220-40dd-a1ab-a0f986f74d52.root
/store/mc/Run3Summer23NanoAODv13/VBFHHto2B2Tau_CV_1_C2V_1_C3_1_TuneCP5_13p6TeV_madgraph-pythia8/NANOAODSIM/133X_mcRun3_2023_realistic_ForNanov13_v1-v2/2530000/0b4d8294-2fa0-4695-b369-d7dc0f72d83b.root