/store/mc/Run3Summer23NanoAODv12/WtoLNu-2Jets_PTLNu-100to200_2J_TuneCP5_13p6TeV_amcatnloFXFX-pythia8/NANOAODSIM/130X_mcRun3_2023_realistic_v14-v3/40000/b909784a-8e0c-4747-9cf0-621e85d20bb5.root
/store/mc/Run3Summer23NanoAODv12/WtoLNu-2Jets_PTLNu-100to200_2J_TuneCP5_13p6TeV_amcatnloFXFX-pythia8/NANOAODSIM/130X_mcRun3_2023_realistic_v14-v3/40000/8ec3e07d-7286-4305-ba72-2e4bb63037c5.root
/store/mc/Run3Summer23NanoAODv12/WtoLNu-2Jets_PTLNu-100to200_2J_TuneCP5_13p6TeV_amcatnloFXFX-pythia8/NANOAODSIM/130X_mcRun3_2023_realistic_v14-v3/40000/a3f42f71-d29e-4b98-a0b7-9fc6b508dc2f.root
/store/mc/Run3Summer23NanoAODv12/WtoLNu-2Jets_PTLNu-100to200_2J_TuneCP5_13p6TeV_amcatnloFXFX-pythia8/NANOAODSIM/130X_mcRun3_2023_realistic_v14-v3/40000/35116cfa-46c4-4b97-9285-31ec1bb71838.root
/store/mc/Run3Summer23NanoAODv12/WtoLNu-2Jets_PTLNu-100to200_2J_TuneCP5_13p6TeV_amcatnloFXFX-pythia8/NANOAODSIM/130X_mcRun3_2023_realistic_v14-v3/40000/24202251-6d16-4079-9498-8b11d43ed55c.root
/store/mc/Run3Summer23NanoAODv12/WtoLNu-2Jets_PTLNu-100to200_2J_TuneCP5_13p6TeV_amcatnloFXFX-pythia8/NANOAODSIM/130X_mcRun3_2023_realistic_v14-v3/40000/b568ef42-d0c8-4746-b094-3f8dba93e828.root
/store/mc/Run3Summer23NanoAODv12/WtoLNu-2Jets_PTLNu-100to200_2J_TuneCP5_13p6TeV_amcatnloFXFX-pythia8/NANOAODSIM/130X_mcRun3_2023_realistic_v14-v3/40000/f78ec298-90a1-4af1-92bc-48dcc7b9a137.root
/store/mc/Run3Summer23NanoAODv12/WtoLNu-2Jets_PTLNu-100to200_2J_TuneCP5_13p6TeV_amcatnloFXFX-pythia8/NANOAODSIM/130X_mcRun3_2023_realistic_v14-v3/40000/b37637ac-6574-4947-a329-deb71cd30835.root
/store/mc/Run3Summer23NanoAODv12/WtoLNu-2Jets_PTLNu-100to200_2J_TuneCP5_13p6TeV_amcatnloFXFX-pythia8/NANOAODSIM/130X_mcRun3_2023_realistic_v14-v3/40000/d654f626-e0f9-40a0-892a-7f88d562714c.root
/store/mc/Run3Summer23NanoAODv12/WtoLNu-2Jets_PTLNu-100to200_2J_TuneCP5_13p6TeV_amcatnloFXFX-pythia8/NANOAODSIM/130X_mcRun3_2023_realistic_v14-v3/40000/c056b792-173f-4c1f-8abf-7a769d8fae62.root
/store/mc/Run3Summer23NanoAODv12/WtoLNu-2Jets_PTLNu-100to200_2J_TuneCP5_13p6TeV_amcatnloFXFX-pythia8/NANOAODSIM/130X_mcRun3_2023_realistic_v14-v3/40000/c4303bb8-1197-4209-bb95-4ab4f47c1b11.root
/store/mc/Run3Summer23NanoAODv12/WtoLNu-2Jets_PTLNu-100to200_2J_TuneCP5_13p6TeV_amcatnloFXFX-pythia8/NANOAODSIM/130X_mcRun3_2023_realistic_v14-v3/40000/99e26546-ba8d-4dfe-9bf8-41e0ee70f686.root
/store/mc/Run3Summer23NanoAODv12/WtoLNu-2Jets_PTLNu-100to200_2J_TuneCP5_13p6TeV_amcatnloFXFX-pythia8/NANOAODSIM/130X_mcRun3_2023_realistic_v14-v3/40000/b3fc41ca-3cdb-4a77-8426-88aa4b97d5a9.root
/store/mc/Run3Summer23NanoAODv12/WtoLNu-2Jets_PTLNu-100to200_2J_TuneCP5_13p6TeV_amcatnloFXFX-pythia8/NANOAODSIM/130X_mcRun3_2023_realistic_v14-v3/40000/c986a163-b8c9-4aa6-bf54-bd79746f69c4.root
/store/mc/Run3Summer23NanoAODv12/WtoLNu-2Jets_PTLNu-100to200_2J_TuneCP5_13p6TeV_amcatnloFXFX-pythia8/NANOAODSIM/130X_mcRun3_2023_realistic_v14-v3/40000/d0080cc1-f358-4596-bcec-cab9c098cc9b.root
/store/mc/Run3Summer23NanoAODv12/WtoLNu-2Jets_PTLNu-100to200_2J_TuneCP5_13p6TeV_amcatnloFXFX-pythia8/NANOAODSIM/130X_mcRun3_2023_realistic_v14-v3/40000/ad03f46c-e7b5-4b1c-8f48-6aa57595dde8.root
/store/mc/Run3Summer23NanoAODv12/WtoLNu-2Jets_PTLNu-100to200_2J_TuneCP5_13p6TeV_amcatnloFXFX-pythia8/NANOAODSIM/130X_mcRun3_2023_realistic_v14-v3/40000/0b16c341-0ac8-419a-8de6-5315521fead8.root
/store/mc/Run3Summer23NanoAODv12/WtoLNu-2Jets_PTLNu-100to200_2J_TuneCP5_13p6TeV_amcatnloFXFX-pythia8/NANOAODSIM/130X_mcRun3_2023_realistic_v14-v3/40000/e995186f-d317-4f08-9fa6-7f41fb7d1a96.root
/store/mc/Run3Summer23NanoAODv12/WtoLNu-2Jets_PTLNu-100to200_2J_TuneCP5_13p6TeV_amcatnloFXFX-pythia8/NANOAODSIM/130X_mcRun3_2023_realistic_v14-v3/40000/ba8a3416-6c5c-4f7b-b553-84ec8d29e093.root
/store/mc/Run3Summer23NanoAODv12/WtoLNu-2Jets_PTLNu-100to200_2J_TuneCP5_13p6TeV_amcatnloFXFX-pythia8/NANOAODSIM/130X_mcRun3_2023_realistic_v14-v3/40000/332b0a6c-d356-4854-ba9d-89542c59604f.root
/store/mc/Run3Summer23NanoAODv12/WtoLNu-2Jets_PTLNu-100to200_2J_TuneCP5_13p6TeV_amcatnloFXFX-pythia8/NANOAODSIM/130X_mcRun3_2023_realistic_v14-v3/40000/989be1aa-e938-4de3-8675-8f1e516b9d7d.root
/store/mc/Run3Summer23NanoAODv12/WtoLNu-2Jets_PTLNu-100to200_2J_TuneCP5_13p6TeV_amcatnloFXFX-pythia8/NANOAODSIM/130X_mcRun3_2023_realistic_v14-v3/40000/8a1ddc47-4755-4212-b0f5-47ebe94b4a60.root
/store/mc/Run3Summer23NanoAODv12/WtoLNu-2Jets_PTLNu-100to200_2J_TuneCP5_13p6TeV_amcatnloFXFX-pythia8/NANOAODSIM/130X_mcRun3_2023_realistic_v14-v3/40000/a3b31488-8f80-4edb-b1e5-c40d40e1a5fe.root
/store/mc/Run3Summer23NanoAODv12/WtoLNu-2Jets_PTLNu-100to200_2J_TuneCP5_13p6TeV_amcatnloFXFX-pythia8/NANOAODSIM/130X_mcRun3_2023_realistic_v14-v3/40000/34059484-5f91-4739-aeb4-4d838edd7eb7.root
/store/mc/Run3Summer23NanoAODv12/WtoLNu-2Jets_PTLNu-100to200_2J_TuneCP5_13p6TeV_amcatnloFXFX-pythia8/NANOAODSIM/130X_mcRun3_2023_realistic_v14-v3/40000/65d5142e-4c63-43de-8d46-4ad0a78e4eec.root
/store/mc/Run3Summer23NanoAODv12/WtoLNu-2Jets_PTLNu-100to200_2J_TuneCP5_13p6TeV_amcatnloFXFX-pythia8/NANOAODSIM/130X_mcRun3_2023_realistic_v14-v3/40000/9fae9c33-4094-4179-baad-2b11850596ed.root
/store/mc/Run3Summer23NanoAODv12/WtoLNu-2Jets_PTLNu-100to200_2J_TuneCP5_13p6TeV_amcatnloFXFX-pythia8/NANOAODSIM/130X_mcRun3_2023_realistic_v14-v3/30000/e5b49b2f-5533-46e3-8c8c-bc4814224673.root
/store/mc/Run3Summer23NanoAODv12/WtoLNu-2Jets_PTLNu-100to200_2J_TuneCP5_13p6TeV_amcatnloFXFX-pythia8/NANOAODSIM/130X_mcRun3_2023_realistic_v14-v3/30000/744112f5-dcc4-4cb6-a240-f86d4a832072.root
/store/mc/Run3Summer23NanoAODv12/WtoLNu-2Jets_PTLNu-100to200_2J_TuneCP5_13p6TeV_amcatnloFXFX-pythia8/NANOAODSIM/130X_mcRun3_2023_realistic_v14-v3/30000/1b86a02a-d5ba-4735-b443-64bd8dabd902.root
/store/mc/Run3Summer23NanoAODv12/WtoLNu-2Jets_PTLNu-100to200_2J_TuneCP5_13p6TeV_amcatnloFXFX-pythia8/NANOAODSIM/130X_mcRun3_2023_realistic_v14-v3/30000/157fdad1-9e3b-4e44-ad67-c73cae588aee.root
/store/mc/Run3Summer23NanoAODv12/WtoLNu-2Jets_PTLNu-100to200_2J_TuneCP5_13p6TeV_amcatnloFXFX-pythia8/NANOAODSIM/130X_mcRun3_2023_realistic_v14-v3/30000/ba038621-465d-4d9f-ad6a-ef4053badcf2.root
/store/mc/Run3Summer23NanoAODv12/WtoLNu-2Jets_PTLNu-100to200_2J_TuneCP5_13p6TeV_amcatnloFXFX-pythia8/NANOAODSIM/130X_mcRun3_2023_realistic_v14-v3/40000/874ad146-b219-4b40-9d30-31b8952ca4c5.root
/store/mc/Run3Summer23NanoAODv12/WtoLNu-2Jets_PTLNu-100to200_2J_TuneCP5_13p6TeV_amcatnloFXFX-pythia8/NANOAODSIM/130X_mcRun3_2023_realistic_v14-v3/40000/d19811e4-ac3d-444e-8494-d6fa5fbc33ce.root
/store/mc/Run3Summer23NanoAODv12/WtoLNu-2Jets_PTLNu-100to200_2J_TuneCP5_13p6TeV_amcatnloFXFX-pythia8/NANOAODSIM/130X_mcRun3_2023_realistic_v14-v3/40000/c8374ac6-9390-48f5-9614-df74ed2381cc.root
/store/mc/Run3Summer23NanoAODv12/WtoLNu-2Jets_PTLNu-100to200_2J_TuneCP5_13p6TeV_amcatnloFXFX-pythia8/NANOAODSIM/130X_mcRun3_2023_realistic_v14-v3/40000/aa2215c1-fe0c-4f47-818d-44508bf8c539.root
/store/mc/Run3Summer23NanoAODv12/WtoLNu-2Jets_PTLNu-100to200_2J_TuneCP5_13p6TeV_amcatnloFXFX-pythia8/NANOAODSIM/130X_mcRun3_2023_realistic_v14-v3/40000/6a610122-94fb-4221-8656-f73b85aa7367.root
/store/mc/Run3Summer23NanoAODv12/WtoLNu-2Jets_PTLNu-100to200_2J_TuneCP5_13p6TeV_amcatnloFXFX-pythia8/NANOAODSIM/130X_mcRun3_2023_realistic_v14-v3/40000/89d87d2a-aa3a-4de6-bc5b-ac31b17975c1.root
/store/mc/Run3Summer23NanoAODv12/WtoLNu-2Jets_PTLNu-100to200_2J_TuneCP5_13p6TeV_amcatnloFXFX-pythia8/NANOAODSIM/130X_mcRun3_2023_realistic_v14-v3/2820000/b2012676-7f18-4b7f-99c4-0076c1ee7fea.root
/store/mc/Run3Summer23NanoAODv12/WtoLNu-2Jets_PTLNu-100to200_2J_TuneCP5_13p6TeV_amcatnloFXFX-pythia8/NANOAODSIM/130X_mcRun3_2023_realistic_v14-v3/2820000/9be1f6fa-84b3-42f7-9202-ed68215e0b83.root
/store/mc/Run3Summer23NanoAODv12/WtoLNu-2Jets_PTLNu-100to200_2J_TuneCP5_13p6TeV_amcatnloFXFX-pythia8/NANOAODSIM/130X_mcRun3_2023_realistic_v14-v3/2820000/08969cb6-97fd-499c-86b1-5f6f1811cf26.root
/store/mc/Run3Summer23NanoAODv12/WtoLNu-2Jets_PTLNu-100to200_2J_TuneCP5_13p6TeV_amcatnloFXFX-pythia8/NANOAODSIM/130X_mcRun3_2023_realistic_v14-v3/2820000/1cfd7e57-0b2b-4751-b010-dab1eccdc5a0.root
/store/mc/Run3Summer23NanoAODv12/WtoLNu-2Jets_PTLNu-100to200_2J_TuneCP5_13p6TeV_amcatnloFXFX-pythia8/NANOAODSIM/130X_mcRun3_2023_realistic_v14-v3/2820000/3f16f45b-5bf2-42c5-a1bd-905c6ac70d6c.root
/store/mc/Run3Summer23NanoAODv12/WtoLNu-2Jets_PTLNu-100to200_2J_TuneCP5_13p6TeV_amcatnloFXFX-pythia8/NANOAODSIM/130X_mcRun3_2023_realistic_v14-v3/2820000/ba3393a6-58c8-4f9f-a505-6c55a2770dbb.root
/store/mc/Run3Summer23NanoAODv12/WtoLNu-2Jets_PTLNu-100to200_2J_TuneCP5_13p6TeV_amcatnloFXFX-pythia8/NANOAODSIM/130X_mcRun3_2023_realistic_v14-v3/2820000/34b0eb99-5e8f-4d5a-a6a8-cb85eee6c129.root
/store/mc/Run3Summer23NanoAODv12/WtoLNu-2Jets_PTLNu-100to200_2J_TuneCP5_13p6TeV_amcatnloFXFX-pythia8/NANOAODSIM/130X_mcRun3_2023_realistic_v14-v3/2820000/962949d8-0f44-4aa9-84b4-24a185bea91e.root
/store/mc/Run3Summer23NanoAODv12/WtoLNu-2Jets_PTLNu-100to200_2J_TuneCP5_13p6TeV_amcatnloFXFX-pythia8/NANOAODSIM/130X_mcRun3_2023_realistic_v14-v3/2820000/1ee9ac73-66a0-4382-9276-0a406fcf2814.root
/store/mc/Run3Summer23NanoAODv12/WtoLNu-2Jets_PTLNu-100to200_2J_TuneCP5_13p6TeV_amcatnloFXFX-pythia8/NANOAODSIM/130X_mcRun3_2023_realistic_v14-v3/2820000/17c0bb6c-260b-4e26-90c3-e1068ce3da75.root
/store/mc/Run3Summer23NanoAODv12/WtoLNu-2Jets_PTLNu-100to200_2J_TuneCP5_13p6TeV_amcatnloFXFX-pythia8/NANOAODSIM/130X_mcRun3_2023_realistic_v14-v3/2820000/285927a4-273c-4ce2-9df7-fa164c573b85.root
/store/mc/Run3Summer23NanoAODv12/WtoLNu-2Jets_PTLNu-100to200_2J_TuneCP5_13p6TeV_amcatnloFXFX-pythia8/NANOAODSIM/130X_mcRun3_2023_realistic_v14-v3/2820000/bc4603e4-2edb-42b1-a770-fbe5ac67f64e.root
/store/mc/Run3Summer23NanoAODv12/WtoLNu-2Jets_PTLNu-100to200_2J_TuneCP5_13p6TeV_amcatnloFXFX-pythia8/NANOAODSIM/130X_mcRun3_2023_realistic_v14-v3/2820000/de1a9ecb-0aa2-4ad0-aa16-a9d96dc4aee6.root
/store/mc/Run3Summer23NanoAODv12/WtoLNu-2Jets_PTLNu-100to200_2J_TuneCP5_13p6TeV_amcatnloFXFX-pythia8/NANOAODSIM/130X_mcRun3_2023_realistic_v14-v3/2820000/e749bc96-0501-4e24-8f87-f3742438f62b.root
/store/mc/Run3Summer23NanoAODv12/WtoLNu-2Jets_PTLNu-100to200_2J_TuneCP5_13p6TeV_amcatnloFXFX-pythia8/NANOAODSIM/130X_mcRun3_2023_realistic_v14-v3/2820000/25a30e38-b147-4fcb-8b40-acc87996cb04.root
/store/mc/Run3Summer23NanoAODv12/WtoLNu-2Jets_PTLNu-100to200_2J_TuneCP5_13p6TeV_amcatnloFXFX-pythia8/NANOAODSIM/130X_mcRun3_2023_realistic_v14-v3/2820000/f74774ee-809e-4b85-b64d-745debfb75e2.root
/store/mc/Run3Summer23NanoAODv12/WtoLNu-2Jets_PTLNu-100to200_2J_TuneCP5_13p6TeV_amcatnloFXFX-pythia8/NANOAODSIM/130X_mcRun3_2023_realistic_v14-v3/2820000/3036f313-06ba-4648-9e25-de944b2c3a5f.root
/store/mc/Run3Summer23NanoAODv12/WtoLNu-2Jets_PTLNu-100to200_2J_TuneCP5_13p6TeV_amcatnloFXFX-pythia8/NANOAODSIM/130X_mcRun3_2023_realistic_v14-v3/2820000/215da1b4-c864-4d78-b45c-993eae4933ac.root
/store/mc/Run3Summer23NanoAODv12/WtoLNu-2Jets_PTLNu-100to200_2J_TuneCP5_13p6TeV_amcatnloFXFX-pythia8/NANOAODSIM/130X_mcRun3_2023_realistic_v14-v3/2820000/f05d7299-b53c-4769-a517-763f2ce3c385.root
/store/mc/Run3Summer23NanoAODv12/WtoLNu-2Jets_PTLNu-100to200_2J_TuneCP5_13p6TeV_amcatnloFXFX-pythia8/NANOAODSIM/130X_mcRun3_2023_realistic_v14-v3/2820000/ab368a46-dfdd-42ab-b7cf-719e336715fb.root
/store/mc/Run3Summer23NanoAODv12/WtoLNu-2Jets_PTLNu-100to200_2J_TuneCP5_13p6TeV_amcatnloFXFX-pythia8/NANOAODSIM/130X_mcRun3_2023_realistic_v14-v3/2820000/0e6e030e-4b09-4f02-8c53-0a322f4f3447.root
/store/mc/Run3Summer23NanoAODv12/WtoLNu-2Jets_PTLNu-100to200_2J_TuneCP5_13p6TeV_amcatnloFXFX-pythia8/NANOAODSIM/130X_mcRun3_2023_realistic_v14-v3/2820000/58b420a2-398e-472f-8e65-9472fa08c548.root
/store/mc/Run3Summer23NanoAODv12/WtoLNu-2Jets_PTLNu-100to200_2J_TuneCP5_13p6TeV_amcatnloFXFX-pythia8/NANOAODSIM/130X_mcRun3_2023_realistic_v14-v3/2820000/d58e99ce-545a-4007-921b-42b4a269455a.root
/store/mc/Run3Summer23NanoAODv12/WtoLNu-2Jets_PTLNu-100to200_2J_TuneCP5_13p6TeV_amcatnloFXFX-pythia8/NANOAODSIM/130X_mcRun3_2023_realistic_v14-v3/2820000/94b9ddaf-ad03-4a59-8d7d-91f6f0183fce.root
/store/mc/Run3Summer23NanoAODv12/WtoLNu-2Jets_PTLNu-100to200_2J_TuneCP5_13p6TeV_amcatnloFXFX-pythia8/NANOAODSIM/130X_mcRun3_2023_realistic_v14-v3/2820000/ec0bb3f6-3e09-40b7-8fc8-8740b7dc3c48.root
/store/mc/Run3Summer23NanoAODv12/WtoLNu-2Jets_PTLNu-100to200_2J_TuneCP5_13p6TeV_amcatnloFXFX-pythia8/NANOAODSIM/130X_mcRun3_2023_realistic_v14-v3/2820000/62ae79da-2c86-438b-93e7-5963b3155216.root
/store/mc/Run3Summer23NanoAODv12/WtoLNu-2Jets_PTLNu-100to200_2J_TuneCP5_13p6TeV_amcatnloFXFX-pythia8/NANOAODSIM/130X_mcRun3_2023_realistic_v14-v3/2820000/9c696285-40d1-425a-84fd-dfbe48f74646.root
/store/mc/Run3Summer23NanoAODv12/WtoLNu-2Jets_PTLNu-100to200_2J_TuneCP5_13p6TeV_amcatnloFXFX-pythia8/NANOAODSIM/130X_mcRun3_2023_realistic_v14-v3/30000/c402814f-5208-4908-84c3-4d5d78457ab9.root
/store/mc/Run3Summer23NanoAODv12/WtoLNu-2Jets_PTLNu-100to200_2J_TuneCP5_13p6TeV_amcatnloFXFX-pythia8/NANOAODSIM/130X_mcRun3_2023_realistic_v14-v3/30000/0445c826-69c9-4105-bdf8-3bad4144aa78.root
/store/mc/Run3Summer23NanoAODv12/WtoLNu-2Jets_PTLNu-100to200_2J_TuneCP5_13p6TeV_amcatnloFXFX-pythia8/NANOAODSIM/130X_mcRun3_2023_realistic_v14-v3/30000/0e190198-5644-4911-b11d-8a229cf497c0.root
/store/mc/Run3Summer23NanoAODv12/WtoLNu-2Jets_PTLNu-100to200_2J_TuneCP5_13p6TeV_amcatnloFXFX-pythia8/NANOAODSIM/130X_mcRun3_2023_realistic_v14-v3/2820000/80b148e5-ef8f-4623-93b2-ff37122912ae.root
/store/mc/Run3Summer23NanoAODv12/WtoLNu-2Jets_PTLNu-100to200_2J_TuneCP5_13p6TeV_amcatnloFXFX-pythia8/NANOAODSIM/130X_mcRun3_2023_realistic_v14-v3/2820000/c25154b3-bb98-4b49-8869-4b59de0b64bc.root
/store/mc/Run3Summer23NanoAODv12/WtoLNu-2Jets_PTLNu-100to200_2J_TuneCP5_13p6TeV_amcatnloFXFX-pythia8/NANOAODSIM/130X_mcRun3_2023_realistic_v14-v3/2820000/13ab2bf3-b9ae-472c-9fd3-4c769860d2cb.root
/store/mc/Run3Summer23NanoAODv12/WtoLNu-2Jets_PTLNu-100to200_2J_TuneCP5_13p6TeV_amcatnloFXFX-pythia8/NANOAODSIM/130X_mcRun3_2023_realistic_v14-v3/2820000/65b13456-3ed9-4419-9e48-8df895a56063.root
/store/mc/Run3Summer23NanoAODv12/WtoLNu-2Jets_PTLNu-100to200_2J_TuneCP5_13p6TeV_amcatnloFXFX-pythia8/NANOAODSIM/130X_mcRun3_2023_realistic_v14-v3/30000/838e8575-11d4-4d46-bf68-5cd549fdcf07.root
/store/mc/Run3Summer23NanoAODv12/WtoLNu-2Jets_PTLNu-100to200_2J_TuneCP5_13p6TeV_amcatnloFXFX-pythia8/NANOAODSIM/130X_mcRun3_2023_realistic_v14-v3/30000/f92c0775-8c44-4a4c-b741-04671358438e.root
/store/mc/Run3Summer23NanoAODv12/WtoLNu-2Jets_PTLNu-100to200_2J_TuneCP5_13p6TeV_amcatnloFXFX-pythia8/NANOAODSIM/130X_mcRun3_2023_realistic_v14-v3/30000/d439866a-5f1f-4db4-bfb9-30ed90f06cff.root
/store/mc/Run3Summer23NanoAODv12/WtoLNu-2Jets_PTLNu-100to200_2J_TuneCP5_13p6TeV_amcatnloFXFX-pythia8/NANOAODSIM/130X_mcRun3_2023_realistic_v14-v3/30000/d25d5feb-4e22-4752-b77b-38f9074deac7.root
/store/mc/Run3Summer23NanoAODv12/WtoLNu-2Jets_PTLNu-100to200_2J_TuneCP5_13p6TeV_amcatnloFXFX-pythia8/NANOAODSIM/130X_mcRun3_2023_realistic_v14-v3/30000/d2336c1e-e0e7-4155-8d93-db0dc361e520.root
/store/mc/Run3Summer23NanoAODv12/WtoLNu-2Jets_PTLNu-100to200_2J_TuneCP5_13p6TeV_amcatnloFXFX-pythia8/NANOAODSIM/130X_mcRun3_2023_realistic_v14-v3/30000/f88c4b61-5784-4993-bf72-3570172a1114.root
/store/mc/Run3Summer23NanoAODv12/WtoLNu-2Jets_PTLNu-100to200_2J_TuneCP5_13p6TeV_amcatnloFXFX-pythia8/NANOAODSIM/130X_mcRun3_2023_realistic_v14-v3/40000/3db5d7ed-cdd2-4ba9-ac70-937377612d49.root
/store/mc/Run3Summer23NanoAODv12/WtoLNu-2Jets_PTLNu-100to200_2J_TuneCP5_13p6TeV_amcatnloFXFX-pythia8/NANOAODSIM/130X_mcRun3_2023_realistic_v14-v3/40000/daa72c3b-c287-4737-ac61-e39b5d1dda0f.root
/store/mc/Run3Summer23NanoAODv12/WtoLNu-2Jets_PTLNu-100to200_2J_TuneCP5_13p6TeV_amcatnloFXFX-pythia8/NANOAODSIM/130X_mcRun3_2023_realistic_v14-v3/40000/113eca9d-4e06-439d-b93f-cf8725b03cd2.root
/store/mc/Run3Summer23NanoAODv12/WtoLNu-2Jets_PTLNu-100to200_2J_TuneCP5_13p6TeV_amcatnloFXFX-pythia8/NANOAODSIM/130X_mcRun3_2023_realistic_v14-v3/40000/6e17615d-d6da-48d7-ba1d-bbf076fa0910.root
/store/mc/Run3Summer23NanoAODv12/WtoLNu-2Jets_PTLNu-100to200_2J_TuneCP5_13p6TeV_amcatnloFXFX-pythia8/NANOAODSIM/130X_mcRun3_2023_realistic_v14-v3/30000/8ac76c9f-b897-4893-883a-649f78b8408a.root
/store/mc/Run3Summer23NanoAODv12/WtoLNu-2Jets_PTLNu-100to200_2J_TuneCP5_13p6TeV_amcatnloFXFX-pythia8/NANOAODSIM/130X_mcRun3_2023_realistic_v14-v3/30000/2d4b8c46-8716-4587-a669-09430fdb72f9.root
/store/mc/Run3Summer23NanoAODv12/WtoLNu-2Jets_PTLNu-100to200_2J_TuneCP5_13p6TeV_amcatnloFXFX-pythia8/NANOAODSIM/130X_mcRun3_2023_realistic_v14-v3/30000/a051c2f1-cdf1-41d5-99e1-3ae93552d85e.root
/store/mc/Run3Summer23NanoAODv12/WtoLNu-2Jets_PTLNu-100to200_2J_TuneCP5_13p6TeV_amcatnloFXFX-pythia8/NANOAODSIM/130X_mcRun3_2023_realistic_v14-v3/30000/f6ab6c54-01c7-4f91-a5ca-1802b1b00928.root
/store/mc/Run3Summer23NanoAODv12/WtoLNu-2Jets_PTLNu-100to200_2J_TuneCP5_13p6TeV_amcatnloFXFX-pythia8/NANOAODSIM/130X_mcRun3_2023_realistic_v14-v3/40000/37dd04c0-4990-42df-a14f-ec673756b563.root
/store/mc/Run3Summer23NanoAODv12/WtoLNu-2Jets_PTLNu-100to200_2J_TuneCP5_13p6TeV_amcatnloFXFX-pythia8/NANOAODSIM/130X_mcRun3_2023_realistic_v14-v3/40000/3183e2a2-7665-4592-b1ee-8e9c49e4a064.root
/store/mc/Run3Summer23NanoAODv12/WtoLNu-2Jets_PTLNu-100to200_2J_TuneCP5_13p6TeV_amcatnloFXFX-pythia8/NANOAODSIM/130X_mcRun3_2023_realistic_v14-v3/40000/e147c343-496b-4f4b-8f0a-f35e247aaa06.root
/store/mc/Run3Summer23NanoAODv12/WtoLNu-2Jets_PTLNu-100to200_2J_TuneCP5_13p6TeV_amcatnloFXFX-pythia8/NANOAODSIM/130X_mcRun3_2023_realistic_v14-v3/40000/ea31a760-0b0e-4d91-b869-4c7dea4782da.root
/store/mc/Run3Summer23NanoAODv12/WtoLNu-2Jets_PTLNu-100to200_2J_TuneCP5_13p6TeV_amcatnloFXFX-pythia8/NANOAODSIM/130X_mcRun3_2023_realistic_v14-v3/40000/16b937a0-ee95-4850-8a93-47d1671662dd.root
/store/mc/Run3Summer23NanoAODv12/WtoLNu-2Jets_PTLNu-100to200_2J_TuneCP5_13p6TeV_amcatnloFXFX-pythia8/NANOAODSIM/130X_mcRun3_2023_realistic_v14-v3/30000/278c512f-17e6-4299-a0e1-703e5dc7d409.root
/store/mc/Run3Summer23NanoAODv12/WtoLNu-2Jets_PTLNu-100to200_2J_TuneCP5_13p6TeV_amcatnloFXFX-pythia8/NANOAODSIM/130X_mcRun3_2023_realistic_v14-v3/30000/44b12c98-0a82-4d4e-b9c8-4b970f7bbd47.root
/store/mc/Run3Summer23NanoAODv12/WtoLNu-2Jets_PTLNu-100to200_2J_TuneCP5_13p6TeV_amcatnloFXFX-pythia8/NANOAODSIM/130X_mcRun3_2023_realistic_v14-v3/30000/fdd9cd9b-1d8a-45fd-8b62-5fabfcf8d856.root
/store/mc/Run3Summer23NanoAODv12/WtoLNu-2Jets_PTLNu-100to200_2J_TuneCP5_13p6TeV_amcatnloFXFX-pythia8/NANOAODSIM/130X_mcRun3_2023_realistic_v14-v3/30000/515f904e-4a0e-4189-bad7-732e225d3beb.root
/store/mc/Run3Summer23NanoAODv12/WtoLNu-2Jets_PTLNu-100to200_2J_TuneCP5_13p6TeV_amcatnloFXFX-pythia8/NANOAODSIM/130X_mcRun3_2023_realistic_v14-v3/30000/b71abf5a-34d1-4402-b115-dfcbed2127e2.root
/store/mc/Run3Summer23NanoAODv12/WtoLNu-2Jets_PTLNu-100to200_2J_TuneCP5_13p6TeV_amcatnloFXFX-pythia8/NANOAODSIM/130X_mcRun3_2023_realistic_v14-v3/40000/300b937c-7575-4122-ad85-cdc440a07028.root
/store/mc/Run3Summer23NanoAODv12/WtoLNu-2Jets_PTLNu-100to200_2J_TuneCP5_13p6TeV_amcatnloFXFX-pythia8/NANOAODSIM/130X_mcRun3_2023_realistic_v14-v3/40000/8fb13973-ba05-4ab5-8be0-6d5c8d74a7d6.root
/store/mc/Run3Summer23NanoAODv12/WtoLNu-2Jets_PTLNu-100to200_2J_TuneCP5_13p6TeV_amcatnloFXFX-pythia8/NANOAODSIM/130X_mcRun3_2023_realistic_v14-v3/30000/0f822eda-69f8-47d2-8233-b71eba1a489f.root
/store/mc/Run3Summer23NanoAODv12/WtoLNu-2Jets_PTLNu-100to200_2J_TuneCP5_13p6TeV_amcatnloFXFX-pythia8/NANOAODSIM/130X_mcRun3_2023_realistic_v14-v3/30000/3eead981-f097-4ce4-8110-bd25e10e6bf5.root
/store/mc/Run3Summer23NanoAODv12/WtoLNu-2Jets_PTLNu-100to200_2J_TuneCP5_13p6TeV_amcatnloFXFX-pythia8/NANOAODSIM/130X_mcRun3_2023_realistic_v14-v3/30000/783d0248-6228-48de-a928-687109885278.root
/store/mc/Run3Summer23NanoAODv12/WtoLNu-2Jets_PTLNu-100to200_2J_TuneCP5_13p6TeV_amcatnloFXFX-pythia8/NANOAODSIM/130X_mcRun3_2023_realistic_v14-v3/30000/3bded857-3109-4c2d-a4c7-359e74760bc5.root
/store/mc/Run3Summer23NanoAODv12/WtoLNu-2Jets_PTLNu-100to200_2J_TuneCP5_13p6TeV_amcatnloFXFX-pythia8/NANOAODSIM/130X_mcRun3_2023_realistic_v14-v3/30000/1b4904cf-b5c1-4107-b758-95e44ef9ecce.root
/store/mc/Run3Summer23NanoAODv12/WtoLNu-2Jets_PTLNu-100to200_2J_TuneCP5_13p6TeV_amcatnloFXFX-pythia8/NANOAODSIM/130X_mcRun3_2023_realistic_v14-v3/30000/59e8fb52-3955-4acc-9d90-9177d8c8816a.root
/store/mc/Run3Summer23NanoAODv12/WtoLNu-2Jets_PTLNu-100to200_2J_TuneCP5_13p6TeV_amcatnloFXFX-pythia8/NANOAODSIM/130X_mcRun3_2023_realistic_v14-v3/30000/eba21b5b-63d0-4111-a16b-24da518c39bf.root
/store/mc/Run3Summer23NanoAODv12/WtoLNu-2Jets_PTLNu-100to200_2J_TuneCP5_13p6TeV_amcatnloFXFX-pythia8/NANOAODSIM/130X_mcRun3_2023_realistic_v14-v3/30000/1ed8a1b7-5d84-4329-bc8b-16c2724c7c94.root
/store/mc/Run3Summer23NanoAODv12/WtoLNu-2Jets_PTLNu-100to200_2J_TuneCP5_13p6TeV_amcatnloFXFX-pythia8/NANOAODSIM/130X_mcRun3_2023_realistic_v14-v3/30000/579278bf-a643-4de4-be1c-66c85c7cdde9.root
/store/mc/Run3Summer23NanoAODv12/WtoLNu-2Jets_PTLNu-100to200_2J_TuneCP5_13p6TeV_amcatnloFXFX-pythia8/NANOAODSIM/130X_mcRun3_2023_realistic_v14-v3/30000/4152ac6e-b220-40cb-b10c-e8516b269186.root
/store/mc/Run3Summer23NanoAODv12/WtoLNu-2Jets_PTLNu-100to200_2J_TuneCP5_13p6TeV_amcatnloFXFX-pythia8/NANOAODSIM/130X_mcRun3_2023_realistic_v14-v3/30000/454d612a-e079-4062-b549-42c1987b00c5.root
/store/mc/Run3Summer23NanoAODv12/WtoLNu-2Jets_PTLNu-100to200_2J_TuneCP5_13p6TeV_amcatnloFXFX-pythia8/NANOAODSIM/130X_mcRun3_2023_realistic_v14-v3/30000/80614944-60b8-48a4-8dfb-8962acbb110b.root
/store/mc/Run3Summer23NanoAODv12/WtoLNu-2Jets_PTLNu-100to200_2J_TuneCP5_13p6TeV_amcatnloFXFX-pythia8/NANOAODSIM/130X_mcRun3_2023_realistic_v14-v3/30000/49c9a3d3-300f-4725-803a-9920d6313b83.root
/store/mc/Run3Summer23NanoAODv12/WtoLNu-2Jets_PTLNu-100to200_2J_TuneCP5_13p6TeV_amcatnloFXFX-pythia8/NANOAODSIM/130X_mcRun3_2023_realistic_v14-v3/30000/33adf119-93af-4a8b-a7ac-64093ffcca8c.root
/store/mc/Run3Summer23NanoAODv12/WtoLNu-2Jets_PTLNu-100to200_2J_TuneCP5_13p6TeV_amcatnloFXFX-pythia8/NANOAODSIM/130X_mcRun3_2023_realistic_v14-v3/30000/5d2d238d-6b1d-4b1e-bbeb-5029be8dfadc.root
/store/mc/Run3Summer23NanoAODv12/WtoLNu-2Jets_PTLNu-100to200_2J_TuneCP5_13p6TeV_amcatnloFXFX-pythia8/NANOAODSIM/130X_mcRun3_2023_realistic_v14-v3/30000/2a7b662d-1536-4157-ab51-d682417ed8ca.root
/store/mc/Run3Summer23NanoAODv12/WtoLNu-2Jets_PTLNu-100to200_2J_TuneCP5_13p6TeV_amcatnloFXFX-pythia8/NANOAODSIM/130X_mcRun3_2023_realistic_v14-v3/30000/5e0279de-4c1f-48b3-bdc9-7eeb55863128.root
/store/mc/Run3Summer23NanoAODv12/WtoLNu-2Jets_PTLNu-100to200_2J_TuneCP5_13p6TeV_amcatnloFXFX-pythia8/NANOAODSIM/130X_mcRun3_2023_realistic_v14-v3/30000/1a0490de-86e8-4196-b3b8-659ba7e49c42.root
/store/mc/Run3Summer23NanoAODv12/WtoLNu-2Jets_PTLNu-100to200_2J_TuneCP5_13p6TeV_amcatnloFXFX-pythia8/NANOAODSIM/130X_mcRun3_2023_realistic_v14-v3/30000/a297b919-e080-4b13-93da-60f3e53dd2ae.root
/store/mc/Run3Summer23NanoAODv12/WtoLNu-2Jets_PTLNu-100to200_2J_TuneCP5_13p6TeV_amcatnloFXFX-pythia8/NANOAODSIM/130X_mcRun3_2023_realistic_v14-v3/30000/1f9db8a0-b684-4246-a891-aa1a539fd143.root
/store/mc/Run3Summer23NanoAODv12/WtoLNu-2Jets_PTLNu-100to200_2J_TuneCP5_13p6TeV_amcatnloFXFX-pythia8/NANOAODSIM/130X_mcRun3_2023_realistic_v14-v3/30000/745464a8-aa22-4139-97eb-d867e1b2fb4e.root
/store/mc/Run3Summer23NanoAODv12/WtoLNu-2Jets_PTLNu-100to200_2J_TuneCP5_13p6TeV_amcatnloFXFX-pythia8/NANOAODSIM/130X_mcRun3_2023_realistic_v14-v3/30000/f443809c-2d4c-4889-aba9-44453df8bb4c.root
/store/mc/Run3Summer23NanoAODv12/WtoLNu-2Jets_PTLNu-100to200_2J_TuneCP5_13p6TeV_amcatnloFXFX-pythia8/NANOAODSIM/130X_mcRun3_2023_realistic_v14-v3/30000/7e42c912-5ee3-48a7-af4c-ef8b09e83782.root
/store/mc/Run3Summer23NanoAODv12/WtoLNu-2Jets_PTLNu-100to200_2J_TuneCP5_13p6TeV_amcatnloFXFX-pythia8/NANOAODSIM/130X_mcRun3_2023_realistic_v14-v3/30000/386b00cb-f253-4436-a1ab-8a52d601cfd7.root
/store/mc/Run3Summer23NanoAODv12/WtoLNu-2Jets_PTLNu-100to200_2J_TuneCP5_13p6TeV_amcatnloFXFX-pythia8/NANOAODSIM/130X_mcRun3_2023_realistic_v14-v3/30000/1039a581-b6f6-4c4b-a876-fa1642b41f0d.root
/store/mc/Run3Summer23NanoAODv12/WtoLNu-2Jets_PTLNu-100to200_2J_TuneCP5_13p6TeV_amcatnloFXFX-pythia8/NANOAODSIM/130X_mcRun3_2023_realistic_v14-v3/30000/2ec66b46-4917-43e4-be77-8e1e88c71536.root
/store/mc/Run3Summer23NanoAODv12/WtoLNu-2Jets_PTLNu-100to200_2J_TuneCP5_13p6TeV_amcatnloFXFX-pythia8/NANOAODSIM/130X_mcRun3_2023_realistic_v14-v3/30000/3000194d-131d-4ed8-a16f-f57f790c22e4.root
/store/mc/Run3Summer23NanoAODv12/WtoLNu-2Jets_PTLNu-100to200_2J_TuneCP5_13p6TeV_amcatnloFXFX-pythia8/NANOAODSIM/130X_mcRun3_2023_realistic_v14-v3/30000/62102b6a-dbef-4741-9282-c41dda34308b.root
/store/mc/Run3Summer23NanoAODv12/WtoLNu-2Jets_PTLNu-100to200_2J_TuneCP5_13p6TeV_amcatnloFXFX-pythia8/NANOAODSIM/130X_mcRun3_2023_realistic_v14-v3/30000/f4585637-3db9-481b-98ad-42d89c2925f3.root
/store/mc/Run3Summer23NanoAODv12/WtoLNu-2Jets_PTLNu-100to200_2J_TuneCP5_13p6TeV_amcatnloFXFX-pythia8/NANOAODSIM/130X_mcRun3_2023_realistic_v14-v3/30000/7618c24a-c19c-4945-a160-2c3b53fa16f3.root
/store/mc/Run3Summer23NanoAODv12/WtoLNu-2Jets_PTLNu-100to200_2J_TuneCP5_13p6TeV_amcatnloFXFX-pythia8/NANOAODSIM/130X_mcRun3_2023_realistic_v14-v3/30000/5ed71498-7b55-46d5-9a86-a9ebf217c570.root
/store/mc/Run3Summer23NanoAODv12/WtoLNu-2Jets_PTLNu-100to200_2J_TuneCP5_13p6TeV_amcatnloFXFX-pythia8/NANOAODSIM/130X_mcRun3_2023_realistic_v14-v3/30000/e387f569-bd98-4241-931e-ae5dd260dca8.root
/store/mc/Run3Summer23NanoAODv12/WtoLNu-2Jets_PTLNu-100to200_2J_TuneCP5_13p6TeV_amcatnloFXFX-pythia8/NANOAODSIM/130X_mcRun3_2023_realistic_v14-v3/30000/be1da652-db54-4bb5-a0e7-942295092e31.root
/store/mc/Run3Summer23NanoAODv12/WtoLNu-2Jets_PTLNu-100to200_2J_TuneCP5_13p6TeV_amcatnloFXFX-pythia8/NANOAODSIM/130X_mcRun3_2023_realistic_v14-v3/30000/6333ba76-7670-45b4-ba5b-81745204ab9a.root
/store/mc/Run3Summer23NanoAODv12/WtoLNu-2Jets_PTLNu-100to200_2J_TuneCP5_13p6TeV_amcatnloFXFX-pythia8/NANOAODSIM/130X_mcRun3_2023_realistic_v14-v3/30000/5d483f09-804e-4a16-a97b-56381a32e835.root
/store/mc/Run3Summer23NanoAODv12/WtoLNu-2Jets_PTLNu-100to200_2J_TuneCP5_13p6TeV_amcatnloFXFX-pythia8/NANOAODSIM/130X_mcRun3_2023_realistic_v14-v3/30000/888240fe-d3d5-4ec3-ae65-ae53fca45248.root
/store/mc/Run3Summer23NanoAODv12/WtoLNu-2Jets_PTLNu-100to200_2J_TuneCP5_13p6TeV_amcatnloFXFX-pythia8/NANOAODSIM/130X_mcRun3_2023_realistic_v14-v3/30000/f7beff6a-84cc-4e36-807c-a4a6c524a5bb.root
/store/mc/Run3Summer23NanoAODv12/WtoLNu-2Jets_PTLNu-100to200_2J_TuneCP5_13p6TeV_amcatnloFXFX-pythia8/NANOAODSIM/130X_mcRun3_2023_realistic_v14-v3/30000/f3081cb8-61dc-4377-80e6-8a27bc5b4514.root
/store/mc/Run3Summer23NanoAODv12/WtoLNu-2Jets_PTLNu-100to200_2J_TuneCP5_13p6TeV_amcatnloFXFX-pythia8/NANOAODSIM/130X_mcRun3_2023_realistic_v14-v3/30000/37253c7e-756d-4dc7-b772-cda92c0d64f0.root
/store/mc/Run3Summer23NanoAODv12/WtoLNu-2Jets_PTLNu-100to200_2J_TuneCP5_13p6TeV_amcatnloFXFX-pythia8/NANOAODSIM/130X_mcRun3_2023_realistic_v14-v3/30000/ae1ec943-d49c-4a62-9dd3-2e0b1c13aed7.root
/store/mc/Run3Summer23NanoAODv12/WtoLNu-2Jets_PTLNu-100to200_2J_TuneCP5_13p6TeV_amcatnloFXFX-pythia8/NANOAODSIM/130X_mcRun3_2023_realistic_v14-v3/30000/4cdb45fb-6beb-4812-8804-dbef3b23c726.root
/store/mc/Run3Summer23NanoAODv12/WtoLNu-2Jets_PTLNu-100to200_2J_TuneCP5_13p6TeV_amcatnloFXFX-pythia8/NANOAODSIM/130X_mcRun3_2023_realistic_v14-v3/30000/69e345f2-511c-44f1-9109-55038dbfd230.root
/store/mc/Run3Summer23NanoAODv12/WtoLNu-2Jets_PTLNu-100to200_2J_TuneCP5_13p6TeV_amcatnloFXFX-pythia8/NANOAODSIM/130X_mcRun3_2023_realistic_v14-v3/30000/7b08cbf6-623c-4c94-90dd-c5e8e0d17034.root
/store/mc/Run3Summer23NanoAODv12/WtoLNu-2Jets_PTLNu-100to200_2J_TuneCP5_13p6TeV_amcatnloFXFX-pythia8/NANOAODSIM/130X_mcRun3_2023_realistic_v14-v3/30000/e3028203-afe7-4c1b-9e1c-18ce6b3e35a2.root
/store/mc/Run3Summer23NanoAODv12/WtoLNu-2Jets_PTLNu-100to200_2J_TuneCP5_13p6TeV_amcatnloFXFX-pythia8/NANOAODSIM/130X_mcRun3_2023_realistic_v14-v3/30000/2dfab435-2336-45d4-a2d0-6c9c3f5a692f.root
/store/mc/Run3Summer23NanoAODv12/WtoLNu-2Jets_PTLNu-100to200_2J_TuneCP5_13p6TeV_amcatnloFXFX-pythia8/NANOAODSIM/130X_mcRun3_2023_realistic_v14-v3/30000/79889ad7-c570-493a-a99c-b71054348184.root
/store/mc/Run3Summer23NanoAODv12/WtoLNu-2Jets_PTLNu-100to200_2J_TuneCP5_13p6TeV_amcatnloFXFX-pythia8/NANOAODSIM/130X_mcRun3_2023_realistic_v14-v3/30000/405d60b7-390d-4e92-bfd1-86d2784262da.root
/store/mc/Run3Summer23NanoAODv12/WtoLNu-2Jets_PTLNu-100to200_2J_TuneCP5_13p6TeV_amcatnloFXFX-pythia8/NANOAODSIM/130X_mcRun3_2023_realistic_v14-v3/30000/ea26b35e-53e1-4b30-accf-4813e510d7e3.root
/store/mc/Run3Summer23NanoAODv12/WtoLNu-2Jets_PTLNu-100to200_2J_TuneCP5_13p6TeV_amcatnloFXFX-pythia8/NANOAODSIM/130X_mcRun3_2023_realistic_v14-v3/30000/264ce24c-58d5-42bf-947a-91319cf6589a.root
/store/mc/Run3Summer23NanoAODv12/WtoLNu-2Jets_PTLNu-100to200_2J_TuneCP5_13p6TeV_amcatnloFXFX-pythia8/NANOAODSIM/130X_mcRun3_2023_realistic_v14-v3/30000/1ae92811-6c9a-49b8-bdda-89de75fe885e.root
/store/mc/Run3Summer23NanoAODv12/WtoLNu-2Jets_PTLNu-100to200_2J_TuneCP5_13p6TeV_amcatnloFXFX-pythia8/NANOAODSIM/130X_mcRun3_2023_realistic_v14-v3/30000/06d60a55-0ff1-4196-9882-24c76d14ada8.root
/store/mc/Run3Summer23NanoAODv12/WtoLNu-2Jets_PTLNu-100to200_2J_TuneCP5_13p6TeV_amcatnloFXFX-pythia8/NANOAODSIM/130X_mcRun3_2023_realistic_v14-v3/30000/60f4cfea-8c9c-44a2-a153-3e9b37b91dd5.root
/store/mc/Run3Summer23NanoAODv12/WtoLNu-2Jets_PTLNu-100to200_2J_TuneCP5_13p6TeV_amcatnloFXFX-pythia8/NANOAODSIM/130X_mcRun3_2023_realistic_v14-v3/30000/4ec44540-9359-4c98-ba0c-31f1d0cb8ab3.root
/store/mc/Run3Summer23NanoAODv12/WtoLNu-2Jets_PTLNu-100to200_2J_TuneCP5_13p6TeV_amcatnloFXFX-pythia8/NANOAODSIM/130X_mcRun3_2023_realistic_v14-v3/30000/5e6abdcf-a7d2-4406-9eeb-7b1bf32ebd73.root
/store/mc/Run3Summer23NanoAODv12/WtoLNu-2Jets_PTLNu-100to200_2J_TuneCP5_13p6TeV_amcatnloFXFX-pythia8/NANOAODSIM/130X_mcRun3_2023_realistic_v14-v3/30000/5edb0958-4f46-47eb-80f6-b8998599acf4.root
/store/mc/Run3Summer23NanoAODv12/WtoLNu-2Jets_PTLNu-100to200_2J_TuneCP5_13p6TeV_amcatnloFXFX-pythia8/NANOAODSIM/130X_mcRun3_2023_realistic_v14-v3/30000/fa766cd3-190c-4d13-8c5a-79fd173474f3.root
/store/mc/Run3Summer23NanoAODv12/WtoLNu-2Jets_PTLNu-100to200_2J_TuneCP5_13p6TeV_amcatnloFXFX-pythia8/NANOAODSIM/130X_mcRun3_2023_realistic_v14-v3/30000/48dfdd9c-0f1d-4be4-820f-fe752ecaa089.root
/store/mc/Run3Summer23NanoAODv12/WtoLNu-2Jets_PTLNu-100to200_2J_TuneCP5_13p6TeV_amcatnloFXFX-pythia8/NANOAODSIM/130X_mcRun3_2023_realistic_v14-v3/30000/293a2225-b12a-4e11-aa9d-f521495199c8.root
/store/mc/Run3Summer23NanoAODv12/WtoLNu-2Jets_PTLNu-100to200_2J_TuneCP5_13p6TeV_amcatnloFXFX-pythia8/NANOAODSIM/130X_mcRun3_2023_realistic_v14-v3/30000/83ae4510-733e-439d-aad2-bfb18b1a1d54.root
/store/mc/Run3Summer23NanoAODv12/WtoLNu-2Jets_PTLNu-100to200_2J_TuneCP5_13p6TeV_amcatnloFXFX-pythia8/NANOAODSIM/130X_mcRun3_2023_realistic_v14-v3/30000/7f57d466-68ca-45ff-947d-b9195ba66ea9.root
/store/mc/Run3Summer23NanoAODv12/WtoLNu-2Jets_PTLNu-100to200_2J_TuneCP5_13p6TeV_amcatnloFXFX-pythia8/NANOAODSIM/130X_mcRun3_2023_realistic_v14-v3/30000/e3d11739-c2fb-404a-86e0-46c69330443f.root
/store/mc/Run3Summer23NanoAODv12/WtoLNu-2Jets_PTLNu-100to200_2J_TuneCP5_13p6TeV_amcatnloFXFX-pythia8/NANOAODSIM/130X_mcRun3_2023_realistic_v14-v3/30000/c0740bf7-33e4-4363-ac30-6c9c57b514e9.root
/store/mc/Run3Summer23NanoAODv12/WtoLNu-2Jets_PTLNu-100to200_2J_TuneCP5_13p6TeV_amcatnloFXFX-pythia8/NANOAODSIM/130X_mcRun3_2023_realistic_v14-v3/30000/0740d482-fd5b-42b5-a52b-d383c4978957.root
/store/mc/Run3Summer23NanoAODv12/WtoLNu-2Jets_PTLNu-100to200_2J_TuneCP5_13p6TeV_amcatnloFXFX-pythia8/NANOAODSIM/130X_mcRun3_2023_realistic_v14-v3/30000/699e75fe-f197-45c6-91b2-af0f46afac55.root
/store/mc/Run3Summer23NanoAODv12/WtoLNu-2Jets_PTLNu-100to200_2J_TuneCP5_13p6TeV_amcatnloFXFX-pythia8/NANOAODSIM/130X_mcRun3_2023_realistic_v14-v3/30000/aac75eb6-3f48-489e-8ca0-5589f080db14.root
/store/mc/Run3Summer23NanoAODv12/WtoLNu-2Jets_PTLNu-100to200_2J_TuneCP5_13p6TeV_amcatnloFXFX-pythia8/NANOAODSIM/130X_mcRun3_2023_realistic_v14-v3/30000/03ad228f-67a0-4966-962f-b6aef7c01840.root
/store/mc/Run3Summer23NanoAODv12/WtoLNu-2Jets_PTLNu-100to200_2J_TuneCP5_13p6TeV_amcatnloFXFX-pythia8/NANOAODSIM/130X_mcRun3_2023_realistic_v14-v3/30000/7809ba57-66a7-4c8c-9cc7-cf73415ab774.root
/store/mc/Run3Summer23NanoAODv12/WtoLNu-2Jets_PTLNu-100to200_2J_TuneCP5_13p6TeV_amcatnloFXFX-pythia8/NANOAODSIM/130X_mcRun3_2023_realistic_v14-v3/30000/27793d8e-1e1e-4a4c-90d8-178807bfbf88.root
/store/mc/Run3Summer23NanoAODv12/WtoLNu-2Jets_PTLNu-100to200_2J_TuneCP5_13p6TeV_amcatnloFXFX-pythia8/NANOAODSIM/130X_mcRun3_2023_realistic_v14-v3/30000/5d32f837-a4b7-4e44-8614-4a5ae3c0a29a.root
/store/mc/Run3Summer23NanoAODv12/WtoLNu-2Jets_PTLNu-100to200_2J_TuneCP5_13p6TeV_amcatnloFXFX-pythia8/NANOAODSIM/130X_mcRun3_2023_realistic_v14-v3/30000/6ba544d7-b99b-4750-9359-a9dc0c0b7ca5.root
/store/mc/Run3Summer23NanoAODv12/WtoLNu-2Jets_PTLNu-100to200_2J_TuneCP5_13p6TeV_amcatnloFXFX-pythia8/NANOAODSIM/130X_mcRun3_2023_realistic_v14-v3/30000/226fc24f-c073-4822-ac9a-e7e2117af772.root
/store/mc/Run3Summer23NanoAODv12/WtoLNu-2Jets_PTLNu-100to200_2J_TuneCP5_13p6TeV_amcatnloFXFX-pythia8/NANOAODSIM/130X_mcRun3_2023_realistic_v14-v3/30000/df2c9727-ee8e-419d-be8b-cd0af033875e.root
/store/mc/Run3Summer23NanoAODv12/WtoLNu-2Jets_PTLNu-100to200_2J_TuneCP5_13p6TeV_amcatnloFXFX-pythia8/NANOAODSIM/130X_mcRun3_2023_realistic_v14-v3/30000/a756dd22-1910-4a73-a552-16754723fb69.root
/store/mc/Run3Summer23NanoAODv12/WtoLNu-2Jets_PTLNu-100to200_2J_TuneCP5_13p6TeV_amcatnloFXFX-pythia8/NANOAODSIM/130X_mcRun3_2023_realistic_v14-v3/40000/0d82ab51-c7ae-4611-a07c-ef2553151fec.root
/store/mc/Run3Summer23NanoAODv12/WtoLNu-2Jets_PTLNu-100to200_2J_TuneCP5_13p6TeV_amcatnloFXFX-pythia8/NANOAODSIM/130X_mcRun3_2023_realistic_v14-v3/40000/b1eaf156-26fb-4df1-a585-5f3fc7f49814.root
/store/mc/Run3Summer23NanoAODv12/WtoLNu-2Jets_PTLNu-100to200_2J_TuneCP5_13p6TeV_amcatnloFXFX-pythia8/NANOAODSIM/130X_mcRun3_2023_realistic_v14-v3/40000/30dcc2bf-ed48-45a0-82f6-f7a5fcf55160.root
/store/mc/Run3Summer23NanoAODv12/WtoLNu-2Jets_PTLNu-100to200_2J_TuneCP5_13p6TeV_amcatnloFXFX-pythia8/NANOAODSIM/130X_mcRun3_2023_realistic_v14-v3/40000/ef0da20d-c30d-4952-9bc6-2c0b7e240d15.root
/store/mc/Run3Summer23NanoAODv12/WtoLNu-2Jets_PTLNu-100to200_2J_TuneCP5_13p6TeV_amcatnloFXFX-pythia8/NANOAODSIM/130X_mcRun3_2023_realistic_v14-v3/40000/b5acddd3-de7e-48aa-915e-c1d723c54518.root
/store/mc/Run3Summer23NanoAODv12/WtoLNu-2Jets_PTLNu-100to200_2J_TuneCP5_13p6TeV_amcatnloFXFX-pythia8/NANOAODSIM/130X_mcRun3_2023_realistic_v14-v3/40000/add7661c-d163-4776-bafa-b48698f44c4e.root
/store/mc/Run3Summer23NanoAODv12/WtoLNu-2Jets_PTLNu-100to200_2J_TuneCP5_13p6TeV_amcatnloFXFX-pythia8/NANOAODSIM/130X_mcRun3_2023_realistic_v14-v3/2820000/19b9a982-0046-4d97-8483-0b3bce023c02.root
/store/mc/Run3Summer23NanoAODv12/WtoLNu-2Jets_PTLNu-100to200_2J_TuneCP5_13p6TeV_amcatnloFXFX-pythia8/NANOAODSIM/130X_mcRun3_2023_realistic_v14-v3/2820000/d0a1b1f3-2319-425a-b8bb-4e2f711520db.root
/store/mc/Run3Summer23NanoAODv12/WtoLNu-2Jets_PTLNu-100to200_2J_TuneCP5_13p6TeV_amcatnloFXFX-pythia8/NANOAODSIM/130X_mcRun3_2023_realistic_v14-v3/2820000/cd868460-1083-415c-9e05-0b09b20db905.root
/store/mc/Run3Summer23NanoAODv12/WtoLNu-2Jets_PTLNu-100to200_2J_TuneCP5_13p6TeV_amcatnloFXFX-pythia8/NANOAODSIM/130X_mcRun3_2023_realistic_v14-v3/2820000/7dae961f-8c95-480d-b47b-e0d353c53799.root
/store/mc/Run3Summer23NanoAODv12/WtoLNu-2Jets_PTLNu-100to200_2J_TuneCP5_13p6TeV_amcatnloFXFX-pythia8/NANOAODSIM/130X_mcRun3_2023_realistic_v14-v3/2820000/7a64d648-0300-4a14-bced-f52750679371.root
/store/mc/Run3Summer23NanoAODv12/WtoLNu-2Jets_PTLNu-100to200_2J_TuneCP5_13p6TeV_amcatnloFXFX-pythia8/NANOAODSIM/130X_mcRun3_2023_realistic_v14-v3/2820000/7cb4b4c0-d115-4b31-8fc9-889ff5dfdc38.root
/store/mc/Run3Summer23NanoAODv12/WtoLNu-2Jets_PTLNu-100to200_2J_TuneCP5_13p6TeV_amcatnloFXFX-pythia8/NANOAODSIM/130X_mcRun3_2023_realistic_v14-v3/2820000/48efd0c0-68d7-414b-8a21-e8b02b66b494.root
/store/mc/Run3Summer23NanoAODv12/WtoLNu-2Jets_PTLNu-100to200_2J_TuneCP5_13p6TeV_amcatnloFXFX-pythia8/NANOAODSIM/130X_mcRun3_2023_realistic_v14-v3/30000/263ef643-8045-4cb9-9e81-94aa7f7284c8.root
/store/mc/Run3Summer23NanoAODv12/WtoLNu-2Jets_PTLNu-100to200_2J_TuneCP5_13p6TeV_amcatnloFXFX-pythia8/NANOAODSIM/130X_mcRun3_2023_realistic_v14-v3/30000/a9f53fb9-817b-410b-ae62-a1b6ca4aaffd.root
/store/mc/Run3Summer23NanoAODv12/WtoLNu-2Jets_PTLNu-100to200_2J_TuneCP5_13p6TeV_amcatnloFXFX-pythia8/NANOAODSIM/130X_mcRun3_2023_realistic_v14-v3/30000/d51dd8cc-ede7-4b70-8b87-e47a4210532d.root
/store/mc/Run3Summer23NanoAODv12/WtoLNu-2Jets_PTLNu-100to200_2J_TuneCP5_13p6TeV_amcatnloFXFX-pythia8/NANOAODSIM/130X_mcRun3_2023_realistic_v14-v3/30000/8d84329e-7131-4ba9-ac4f-3789fa7df071.root
/store/mc/Run3Summer23NanoAODv12/WtoLNu-2Jets_PTLNu-100to200_2J_TuneCP5_13p6TeV_amcatnloFXFX-pythia8/NANOAODSIM/130X_mcRun3_2023_realistic_v14-v3/30000/a0a67f6e-4a32-47fe-abc6-705cca780e92.root
/store/mc/Run3Summer23NanoAODv12/WtoLNu-2Jets_PTLNu-100to200_2J_TuneCP5_13p6TeV_amcatnloFXFX-pythia8/NANOAODSIM/130X_mcRun3_2023_realistic_v14-v3/40000/cd2a7899-30f3-45d2-95d7-611f66dfff5c.root
/store/mc/Run3Summer23NanoAODv12/WtoLNu-2Jets_PTLNu-100to200_2J_TuneCP5_13p6TeV_amcatnloFXFX-pythia8/NANOAODSIM/130X_mcRun3_2023_realistic_v14-v3/40000/14f8d715-dcd5-40bb-81ac-2f537a330bec.root
/store/mc/Run3Summer23NanoAODv12/WtoLNu-2Jets_PTLNu-100to200_2J_TuneCP5_13p6TeV_amcatnloFXFX-pythia8/NANOAODSIM/130X_mcRun3_2023_realistic_v14-v3/40000/922cedfc-6c2f-43b4-9fd2-db6e3d3ade46.root
/store/mc/Run3Summer23NanoAODv12/WtoLNu-2Jets_PTLNu-100to200_2J_TuneCP5_13p6TeV_amcatnloFXFX-pythia8/NANOAODSIM/130X_mcRun3_2023_realistic_v14-v3/40000/1247cd6f-076f-4794-a21b-fcf53d2b0cbf.root
/store/mc/Run3Summer23NanoAODv12/WtoLNu-2Jets_PTLNu-100to200_2J_TuneCP5_13p6TeV_amcatnloFXFX-pythia8/NANOAODSIM/130X_mcRun3_2023_realistic_v14-v3/2820000/2c7e11dd-62c2-4fe0-bcb9-b44d75c6290d.root
/store/mc/Run3Summer23NanoAODv12/WtoLNu-2Jets_PTLNu-100to200_2J_TuneCP5_13p6TeV_amcatnloFXFX-pythia8/NANOAODSIM/130X_mcRun3_2023_realistic_v14-v3/2820000/cd2772df-60a3-42ae-8c62-847a8974dd3e.root
/store/mc/Run3Summer23NanoAODv12/WtoLNu-2Jets_PTLNu-100to200_2J_TuneCP5_13p6TeV_amcatnloFXFX-pythia8/NANOAODSIM/130X_mcRun3_2023_realistic_v14-v3/30000/9ec7060a-a11f-4b11-97d2-4f4a5e86d5f7.root
/store/mc/Run3Summer23NanoAODv12/WtoLNu-2Jets_PTLNu-100to200_2J_TuneCP5_13p6TeV_amcatnloFXFX-pythia8/NANOAODSIM/130X_mcRun3_2023_realistic_v14-v3/30000/a826cece-b144-4112-87a5-2ab320e83b50.root
/store/mc/Run3Summer23NanoAODv12/WtoLNu-2Jets_PTLNu-100to200_2J_TuneCP5_13p6TeV_amcatnloFXFX-pythia8/NANOAODSIM/130X_mcRun3_2023_realistic_v14-v3/30000/ca8541ad-e10e-4ecd-b8ba-26ef13e8456d.root
/store/mc/Run3Summer23NanoAODv12/WtoLNu-2Jets_PTLNu-100to200_2J_TuneCP5_13p6TeV_amcatnloFXFX-pythia8/NANOAODSIM/130X_mcRun3_2023_realistic_v14-v3/30000/1decbfb2-f005-4942-bfae-bd511734a96b.root
/store/mc/Run3Summer23NanoAODv12/WtoLNu-2Jets_PTLNu-100to200_2J_TuneCP5_13p6TeV_amcatnloFXFX-pythia8/NANOAODSIM/130X_mcRun3_2023_realistic_v14-v3/40000/d0fef78a-1410-4fa1-b98b-30bf09b86c64.root
/store/mc/Run3Summer23NanoAODv12/WtoLNu-2Jets_PTLNu-100to200_2J_TuneCP5_13p6TeV_amcatnloFXFX-pythia8/NANOAODSIM/130X_mcRun3_2023_realistic_v14-v3/40000/3178347a-dcc3-4632-87d8-b99558c2b8e3.root
/store/mc/Run3Summer23NanoAODv12/WtoLNu-2Jets_PTLNu-100to200_2J_TuneCP5_13p6TeV_amcatnloFXFX-pythia8/NANOAODSIM/130X_mcRun3_2023_realistic_v14-v3/40000/43a3f8e6-9f65-4d6e-b9f6-2fd0615c9d50.root
/store/mc/Run3Summer23NanoAODv12/WtoLNu-2Jets_PTLNu-100to200_2J_TuneCP5_13p6TeV_amcatnloFXFX-pythia8/NANOAODSIM/130X_mcRun3_2023_realistic_v14-v3/40000/f45533fc-d8ee-4a1f-ad3d-084998e382bd.root
/store/mc/Run3Summer23NanoAODv12/WtoLNu-2Jets_PTLNu-100to200_2J_TuneCP5_13p6TeV_amcatnloFXFX-pythia8/NANOAODSIM/130X_mcRun3_2023_realistic_v14-v3/40000/e6fe6c8b-0c10-49aa-b74c-bdb09b92d672.root
/store/mc/Run3Summer23NanoAODv12/WtoLNu-2Jets_PTLNu-100to200_2J_TuneCP5_13p6TeV_amcatnloFXFX-pythia8/NANOAODSIM/130X_mcRun3_2023_realistic_v14-v3/40000/8a819734-8718-4b66-bc93-02fae23ac15c.root
/store/mc/Run3Summer23NanoAODv12/WtoLNu-2Jets_PTLNu-100to200_2J_TuneCP5_13p6TeV_amcatnloFXFX-pythia8/NANOAODSIM/130X_mcRun3_2023_realistic_v14-v3/40000/91217da6-86a4-4a0c-ae7f-7ab14ed6fa44.root
/store/mc/Run3Summer23NanoAODv12/WtoLNu-2Jets_PTLNu-100to200_2J_TuneCP5_13p6TeV_amcatnloFXFX-pythia8/NANOAODSIM/130X_mcRun3_2023_realistic_v14-v3/30000/2d464cd5-4950-4507-a08b-df04d283bac3.root
/store/mc/Run3Summer23NanoAODv12/WtoLNu-2Jets_PTLNu-100to200_2J_TuneCP5_13p6TeV_amcatnloFXFX-pythia8/NANOAODSIM/130X_mcRun3_2023_realistic_v14-v3/30000/f8d0009e-dceb-4a9d-bb40-533d81ec864a.root
/store/mc/Run3Summer23NanoAODv12/WtoLNu-2Jets_PTLNu-100to200_2J_TuneCP5_13p6TeV_amcatnloFXFX-pythia8/NANOAODSIM/130X_mcRun3_2023_realistic_v14-v3/30000/b7d4258d-ee52-4701-b386-7e827af73d91.root
/store/mc/Run3Summer23NanoAODv12/WtoLNu-2Jets_PTLNu-100to200_2J_TuneCP5_13p6TeV_amcatnloFXFX-pythia8/NANOAODSIM/130X_mcRun3_2023_realistic_v14-v3/30000/6cc6b1a5-70c1-496a-bd58-eecc1860c781.root
/store/mc/Run3Summer23NanoAODv12/WtoLNu-2Jets_PTLNu-100to200_2J_TuneCP5_13p6TeV_amcatnloFXFX-pythia8/NANOAODSIM/130X_mcRun3_2023_realistic_v14-v3/30000/df11c8d2-117a-4796-90a4-bdc49bee1353.root
/store/mc/Run3Summer23NanoAODv12/WtoLNu-2Jets_PTLNu-100to200_2J_TuneCP5_13p6TeV_amcatnloFXFX-pythia8/NANOAODSIM/130X_mcRun3_2023_realistic_v14-v3/30000/81c3f633-313b-4777-ba7d-ef16cfae41a8.root
/store/mc/Run3Summer23NanoAODv12/WtoLNu-2Jets_PTLNu-100to200_2J_TuneCP5_13p6TeV_amcatnloFXFX-pythia8/NANOAODSIM/130X_mcRun3_2023_realistic_v14-v3/30000/ea7d74bb-c08d-4ec2-8521-75b4cf5a55b9.root
/store/mc/Run3Summer23NanoAODv12/WtoLNu-2Jets_PTLNu-100to200_2J_TuneCP5_13p6TeV_amcatnloFXFX-pythia8/NANOAODSIM/130X_mcRun3_2023_realistic_v14-v3/30000/f07bbc18-a244-4c35-9ac6-7caae95b0685.root
/store/mc/Run3Summer23NanoAODv12/WtoLNu-2Jets_PTLNu-100to200_2J_TuneCP5_13p6TeV_amcatnloFXFX-pythia8/NANOAODSIM/130X_mcRun3_2023_realistic_v14-v3/30000/1af527fb-dad7-4add-882a-562c1458640d.root
/store/mc/Run3Summer23NanoAODv12/WtoLNu-2Jets_PTLNu-100to200_2J_TuneCP5_13p6TeV_amcatnloFXFX-pythia8/NANOAODSIM/130X_mcRun3_2023_realistic_v14-v3/40000/c4012f61-4b02-48da-a2d3-2aad2bc52235.root
/store/mc/Run3Summer23NanoAODv12/WtoLNu-2Jets_PTLNu-100to200_2J_TuneCP5_13p6TeV_amcatnloFXFX-pythia8/NANOAODSIM/130X_mcRun3_2023_realistic_v14-v3/40000/72110672-bb50-480e-9fa2-1713eaf1eafe.root
/store/mc/Run3Summer23NanoAODv12/WtoLNu-2Jets_PTLNu-100to200_2J_TuneCP5_13p6TeV_amcatnloFXFX-pythia8/NANOAODSIM/130X_mcRun3_2023_realistic_v14-v3/40000/e09dde29-1477-4209-8283-ef19e5794117.root
/store/mc/Run3Summer23NanoAODv12/WtoLNu-2Jets_PTLNu-100to200_2J_TuneCP5_13p6TeV_amcatnloFXFX-pythia8/NANOAODSIM/130X_mcRun3_2023_realistic_v14-v3/40000/fddf09cc-3b64-4c30-a9fc-e6a1a2c5fd7b.root
/store/mc/Run3Summer23NanoAODv12/WtoLNu-2Jets_PTLNu-100to200_2J_TuneCP5_13p6TeV_amcatnloFXFX-pythia8/NANOAODSIM/130X_mcRun3_2023_realistic_v14-v3/40000/7402ec34-bb09-490c-9892-3212ee8274d4.root
/store/mc/Run3Summer23NanoAODv12/WtoLNu-2Jets_PTLNu-100to200_2J_TuneCP5_13p6TeV_amcatnloFXFX-pythia8/NANOAODSIM/130X_mcRun3_2023_realistic_v14-v3/2820000/8fe64149-abb4-4920-a012-8c36ff5e72c6.root
/store/mc/Run3Summer23NanoAODv12/WtoLNu-2Jets_PTLNu-100to200_2J_TuneCP5_13p6TeV_amcatnloFXFX-pythia8/NANOAODSIM/130X_mcRun3_2023_realistic_v14-v3/2820000/d72ec5aa-a223-483f-b052-18f3a1c8b16d.root
/store/mc/Run3Summer23NanoAODv12/WtoLNu-2Jets_PTLNu-100to200_2J_TuneCP5_13p6TeV_amcatnloFXFX-pythia8/NANOAODSIM/130X_mcRun3_2023_realistic_v14-v3/2820000/20ad5f6d-3485-4bbd-8bdd-a8f5c09a1ff4.root
/store/mc/Run3Summer23NanoAODv12/WtoLNu-2Jets_PTLNu-100to200_2J_TuneCP5_13p6TeV_amcatnloFXFX-pythia8/NANOAODSIM/130X_mcRun3_2023_realistic_v14-v3/30000/e0ad54c6-fd7b-4507-996e-bc10f53243a2.root
/store/mc/Run3Summer23NanoAODv12/WtoLNu-2Jets_PTLNu-100to200_2J_TuneCP5_13p6TeV_amcatnloFXFX-pythia8/NANOAODSIM/130X_mcRun3_2023_realistic_v14-v3/30000/e7d0c227-bc5b-42cc-91b8-95804bb5f99f.root
/store/mc/Run3Summer23NanoAODv12/WtoLNu-2Jets_PTLNu-100to200_2J_TuneCP5_13p6TeV_amcatnloFXFX-pythia8/NANOAODSIM/130X_mcRun3_2023_realistic_v14-v3/30000/3d2a1642-4377-47dc-97b6-cbcf065be923.root
/store/mc/Run3Summer23NanoAODv12/WtoLNu-2Jets_PTLNu-100to200_2J_TuneCP5_13p6TeV_amcatnloFXFX-pythia8/NANOAODSIM/130X_mcRun3_2023_realistic_v14-v3/30000/985eb8d5-f5c5-45ec-89c9-f2da1a36a193.root
/store/mc/Run3Summer23NanoAODv12/WtoLNu-2Jets_PTLNu-100to200_2J_TuneCP5_13p6TeV_amcatnloFXFX-pythia8/NANOAODSIM/130X_mcRun3_2023_realistic_v14-v3/30000/8abbffa4-4347-4f39-9929-894ef86cb974.root
/store/mc/Run3Summer23NanoAODv12/WtoLNu-2Jets_PTLNu-100to200_2J_TuneCP5_13p6TeV_amcatnloFXFX-pythia8/NANOAODSIM/130X_mcRun3_2023_realistic_v14-v3/30000/b5364963-b3f9-4178-aa7d-f862f9c6c0e2.root
/store/mc/Run3Summer23NanoAODv12/WtoLNu-2Jets_PTLNu-100to200_2J_TuneCP5_13p6TeV_amcatnloFXFX-pythia8/NANOAODSIM/130X_mcRun3_2023_realistic_v14-v3/30000/08e62761-a395-4336-9fdb-881da6597d1b.root
/store/mc/Run3Summer23NanoAODv12/WtoLNu-2Jets_PTLNu-100to200_2J_TuneCP5_13p6TeV_amcatnloFXFX-pythia8/NANOAODSIM/130X_mcRun3_2023_realistic_v14-v3/30000/98f88f54-fd23-447d-b441-9a50954a35e0.root
/store/mc/Run3Summer23NanoAODv12/WtoLNu-2Jets_PTLNu-100to200_2J_TuneCP5_13p6TeV_amcatnloFXFX-pythia8/NANOAODSIM/130X_mcRun3_2023_realistic_v14-v3/30000/f0978353-76f1-4847-96b1-9f9a958673e7.root
/store/mc/Run3Summer23NanoAODv12/WtoLNu-2Jets_PTLNu-100to200_2J_TuneCP5_13p6TeV_amcatnloFXFX-pythia8/NANOAODSIM/130X_mcRun3_2023_realistic_v14-v3/30000/99ea40b2-9be9-4576-937f-9cf649a4ef3d.root
/store/mc/Run3Summer23NanoAODv12/WtoLNu-2Jets_PTLNu-100to200_2J_TuneCP5_13p6TeV_amcatnloFXFX-pythia8/NANOAODSIM/130X_mcRun3_2023_realistic_v14-v3/30000/c1f0e8c6-1c91-4a9f-9f26-83cedc1d7be7.root
/store/mc/Run3Summer23NanoAODv12/WtoLNu-2Jets_PTLNu-100to200_2J_TuneCP5_13p6TeV_amcatnloFXFX-pythia8/NANOAODSIM/130X_mcRun3_2023_realistic_v14-v3/30000/22dcd3c9-4343-42ec-8dfa-fc4f5dc2ccbb.root
/store/mc/Run3Summer23NanoAODv12/WtoLNu-2Jets_PTLNu-100to200_2J_TuneCP5_13p6TeV_amcatnloFXFX-pythia8/NANOAODSIM/130X_mcRun3_2023_realistic_v14-v3/30000/553cfe0a-8abc-4467-92d5-f8178c9a3930.root
/store/mc/Run3Summer23NanoAODv12/WtoLNu-2Jets_PTLNu-100to200_2J_TuneCP5_13p6TeV_amcatnloFXFX-pythia8/NANOAODSIM/130X_mcRun3_2023_realistic_v14-v3/30000/c651eade-9484-4112-9ba5-493da23c37cc.root
/store/mc/Run3Summer23NanoAODv12/WtoLNu-2Jets_PTLNu-100to200_2J_TuneCP5_13p6TeV_amcatnloFXFX-pythia8/NANOAODSIM/130X_mcRun3_2023_realistic_v14-v3/30000/8e41e404-80f9-4384-9e05-f7c12eb0cc4d.root
/store/mc/Run3Summer23NanoAODv12/WtoLNu-2Jets_PTLNu-100to200_2J_TuneCP5_13p6TeV_amcatnloFXFX-pythia8/NANOAODSIM/130X_mcRun3_2023_realistic_v14-v3/30000/379f8b51-fb29-4d25-adc7-386fafdfde2a.root
/store/mc/Run3Summer23NanoAODv12/WtoLNu-2Jets_PTLNu-100to200_2J_TuneCP5_13p6TeV_amcatnloFXFX-pythia8/NANOAODSIM/130X_mcRun3_2023_realistic_v14-v3/30000/c8bd53e1-129c-403f-86bd-81503024e92b.root
/store/mc/Run3Summer23NanoAODv12/WtoLNu-2Jets_PTLNu-100to200_2J_TuneCP5_13p6TeV_amcatnloFXFX-pythia8/NANOAODSIM/130X_mcRun3_2023_realistic_v14-v3/30000/ac9c6eda-f82f-4ae9-8fd8-d8e9a072bde5.root
/store/mc/Run3Summer23NanoAODv12/WtoLNu-2Jets_PTLNu-100to200_2J_TuneCP5_13p6TeV_amcatnloFXFX-pythia8/NANOAODSIM/130X_mcRun3_2023_realistic_v14-v3/30000/c4b5e3f5-9d69-4be2-a6c9-86fefb944c7c.root
/store/mc/Run3Summer23NanoAODv12/WtoLNu-2Jets_PTLNu-100to200_2J_TuneCP5_13p6TeV_amcatnloFXFX-pythia8/NANOAODSIM/130X_mcRun3_2023_realistic_v14-v3/30000/3d424481-9cad-4171-a687-72d944d831e8.root
/store/mc/Run3Summer23NanoAODv12/WtoLNu-2Jets_PTLNu-100to200_2J_TuneCP5_13p6TeV_amcatnloFXFX-pythia8/NANOAODSIM/130X_mcRun3_2023_realistic_v14-v3/30000/77bb916e-8d47-42ea-b582-071351705f18.root
/store/mc/Run3Summer23NanoAODv12/WtoLNu-2Jets_PTLNu-100to200_2J_TuneCP5_13p6TeV_amcatnloFXFX-pythia8/NANOAODSIM/130X_mcRun3_2023_realistic_v14-v3/30000/849a0b53-1254-4785-8c3a-32f15b9af9de.root
/store/mc/Run3Summer23NanoAODv12/WtoLNu-2Jets_PTLNu-100to200_2J_TuneCP5_13p6TeV_amcatnloFXFX-pythia8/NANOAODSIM/130X_mcRun3_2023_realistic_v14-v3/30000/ec272511-d04f-4a8a-9044-0b2919649064.root
/store/mc/Run3Summer23NanoAODv12/WtoLNu-2Jets_PTLNu-100to200_2J_TuneCP5_13p6TeV_amcatnloFXFX-pythia8/NANOAODSIM/130X_mcRun3_2023_realistic_v14-v3/30000/9f467d67-f064-43d9-9b61-7d6555d9900f.root
/store/mc/Run3Summer23NanoAODv12/WtoLNu-2Jets_PTLNu-100to200_2J_TuneCP5_13p6TeV_amcatnloFXFX-pythia8/NANOAODSIM/130X_mcRun3_2023_realistic_v14-v3/30000/e6f3f84c-117d-4b22-b407-48ecb7a66b58.root
/store/mc/Run3Summer23NanoAODv12/WtoLNu-2Jets_PTLNu-100to200_2J_TuneCP5_13p6TeV_amcatnloFXFX-pythia8/NANOAODSIM/130X_mcRun3_2023_realistic_v14-v3/30000/915ab4fb-b477-419f-a049-52bb1c3e767d.root
/store/mc/Run3Summer23NanoAODv12/WtoLNu-2Jets_PTLNu-100to200_2J_TuneCP5_13p6TeV_amcatnloFXFX-pythia8/NANOAODSIM/130X_mcRun3_2023_realistic_v14-v3/40000/f4778132-cdf8-438d-973b-495e1a3c41f4.root
/store/mc/Run3Summer23NanoAODv12/WtoLNu-2Jets_PTLNu-100to200_2J_TuneCP5_13p6TeV_amcatnloFXFX-pythia8/NANOAODSIM/130X_mcRun3_2023_realistic_v14-v3/40000/c6628bd8-2ead-4962-868f-4ca87a19f6f8.root
/store/mc/Run3Summer23NanoAODv12/WtoLNu-2Jets_PTLNu-100to200_2J_TuneCP5_13p6TeV_amcatnloFXFX-pythia8/NANOAODSIM/130X_mcRun3_2023_realistic_v14-v3/40000/e83c61a3-61d4-421e-9a30-674fd2b614ce.root
/store/mc/Run3Summer23NanoAODv12/WtoLNu-2Jets_PTLNu-100to200_2J_TuneCP5_13p6TeV_amcatnloFXFX-pythia8/NANOAODSIM/130X_mcRun3_2023_realistic_v14-v3/40000/01c0610d-d148-4ccc-9c13-95aff74b7155.root
/store/mc/Run3Summer23NanoAODv12/WtoLNu-2Jets_PTLNu-100to200_2J_TuneCP5_13p6TeV_amcatnloFXFX-pythia8/NANOAODSIM/130X_mcRun3_2023_realistic_v14-v3/40000/7d3e7677-0289-4c9f-8435-561922ad69f8.root
/store/mc/Run3Summer23NanoAODv12/WtoLNu-2Jets_PTLNu-100to200_2J_TuneCP5_13p6TeV_amcatnloFXFX-pythia8/NANOAODSIM/130X_mcRun3_2023_realistic_v14-v3/40000/be3f912c-1349-4061-a8d3-8a20c57c2339.root
/store/mc/Run3Summer23NanoAODv12/WtoLNu-2Jets_PTLNu-100to200_2J_TuneCP5_13p6TeV_amcatnloFXFX-pythia8/NANOAODSIM/130X_mcRun3_2023_realistic_v14-v3/40000/22396339-b464-4790-9b64-96b35bcdb50e.root
/store/mc/Run3Summer23NanoAODv12/WtoLNu-2Jets_PTLNu-100to200_2J_TuneCP5_13p6TeV_amcatnloFXFX-pythia8/NANOAODSIM/130X_mcRun3_2023_realistic_v14-v3/30000/6661f66a-9cb1-4356-9787-068088fe1999.root
/store/mc/Run3Summer23NanoAODv12/WtoLNu-2Jets_PTLNu-100to200_2J_TuneCP5_13p6TeV_amcatnloFXFX-pythia8/NANOAODSIM/130X_mcRun3_2023_realistic_v14-v3/40000/faba9f78-fab0-48ae-ad99-730d598725c4.root
/store/mc/Run3Summer23NanoAODv12/WtoLNu-2Jets_PTLNu-100to200_2J_TuneCP5_13p6TeV_amcatnloFXFX-pythia8/NANOAODSIM/130X_mcRun3_2023_realistic_v14-v3/40000/a9f98888-8626-4252-aaee-a6fecb9bde7e.root
/store/mc/Run3Summer23NanoAODv12/WtoLNu-2Jets_PTLNu-100to200_2J_TuneCP5_13p6TeV_amcatnloFXFX-pythia8/NANOAODSIM/130X_mcRun3_2023_realistic_v14-v3/40000/b99471bd-eac7-409f-bfa3-a6bbe09a7ee7.root
/store/mc/Run3Summer23NanoAODv12/WtoLNu-2Jets_PTLNu-100to200_2J_TuneCP5_13p6TeV_amcatnloFXFX-pythia8/NANOAODSIM/130X_mcRun3_2023_realistic_v14-v3/40000/c7fb394c-ac2d-47af-b8ed-f4549861f073.root
/store/mc/Run3Summer23NanoAODv12/WtoLNu-2Jets_PTLNu-100to200_2J_TuneCP5_13p6TeV_amcatnloFXFX-pythia8/NANOAODSIM/130X_mcRun3_2023_realistic_v14-v3/40000/eea4d560-7f9b-4939-881f-49e27b1beacc.root
/store/mc/Run3Summer23NanoAODv12/WtoLNu-2Jets_PTLNu-100to200_2J_TuneCP5_13p6TeV_amcatnloFXFX-pythia8/NANOAODSIM/130X_mcRun3_2023_realistic_v14-v3/40000/b2f577cd-7971-4d05-b19c-2bdc66b2a034.root
/store/mc/Run3Summer23NanoAODv12/WtoLNu-2Jets_PTLNu-100to200_2J_TuneCP5_13p6TeV_amcatnloFXFX-pythia8/NANOAODSIM/130X_mcRun3_2023_realistic_v14-v3/40000/16a7f2b1-f040-4967-a15e-443dd50e805c.root
/store/mc/Run3Summer23NanoAODv12/WtoLNu-2Jets_PTLNu-100to200_2J_TuneCP5_13p6TeV_amcatnloFXFX-pythia8/NANOAODSIM/130X_mcRun3_2023_realistic_v14-v3/40000/c4f5a5f8-20dc-47ec-b1f5-8a88acf0f8da.root
/store/mc/Run3Summer23NanoAODv12/WtoLNu-2Jets_PTLNu-100to200_2J_TuneCP5_13p6TeV_amcatnloFXFX-pythia8/NANOAODSIM/130X_mcRun3_2023_realistic_v14-v3/40000/c6f1cb30-0ae6-493b-a462-4bb1c6892a8c.root
/store/mc/Run3Summer23NanoAODv12/WtoLNu-2Jets_PTLNu-100to200_2J_TuneCP5_13p6TeV_amcatnloFXFX-pythia8/NANOAODSIM/130X_mcRun3_2023_realistic_v14-v3/40000/7d648496-8ce5-4de8-9cd7-0b8dc2f7f943.root
/store/mc/Run3Summer23NanoAODv12/WtoLNu-2Jets_PTLNu-100to200_2J_TuneCP5_13p6TeV_amcatnloFXFX-pythia8/NANOAODSIM/130X_mcRun3_2023_realistic_v14-v3/40000/45726036-ecf8-4cff-bc20-2dcf863db8e7.root
/store/mc/Run3Summer23NanoAODv12/WtoLNu-2Jets_PTLNu-100to200_2J_TuneCP5_13p6TeV_amcatnloFXFX-pythia8/NANOAODSIM/130X_mcRun3_2023_realistic_v14-v3/40000/73d00312-1d96-4aa0-a4c3-19659a6ac10d.root
/store/mc/Run3Summer23NanoAODv12/WtoLNu-2Jets_PTLNu-100to200_2J_TuneCP5_13p6TeV_amcatnloFXFX-pythia8/NANOAODSIM/130X_mcRun3_2023_realistic_v14-v3/40000/58c5414c-d040-417c-95a6-68ae15c47de9.root
/store/mc/Run3Summer23NanoAODv12/WtoLNu-2Jets_PTLNu-100to200_2J_TuneCP5_13p6TeV_amcatnloFXFX-pythia8/NANOAODSIM/130X_mcRun3_2023_realistic_v14-v3/40000/1ae68085-2c45-4370-9e5c-5bb3205a4ab4.root
/store/mc/Run3Summer23NanoAODv12/WtoLNu-2Jets_PTLNu-100to200_2J_TuneCP5_13p6TeV_amcatnloFXFX-pythia8/NANOAODSIM/130X_mcRun3_2023_realistic_v14-v3/40000/57ad3a3e-df55-46af-b2bc-ca69f3344cc7.root
/store/mc/Run3Summer23NanoAODv12/WtoLNu-2Jets_PTLNu-100to200_2J_TuneCP5_13p6TeV_amcatnloFXFX-pythia8/NANOAODSIM/130X_mcRun3_2023_realistic_v14-v3/40000/bd72e7e0-2ac1-4998-8b11-855c2870eb9b.root
/store/mc/Run3Summer23NanoAODv12/WtoLNu-2Jets_PTLNu-100to200_2J_TuneCP5_13p6TeV_amcatnloFXFX-pythia8/NANOAODSIM/130X_mcRun3_2023_realistic_v14-v3/40000/2b11e5f3-e88e-4e54-86a4-771610c0f91e.root
/store/mc/Run3Summer23NanoAODv12/WtoLNu-2Jets_PTLNu-100to200_2J_TuneCP5_13p6TeV_amcatnloFXFX-pythia8/NANOAODSIM/130X_mcRun3_2023_realistic_v14-v3/40000/913e2536-7868-4ea1-a74a-4cfe6cb49e11.root
/store/mc/Run3Summer23NanoAODv12/WtoLNu-2Jets_PTLNu-100to200_2J_TuneCP5_13p6TeV_amcatnloFXFX-pythia8/NANOAODSIM/130X_mcRun3_2023_realistic_v14-v3/40000/544925c0-de98-4ab4-9667-381574bd0a5b.root
/store/mc/Run3Summer23NanoAODv12/WtoLNu-2Jets_PTLNu-100to200_2J_TuneCP5_13p6TeV_amcatnloFXFX-pythia8/NANOAODSIM/130X_mcRun3_2023_realistic_v14-v3/40000/2846c4bc-093c-4f90-8326-93540c67c5cc.root
/store/mc/Run3Summer23NanoAODv12/WtoLNu-2Jets_PTLNu-100to200_2J_TuneCP5_13p6TeV_amcatnloFXFX-pythia8/NANOAODSIM/130X_mcRun3_2023_realistic_v14-v3/40000/fd26976a-dde1-4cac-87e5-3f2ccb48f32e.root
/store/mc/Run3Summer23NanoAODv12/WtoLNu-2Jets_PTLNu-100to200_2J_TuneCP5_13p6TeV_amcatnloFXFX-pythia8/NANOAODSIM/130X_mcRun3_2023_realistic_v14-v3/40000/fc93d454-9709-4cf1-ac0f-b3d4c13b5aed.root
/store/mc/Run3Summer23NanoAODv12/WtoLNu-2Jets_PTLNu-100to200_2J_TuneCP5_13p6TeV_amcatnloFXFX-pythia8/NANOAODSIM/130X_mcRun3_2023_realistic_v14-v3/40000/1c8f1878-a668-465d-9122-552963bb32be.root
/store/mc/Run3Summer23NanoAODv12/WtoLNu-2Jets_PTLNu-100to200_2J_TuneCP5_13p6TeV_amcatnloFXFX-pythia8/NANOAODSIM/130X_mcRun3_2023_realistic_v14-v3/40000/1c57c924-fb83-449c-ba55-af71b7052e9d.root
/store/mc/Run3Summer23NanoAODv12/WtoLNu-2Jets_PTLNu-100to200_2J_TuneCP5_13p6TeV_amcatnloFXFX-pythia8/NANOAODSIM/130X_mcRun3_2023_realistic_v14-v3/40000/0b61a9ec-1303-461b-b06f-f88b9c7b7f7e.root
/store/mc/Run3Summer23NanoAODv12/WtoLNu-2Jets_PTLNu-100to200_2J_TuneCP5_13p6TeV_amcatnloFXFX-pythia8/NANOAODSIM/130X_mcRun3_2023_realistic_v14-v3/40000/be7092e6-a96a-47e3-832a-ed4a6f9d690e.root
/store/mc/Run3Summer23NanoAODv12/WtoLNu-2Jets_PTLNu-100to200_2J_TuneCP5_13p6TeV_amcatnloFXFX-pythia8/NANOAODSIM/130X_mcRun3_2023_realistic_v14-v3/40000/bf650ae3-b6a3-4877-8dfe-e2e7d239e472.root
/store/mc/Run3Summer23NanoAODv12/WtoLNu-2Jets_PTLNu-100to200_2J_TuneCP5_13p6TeV_amcatnloFXFX-pythia8/NANOAODSIM/130X_mcRun3_2023_realistic_v14-v3/30000/496775c9-4abc-4499-8415-4d701589f461.root
/store/mc/Run3Summer23NanoAODv12/WtoLNu-2Jets_PTLNu-100to200_2J_TuneCP5_13p6TeV_amcatnloFXFX-pythia8/NANOAODSIM/130X_mcRun3_2023_realistic_v14-v3/40000/89c06b7a-3431-4730-a32a-d041851f8270.root
/store/mc/Run3Summer23NanoAODv12/WtoLNu-2Jets_PTLNu-100to200_2J_TuneCP5_13p6TeV_amcatnloFXFX-pythia8/NANOAODSIM/130X_mcRun3_2023_realistic_v14-v3/40000/c5a58679-165a-44eb-8f6d-fc896b344eaa.root
/store/mc/Run3Summer23NanoAODv12/WtoLNu-2Jets_PTLNu-100to200_2J_TuneCP5_13p6TeV_amcatnloFXFX-pythia8/NANOAODSIM/130X_mcRun3_2023_realistic_v14-v3/40000/86437aeb-ec1c-4447-9cc5-6f3de7abfeca.root
/store/mc/Run3Summer23NanoAODv12/WtoLNu-2Jets_PTLNu-100to200_2J_TuneCP5_13p6TeV_amcatnloFXFX-pythia8/NANOAODSIM/130X_mcRun3_2023_realistic_v14-v3/40000/d48c82a1-5941-4684-a63e-4d90b50b6cbd.root
/store/mc/Run3Summer23NanoAODv12/WtoLNu-2Jets_PTLNu-100to200_2J_TuneCP5_13p6TeV_amcatnloFXFX-pythia8/NANOAODSIM/130X_mcRun3_2023_realistic_v14-v3/40000/9da75a0d-6550-4ee7-8a76-ee80af2cb239.root
/store/mc/Run3Summer23NanoAODv12/WtoLNu-2Jets_PTLNu-100to200_2J_TuneCP5_13p6TeV_amcatnloFXFX-pythia8/NANOAODSIM/130X_mcRun3_2023_realistic_v14-v3/40000/d795f5fb-d4ba-4776-bc5d-fda980a014e0.root
/store/mc/Run3Summer23NanoAODv12/WtoLNu-2Jets_PTLNu-100to200_2J_TuneCP5_13p6TeV_amcatnloFXFX-pythia8/NANOAODSIM/130X_mcRun3_2023_realistic_v14-v3/40000/888f46b7-2e57-4002-94c1-a4e6e4d32c05.root
/store/mc/Run3Summer23NanoAODv12/WtoLNu-2Jets_PTLNu-100to200_2J_TuneCP5_13p6TeV_amcatnloFXFX-pythia8/NANOAODSIM/130X_mcRun3_2023_realistic_v14-v3/40000/9a5b72f2-c958-410c-8702-0f588f362545.root
/store/mc/Run3Summer23NanoAODv12/WtoLNu-2Jets_PTLNu-100to200_2J_TuneCP5_13p6TeV_amcatnloFXFX-pythia8/NANOAODSIM/130X_mcRun3_2023_realistic_v14-v3/40000/16fd5e6c-1f1d-4b26-b86c-2d866261e9c2.root
/store/mc/Run3Summer23NanoAODv12/WtoLNu-2Jets_PTLNu-100to200_2J_TuneCP5_13p6TeV_amcatnloFXFX-pythia8/NANOAODSIM/130X_mcRun3_2023_realistic_v14-v3/40000/76b38d32-744d-460e-aac0-3c071ab6182e.root
/store/mc/Run3Summer23NanoAODv12/WtoLNu-2Jets_PTLNu-100to200_2J_TuneCP5_13p6TeV_amcatnloFXFX-pythia8/NANOAODSIM/130X_mcRun3_2023_realistic_v14-v3/40000/87ecd206-2425-43f2-92c2-97df6fd3d689.root
/store/mc/Run3Summer23NanoAODv12/WtoLNu-2Jets_PTLNu-100to200_2J_TuneCP5_13p6TeV_amcatnloFXFX-pythia8/NANOAODSIM/130X_mcRun3_2023_realistic_v14-v3/40000/ed5c86ac-fd01-4a7b-8847-72b928b8cbe9.root
/store/mc/Run3Summer23NanoAODv12/WtoLNu-2Jets_PTLNu-100to200_2J_TuneCP5_13p6TeV_amcatnloFXFX-pythia8/NANOAODSIM/130X_mcRun3_2023_realistic_v14-v3/40000/eeedc208-39d6-4f50-9657-ec98e4a24a8b.root
/store/mc/Run3Summer23NanoAODv12/WtoLNu-2Jets_PTLNu-100to200_2J_TuneCP5_13p6TeV_amcatnloFXFX-pythia8/NANOAODSIM/130X_mcRun3_2023_realistic_v14-v3/40000/13630315-0ad3-4707-b664-33e27e82fbf7.root
/store/mc/Run3Summer23NanoAODv12/WtoLNu-2Jets_PTLNu-100to200_2J_TuneCP5_13p6TeV_amcatnloFXFX-pythia8/NANOAODSIM/130X_mcRun3_2023_realistic_v14-v3/40000/071993bc-bced-4689-b7a1-bcdd815e3c6d.root
/store/mc/Run3Summer23NanoAODv12/WtoLNu-2Jets_PTLNu-100to200_2J_TuneCP5_13p6TeV_amcatnloFXFX-pythia8/NANOAODSIM/130X_mcRun3_2023_realistic_v14-v3/40000/45246e1a-dc7b-4526-8481-1921842d8b83.root
/store/mc/Run3Summer23NanoAODv12/WtoLNu-2Jets_PTLNu-100to200_2J_TuneCP5_13p6TeV_amcatnloFXFX-pythia8/NANOAODSIM/130X_mcRun3_2023_realistic_v14-v3/40000/ba0f5625-3ac3-4e65-8b5b-9d753f5b69fd.root
/store/mc/Run3Summer23NanoAODv12/WtoLNu-2Jets_PTLNu-100to200_2J_TuneCP5_13p6TeV_amcatnloFXFX-pythia8/NANOAODSIM/130X_mcRun3_2023_realistic_v14-v3/40000/d14758ac-f33c-4fd2-b0bc-07830df8151c.root
/store/mc/Run3Summer23NanoAODv12/WtoLNu-2Jets_PTLNu-100to200_2J_TuneCP5_13p6TeV_amcatnloFXFX-pythia8/NANOAODSIM/130X_mcRun3_2023_realistic_v14-v3/40000/e47af993-6de9-437c-8dc0-8027067bb3f5.root
/store/mc/Run3Summer23NanoAODv12/WtoLNu-2Jets_PTLNu-100to200_2J_TuneCP5_13p6TeV_amcatnloFXFX-pythia8/NANOAODSIM/130X_mcRun3_2023_realistic_v14-v3/40000/5ce72c49-4c3d-4c1a-ba8d-b99f52965d2c.root
/store/mc/Run3Summer23NanoAODv12/WtoLNu-2Jets_PTLNu-100to200_2J_TuneCP5_13p6TeV_amcatnloFXFX-pythia8/NANOAODSIM/130X_mcRun3_2023_realistic_v14-v3/40000/8c78d341-d1b9-476b-af48-698f34a712d1.root
/store/mc/Run3Summer23NanoAODv12/WtoLNu-2Jets_PTLNu-100to200_2J_TuneCP5_13p6TeV_amcatnloFXFX-pythia8/NANOAODSIM/130X_mcRun3_2023_realistic_v14-v3/40000/a1624578-989e-4fef-8d21-2999ca3ddbf9.root
/store/mc/Run3Summer23NanoAODv12/WtoLNu-2Jets_PTLNu-100to200_2J_TuneCP5_13p6TeV_amcatnloFXFX-pythia8/NANOAODSIM/130X_mcRun3_2023_realistic_v14-v3/40000/cdbeccf0-b951-4576-866f-32a22eb7f67f.root
/store/mc/Run3Summer23NanoAODv12/WtoLNu-2Jets_PTLNu-100to200_2J_TuneCP5_13p6TeV_amcatnloFXFX-pythia8/NANOAODSIM/130X_mcRun3_2023_realistic_v14-v3/40000/7642c70b-1e38-4f39-843a-20b82d45a5c0.root
/store/mc/Run3Summer23NanoAODv12/WtoLNu-2Jets_PTLNu-100to200_2J_TuneCP5_13p6TeV_amcatnloFXFX-pythia8/NANOAODSIM/130X_mcRun3_2023_realistic_v14-v3/40000/88fa46e7-496a-4a5f-828a-7bbb0b18f327.root
/store/mc/Run3Summer23NanoAODv12/WtoLNu-2Jets_PTLNu-100to200_2J_TuneCP5_13p6TeV_amcatnloFXFX-pythia8/NANOAODSIM/130X_mcRun3_2023_realistic_v14-v3/40000/f4a2ec2b-a553-49c0-9b8a-b62461d443aa.root
/store/mc/Run3Summer23NanoAODv12/WtoLNu-2Jets_PTLNu-100to200_2J_TuneCP5_13p6TeV_amcatnloFXFX-pythia8/NANOAODSIM/130X_mcRun3_2023_realistic_v14-v3/40000/16ad443c-cc4d-4e69-aea1-56bb3be5ac38.root
/store/mc/Run3Summer23NanoAODv12/WtoLNu-2Jets_PTLNu-100to200_2J_TuneCP5_13p6TeV_amcatnloFXFX-pythia8/NANOAODSIM/130X_mcRun3_2023_realistic_v14-v3/40000/7decb6ec-6a09-4f5d-bb48-37efd50031b0.root
/store/mc/Run3Summer23NanoAODv12/WtoLNu-2Jets_PTLNu-100to200_2J_TuneCP5_13p6TeV_amcatnloFXFX-pythia8/NANOAODSIM/130X_mcRun3_2023_realistic_v14-v3/40000/044b30ed-e6cc-46b4-9b42-0ceda841f9d9.root
/store/mc/Run3Summer23NanoAODv12/WtoLNu-2Jets_PTLNu-100to200_2J_TuneCP5_13p6TeV_amcatnloFXFX-pythia8/NANOAODSIM/130X_mcRun3_2023_realistic_v14-v3/40000/1f15df43-d3fc-4350-bb9f-75a3dbee5fec.root
/store/mc/Run3Summer23NanoAODv12/WtoLNu-2Jets_PTLNu-100to200_2J_TuneCP5_13p6TeV_amcatnloFXFX-pythia8/NANOAODSIM/130X_mcRun3_2023_realistic_v14-v3/40000/d79b208e-fb0a-4620-af41-0e87874c5de3.root
/store/mc/Run3Summer23NanoAODv12/WtoLNu-2Jets_PTLNu-100to200_2J_TuneCP5_13p6TeV_amcatnloFXFX-pythia8/NANOAODSIM/130X_mcRun3_2023_realistic_v14-v3/40000/aa78863d-0348-4621-bcfc-93ce8821cca3.root
/store/mc/Run3Summer23NanoAODv12/WtoLNu-2Jets_PTLNu-100to200_2J_TuneCP5_13p6TeV_amcatnloFXFX-pythia8/NANOAODSIM/130X_mcRun3_2023_realistic_v14-v3/40000/ccb7ec80-2cac-42de-b3a4-b8955622089e.root
/store/mc/Run3Summer23NanoAODv12/WtoLNu-2Jets_PTLNu-100to200_2J_TuneCP5_13p6TeV_amcatnloFXFX-pythia8/NANOAODSIM/130X_mcRun3_2023_realistic_v14-v3/40000/e44828b2-4b1d-4554-a030-4eff1a141125.root
/store/mc/Run3Summer23NanoAODv12/WtoLNu-2Jets_PTLNu-100to200_2J_TuneCP5_13p6TeV_amcatnloFXFX-pythia8/NANOAODSIM/130X_mcRun3_2023_realistic_v14-v3/40000/3c17dbf2-8246-46b5-8d02-59ac8be12e34.root
/store/mc/Run3Summer23NanoAODv12/WtoLNu-2Jets_PTLNu-100to200_2J_TuneCP5_13p6TeV_amcatnloFXFX-pythia8/NANOAODSIM/130X_mcRun3_2023_realistic_v14-v3/2820000/147e7b0d-1dbd-41fb-bbee-524b8c8ed0f1.root
/store/mc/Run3Summer23NanoAODv12/WtoLNu-2Jets_PTLNu-100to200_2J_TuneCP5_13p6TeV_amcatnloFXFX-pythia8/NANOAODSIM/130X_mcRun3_2023_realistic_v14-v3/2820000/75d2fe23-67eb-406e-af61-cfa69471ddc8.root
/store/mc/Run3Summer23NanoAODv12/WtoLNu-2Jets_PTLNu-100to200_2J_TuneCP5_13p6TeV_amcatnloFXFX-pythia8/NANOAODSIM/130X_mcRun3_2023_realistic_v14-v3/2820000/6c2d9ffb-079e-4b84-ba7b-d13c3b2fee65.root
/store/mc/Run3Summer23NanoAODv12/WtoLNu-2Jets_PTLNu-100to200_2J_TuneCP5_13p6TeV_amcatnloFXFX-pythia8/NANOAODSIM/130X_mcRun3_2023_realistic_v14-v3/2820000/d940fe7f-881c-40eb-8064-50076512401d.root
/store/mc/Run3Summer23NanoAODv12/WtoLNu-2Jets_PTLNu-100to200_2J_TuneCP5_13p6TeV_amcatnloFXFX-pythia8/NANOAODSIM/130X_mcRun3_2023_realistic_v14-v3/30000/f0f8409f-f6fd-4b31-8aeb-b654554d68f5.root
/store/mc/Run3Summer23NanoAODv12/WtoLNu-2Jets_PTLNu-100to200_2J_TuneCP5_13p6TeV_amcatnloFXFX-pythia8/NANOAODSIM/130X_mcRun3_2023_realistic_v14-v3/30000/c81ab730-46d5-47e1-b68a-d0673a48360c.root
/store/mc/Run3Summer23NanoAODv12/WtoLNu-2Jets_PTLNu-100to200_2J_TuneCP5_13p6TeV_amcatnloFXFX-pythia8/NANOAODSIM/130X_mcRun3_2023_realistic_v14-v3/30000/f6d29a53-dc07-4efd-aa0b-e17223b0d39b.root
/store/mc/Run3Summer23NanoAODv12/WtoLNu-2Jets_PTLNu-100to200_2J_TuneCP5_13p6TeV_amcatnloFXFX-pythia8/NANOAODSIM/130X_mcRun3_2023_realistic_v14-v3/30000/1c1da591-abc7-4896-958e-6786e23ca68c.root
/store/mc/Run3Summer23NanoAODv12/WtoLNu-2Jets_PTLNu-100to200_2J_TuneCP5_13p6TeV_amcatnloFXFX-pythia8/NANOAODSIM/130X_mcRun3_2023_realistic_v14-v3/30000/5e51202f-abc0-46bd-b6c0-9a792fcccc53.root
/store/mc/Run3Summer23NanoAODv12/WtoLNu-2Jets_PTLNu-100to200_2J_TuneCP5_13p6TeV_amcatnloFXFX-pythia8/NANOAODSIM/130X_mcRun3_2023_realistic_v14-v3/30000/c2153014-462d-4d13-b663-abc616a35b30.root
/store/mc/Run3Summer23NanoAODv12/WtoLNu-2Jets_PTLNu-100to200_2J_TuneCP5_13p6TeV_amcatnloFXFX-pythia8/NANOAODSIM/130X_mcRun3_2023_realistic_v14-v3/30000/140f2931-3e52-48d3-a9b5-ffb7baa3f751.root
/store/mc/Run3Summer23NanoAODv12/WtoLNu-2Jets_PTLNu-100to200_2J_TuneCP5_13p6TeV_amcatnloFXFX-pythia8/NANOAODSIM/130X_mcRun3_2023_realistic_v14-v3/30000/aa77fe54-7793-4c45-9649-7b302e47288b.root
/store/mc/Run3Summer23NanoAODv12/WtoLNu-2Jets_PTLNu-100to200_2J_TuneCP5_13p6TeV_amcatnloFXFX-pythia8/NANOAODSIM/130X_mcRun3_2023_realistic_v14-v3/30000/daab0082-5ad2-48b5-ab66-d2ce6c09681b.root
/store/mc/Run3Summer23NanoAODv12/WtoLNu-2Jets_PTLNu-100to200_2J_TuneCP5_13p6TeV_amcatnloFXFX-pythia8/NANOAODSIM/130X_mcRun3_2023_realistic_v14-v3/2820000/dd1f0132-29cb-4bae-9fae-2e2906735428.root
/store/mc/Run3Summer23NanoAODv12/WtoLNu-2Jets_PTLNu-100to200_2J_TuneCP5_13p6TeV_amcatnloFXFX-pythia8/NANOAODSIM/130X_mcRun3_2023_realistic_v14-v3/2820000/6cddeeaf-cc37-48b7-a7ef-c3c64caccc36.root
/store/mc/Run3Summer23NanoAODv12/WtoLNu-2Jets_PTLNu-100to200_2J_TuneCP5_13p6TeV_amcatnloFXFX-pythia8/NANOAODSIM/130X_mcRun3_2023_realistic_v14-v3/2820000/eadbccad-94b3-4fc0-82c6-c8cbe50c8924.root
/store/mc/Run3Summer23NanoAODv12/WtoLNu-2Jets_PTLNu-100to200_2J_TuneCP5_13p6TeV_amcatnloFXFX-pythia8/NANOAODSIM/130X_mcRun3_2023_realistic_v14-v3/2820000/a45a1b21-e536-4769-bf04-25aaa71d7c43.root
/store/mc/Run3Summer23NanoAODv12/WtoLNu-2Jets_PTLNu-100to200_2J_TuneCP5_13p6TeV_amcatnloFXFX-pythia8/NANOAODSIM/130X_mcRun3_2023_realistic_v14-v3/2820000/88393ce5-8dda-4d2c-bcd7-76442f719e33.root
/store/mc/Run3Summer23NanoAODv12/WtoLNu-2Jets_PTLNu-100to200_2J_TuneCP5_13p6TeV_amcatnloFXFX-pythia8/NANOAODSIM/130X_mcRun3_2023_realistic_v14-v3/30000/88a91580-81fb-4e20-a4b1-f22e7e7bb126.root
/store/mc/Run3Summer23NanoAODv12/WtoLNu-2Jets_PTLNu-100to200_2J_TuneCP5_13p6TeV_amcatnloFXFX-pythia8/NANOAODSIM/130X_mcRun3_2023_realistic_v14-v3/30000/e0cee395-a3c7-42b0-9c8b-4d14c902be23.root
/store/mc/Run3Summer23NanoAODv12/WtoLNu-2Jets_PTLNu-100to200_2J_TuneCP5_13p6TeV_amcatnloFXFX-pythia8/NANOAODSIM/130X_mcRun3_2023_realistic_v14-v3/30000/89def887-621b-4c4a-ae0c-53eea21cfbe6.root
/store/mc/Run3Summer23NanoAODv12/WtoLNu-2Jets_PTLNu-100to200_2J_TuneCP5_13p6TeV_amcatnloFXFX-pythia8/NANOAODSIM/130X_mcRun3_2023_realistic_v14-v3/30000/8a38591b-5ca5-4815-8e13-bfb53f04193a.root
/store/mc/Run3Summer23NanoAODv12/WtoLNu-2Jets_PTLNu-100to200_2J_TuneCP5_13p6TeV_amcatnloFXFX-pythia8/NANOAODSIM/130X_mcRun3_2023_realistic_v14-v3/30000/d21ff315-9486-43b9-971a-70dc60fcd8e1.root
/store/mc/Run3Summer23NanoAODv12/WtoLNu-2Jets_PTLNu-100to200_2J_TuneCP5_13p6TeV_amcatnloFXFX-pythia8/NANOAODSIM/130X_mcRun3_2023_realistic_v14-v3/30000/0a11621c-e7f1-4cf1-8ca6-5af0a5da71cf.root
/store/mc/Run3Summer23NanoAODv12/WtoLNu-2Jets_PTLNu-100to200_2J_TuneCP5_13p6TeV_amcatnloFXFX-pythia8/NANOAODSIM/130X_mcRun3_2023_realistic_v14-v3/30000/aaac59f0-9968-498f-80e2-e4743f67b926.root
/store/mc/Run3Summer23NanoAODv12/WtoLNu-2Jets_PTLNu-100to200_2J_TuneCP5_13p6TeV_amcatnloFXFX-pythia8/NANOAODSIM/130X_mcRun3_2023_realistic_v14-v3/30000/bada9587-fecd-4f77-91d6-af533df92955.root
/store/mc/Run3Summer23NanoAODv12/WtoLNu-2Jets_PTLNu-100to200_2J_TuneCP5_13p6TeV_amcatnloFXFX-pythia8/NANOAODSIM/130X_mcRun3_2023_realistic_v14-v3/30000/4abdb9ff-ed41-4f7f-b6a2-69db5c83f765.root
/store/mc/Run3Summer23NanoAODv12/WtoLNu-2Jets_PTLNu-100to200_2J_TuneCP5_13p6TeV_amcatnloFXFX-pythia8/NANOAODSIM/130X_mcRun3_2023_realistic_v14-v3/30000/062e8e7e-9650-4b86-a2bd-4fa0e0804c3e.root
/store/mc/Run3Summer23NanoAODv12/WtoLNu-2Jets_PTLNu-100to200_2J_TuneCP5_13p6TeV_amcatnloFXFX-pythia8/NANOAODSIM/130X_mcRun3_2023_realistic_v14-v3/30000/1041fd56-1fcb-4357-8a99-bb7cf56de8e8.root
/store/mc/Run3Summer23NanoAODv12/WtoLNu-2Jets_PTLNu-100to200_2J_TuneCP5_13p6TeV_amcatnloFXFX-pythia8/NANOAODSIM/130X_mcRun3_2023_realistic_v14-v3/2820000/128f3294-fe6a-47b3-b74c-bd984b742e5e.root
/store/mc/Run3Summer23NanoAODv12/WtoLNu-2Jets_PTLNu-100to200_2J_TuneCP5_13p6TeV_amcatnloFXFX-pythia8/NANOAODSIM/130X_mcRun3_2023_realistic_v14-v3/30000/b96add8c-73f0-432e-8380-aa94f1976abe.root
/store/mc/Run3Summer23NanoAODv12/WtoLNu-2Jets_PTLNu-100to200_2J_TuneCP5_13p6TeV_amcatnloFXFX-pythia8/NANOAODSIM/130X_mcRun3_2023_realistic_v14-v3/30000/d869b805-0b7c-471e-8cb9-1bfc4462bb15.root
/store/mc/Run3Summer23NanoAODv12/WtoLNu-2Jets_PTLNu-100to200_2J_TuneCP5_13p6TeV_amcatnloFXFX-pythia8/NANOAODSIM/130X_mcRun3_2023_realistic_v14-v3/2820000/02ecca9e-38a7-41b0-b6ec-87038586750b.root
/store/mc/Run3Summer23NanoAODv12/WtoLNu-2Jets_PTLNu-100to200_2J_TuneCP5_13p6TeV_amcatnloFXFX-pythia8/NANOAODSIM/130X_mcRun3_2023_realistic_v14-v3/2820000/5a0b1636-e3a5-4361-92d8-e28cb88fb625.root
/store/mc/Run3Summer23NanoAODv12/WtoLNu-2Jets_PTLNu-100to200_2J_TuneCP5_13p6TeV_amcatnloFXFX-pythia8/NANOAODSIM/130X_mcRun3_2023_realistic_v14-v3/2820000/68975b3b-9a3d-4fc8-9883-9b7a77c9b75b.root
/store/mc/Run3Summer23NanoAODv12/WtoLNu-2Jets_PTLNu-100to200_2J_TuneCP5_13p6TeV_amcatnloFXFX-pythia8/NANOAODSIM/130X_mcRun3_2023_realistic_v14-v3/30000/187659c1-1303-4013-a7b6-f96af11e5e43.root
/store/mc/Run3Summer23NanoAODv12/WtoLNu-2Jets_PTLNu-100to200_2J_TuneCP5_13p6TeV_amcatnloFXFX-pythia8/NANOAODSIM/130X_mcRun3_2023_realistic_v14-v3/30000/c372805a-babd-413b-8654-4d87003dc751.root
/store/mc/Run3Summer23NanoAODv12/WtoLNu-2Jets_PTLNu-100to200_2J_TuneCP5_13p6TeV_amcatnloFXFX-pythia8/NANOAODSIM/130X_mcRun3_2023_realistic_v14-v3/30000/34860572-639c-4d4c-9586-1959b103b73c.root
/store/mc/Run3Summer23NanoAODv12/WtoLNu-2Jets_PTLNu-100to200_2J_TuneCP5_13p6TeV_amcatnloFXFX-pythia8/NANOAODSIM/130X_mcRun3_2023_realistic_v14-v3/2820000/5542a808-1328-4f3b-9964-b0341b512b06.root
/store/mc/Run3Summer23NanoAODv12/WtoLNu-2Jets_PTLNu-100to200_2J_TuneCP5_13p6TeV_amcatnloFXFX-pythia8/NANOAODSIM/130X_mcRun3_2023_realistic_v14-v3/2820000/3f24bef0-20be-4c0c-b9b1-43feb2027534.root
/store/mc/Run3Summer23NanoAODv12/WtoLNu-2Jets_PTLNu-100to200_2J_TuneCP5_13p6TeV_amcatnloFXFX-pythia8/NANOAODSIM/130X_mcRun3_2023_realistic_v14-v3/30000/9537ad93-730d-4ca8-a552-20e7c3e6a035.root
/store/mc/Run3Summer23NanoAODv12/WtoLNu-2Jets_PTLNu-100to200_2J_TuneCP5_13p6TeV_amcatnloFXFX-pythia8/NANOAODSIM/130X_mcRun3_2023_realistic_v14-v3/2820000/39e4d034-4a61-48ae-902c-fc6759f64377.root
/store/mc/Run3Summer23NanoAODv12/WtoLNu-2Jets_PTLNu-100to200_2J_TuneCP5_13p6TeV_amcatnloFXFX-pythia8/NANOAODSIM/130X_mcRun3_2023_realistic_v14-v3/30000/4ad67745-6126-4d65-9144-28bb1124d6ef.root
/store/mc/Run3Summer23NanoAODv12/WtoLNu-2Jets_PTLNu-100to200_2J_TuneCP5_13p6TeV_amcatnloFXFX-pythia8/NANOAODSIM/130X_mcRun3_2023_realistic_v14-v3/30000/f21c5d23-43c7-4e65-a410-916b06f88895.root
/store/mc/Run3Summer23NanoAODv12/WtoLNu-2Jets_PTLNu-100to200_2J_TuneCP5_13p6TeV_amcatnloFXFX-pythia8/NANOAODSIM/130X_mcRun3_2023_realistic_v14-v3/30000/9c5bfd60-aad2-4ad1-aac5-57d1f7ce624c.root
/store/mc/Run3Summer23NanoAODv12/WtoLNu-2Jets_PTLNu-100to200_2J_TuneCP5_13p6TeV_amcatnloFXFX-pythia8/NANOAODSIM/130X_mcRun3_2023_realistic_v14-v3/2820000/f20fdc16-cfd9-410e-a671-79cc05800586.root
/store/mc/Run3Summer23NanoAODv12/WtoLNu-2Jets_PTLNu-100to200_2J_TuneCP5_13p6TeV_amcatnloFXFX-pythia8/NANOAODSIM/130X_mcRun3_2023_realistic_v14-v3/30000/605e02d5-48fc-4030-9543-77ec90719044.root
/store/mc/Run3Summer23NanoAODv12/WtoLNu-2Jets_PTLNu-100to200_2J_TuneCP5_13p6TeV_amcatnloFXFX-pythia8/NANOAODSIM/130X_mcRun3_2023_realistic_v14-v3/30000/b7fc9139-a019-490b-95a0-16ce08c1cca3.root
/store/mc/Run3Summer23NanoAODv12/WtoLNu-2Jets_PTLNu-100to200_2J_TuneCP5_13p6TeV_amcatnloFXFX-pythia8/NANOAODSIM/130X_mcRun3_2023_realistic_v14-v3/2820000/9531f8c2-8892-49c6-bdc3-3959d8e25ef3.root
/store/mc/Run3Summer23NanoAODv12/WtoLNu-2Jets_PTLNu-100to200_2J_TuneCP5_13p6TeV_amcatnloFXFX-pythia8/NANOAODSIM/130X_mcRun3_2023_realistic_v14-v3/2820000/f92fd84c-97ac-4bb4-bb29-fc1687c2a5f3.root
/store/mc/Run3Summer23NanoAODv12/WtoLNu-2Jets_PTLNu-100to200_2J_TuneCP5_13p6TeV_amcatnloFXFX-pythia8/NANOAODSIM/130X_mcRun3_2023_realistic_v14-v3/2820000/707d973b-89f9-479b-9621-3804260a948c.root
/store/mc/Run3Summer23NanoAODv12/WtoLNu-2Jets_PTLNu-100to200_2J_TuneCP5_13p6TeV_amcatnloFXFX-pythia8/NANOAODSIM/130X_mcRun3_2023_realistic_v14-v3/2820000/51f4fe87-394c-4ec2-94a1-469ebeafa3cf.root
/store/mc/Run3Summer23NanoAODv12/WtoLNu-2Jets_PTLNu-100to200_2J_TuneCP5_13p6TeV_amcatnloFXFX-pythia8/NANOAODSIM/130X_mcRun3_2023_realistic_v14-v3/2820000/c263a780-7677-4ffe-8b06-d2e99189d9c3.root
/store/mc/Run3Summer23NanoAODv12/WtoLNu-2Jets_PTLNu-100to200_2J_TuneCP5_13p6TeV_amcatnloFXFX-pythia8/NANOAODSIM/130X_mcRun3_2023_realistic_v14-v3/2820000/1185076f-eef3-4bb1-ac01-336517f81e34.root
/store/mc/Run3Summer23NanoAODv12/WtoLNu-2Jets_PTLNu-100to200_2J_TuneCP5_13p6TeV_amcatnloFXFX-pythia8/NANOAODSIM/130X_mcRun3_2023_realistic_v14-v3/2820000/627c6242-2518-415e-8eb1-2429363d71d3.root
/store/mc/Run3Summer23NanoAODv12/WtoLNu-2Jets_PTLNu-100to200_2J_TuneCP5_13p6TeV_amcatnloFXFX-pythia8/NANOAODSIM/130X_mcRun3_2023_realistic_v14-v3/30000/68d4de76-5609-4548-86b4-789f25fb6376.root
/store/mc/Run3Summer23NanoAODv12/WtoLNu-2Jets_PTLNu-100to200_2J_TuneCP5_13p6TeV_amcatnloFXFX-pythia8/NANOAODSIM/130X_mcRun3_2023_realistic_v14-v3/2820000/01af66ca-a182-4c8c-a226-a60e200572e1.root
/store/mc/Run3Summer23NanoAODv12/WtoLNu-2Jets_PTLNu-100to200_2J_TuneCP5_13p6TeV_amcatnloFXFX-pythia8/NANOAODSIM/130X_mcRun3_2023_realistic_v14-v3/30000/dec5323a-0d06-4a49-9a6c-d1ab4e4886eb.root
/store/mc/Run3Summer23NanoAODv12/WtoLNu-2Jets_PTLNu-100to200_2J_TuneCP5_13p6TeV_amcatnloFXFX-pythia8/NANOAODSIM/130X_mcRun3_2023_realistic_v14-v3/30000/771e0d8e-f24c-48b5-be2a-10cbf9defd8c.root
/store/mc/Run3Summer23NanoAODv12/WtoLNu-2Jets_PTLNu-100to200_2J_TuneCP5_13p6TeV_amcatnloFXFX-pythia8/NANOAODSIM/130X_mcRun3_2023_realistic_v14-v3/30000/fdf7fafe-7702-4254-b445-fbe50848e9e9.root
/store/mc/Run3Summer23NanoAODv12/WtoLNu-2Jets_PTLNu-100to200_2J_TuneCP5_13p6TeV_amcatnloFXFX-pythia8/NANOAODSIM/130X_mcRun3_2023_realistic_v14-v3/30000/dfa43fef-dc2e-46a2-a4fc-c68031b1e3da.root
/store/mc/Run3Summer23NanoAODv12/WtoLNu-2Jets_PTLNu-100to200_2J_TuneCP5_13p6TeV_amcatnloFXFX-pythia8/NANOAODSIM/130X_mcRun3_2023_realistic_v14-v3/2820000/90d203b1-431e-46b2-92e1-15ce085d3d47.root
/store/mc/Run3Summer23NanoAODv12/WtoLNu-2Jets_PTLNu-100to200_2J_TuneCP5_13p6TeV_amcatnloFXFX-pythia8/NANOAODSIM/130X_mcRun3_2023_realistic_v14-v3/30000/ec4ba995-28a4-4533-ad93-63cef1306bd4.root
/store/mc/Run3Summer23NanoAODv12/WtoLNu-2Jets_PTLNu-100to200_2J_TuneCP5_13p6TeV_amcatnloFXFX-pythia8/NANOAODSIM/130X_mcRun3_2023_realistic_v14-v3/30000/965434a5-a4b5-4487-81a2-df8cdb4d6225.root
/store/mc/Run3Summer23NanoAODv12/WtoLNu-2Jets_PTLNu-100to200_2J_TuneCP5_13p6TeV_amcatnloFXFX-pythia8/NANOAODSIM/130X_mcRun3_2023_realistic_v14-v3/2820000/8f0815c0-e1bc-4282-a04b-5feefd361811.root
/store/mc/Run3Summer23NanoAODv12/WtoLNu-2Jets_PTLNu-100to200_2J_TuneCP5_13p6TeV_amcatnloFXFX-pythia8/NANOAODSIM/130X_mcRun3_2023_realistic_v14-v3/2820000/65f057a8-0f9d-40dc-8bf4-40fc20024719.root
/store/mc/Run3Summer23NanoAODv12/WtoLNu-2Jets_PTLNu-100to200_2J_TuneCP5_13p6TeV_amcatnloFXFX-pythia8/NANOAODSIM/130X_mcRun3_2023_realistic_v14-v3/30000/a842c0d5-9841-47bf-84aa-35abcfce2dd4.root
/store/mc/Run3Summer23NanoAODv12/WtoLNu-2Jets_PTLNu-100to200_2J_TuneCP5_13p6TeV_amcatnloFXFX-pythia8/NANOAODSIM/130X_mcRun3_2023_realistic_v14-v3/30000/fb8c82cb-4866-4045-8cab-d7914e61c01f.root
/store/mc/Run3Summer23NanoAODv12/WtoLNu-2Jets_PTLNu-100to200_2J_TuneCP5_13p6TeV_amcatnloFXFX-pythia8/NANOAODSIM/130X_mcRun3_2023_realistic_v14-v3/30000/13483b23-5f02-46b3-a312-dcf9e73389e7.root
/store/mc/Run3Summer23NanoAODv12/WtoLNu-2Jets_PTLNu-100to200_2J_TuneCP5_13p6TeV_amcatnloFXFX-pythia8/NANOAODSIM/130X_mcRun3_2023_realistic_v14-v3/40000/d8b1bdb3-ff68-4ce3-a24f-0b7ada5affc9.root
/store/mc/Run3Summer23NanoAODv12/WtoLNu-2Jets_PTLNu-100to200_2J_TuneCP5_13p6TeV_amcatnloFXFX-pythia8/NANOAODSIM/130X_mcRun3_2023_realistic_v14-v3/40000/af75a164-819b-4992-9f2c-02038a497f31.root
/store/mc/Run3Summer23NanoAODv12/WtoLNu-2Jets_PTLNu-100to200_2J_TuneCP5_13p6TeV_amcatnloFXFX-pythia8/NANOAODSIM/130X_mcRun3_2023_realistic_v14-v3/40000/da0b3988-62e6-4bee-b7c3-e1554cec1786.root
/store/mc/Run3Summer23NanoAODv12/WtoLNu-2Jets_PTLNu-100to200_2J_TuneCP5_13p6TeV_amcatnloFXFX-pythia8/NANOAODSIM/130X_mcRun3_2023_realistic_v14-v3/40000/ead76865-1d5c-4a97-aa2f-366b5c7b25e9.root
/store/mc/Run3Summer23NanoAODv12/WtoLNu-2Jets_PTLNu-100to200_2J_TuneCP5_13p6TeV_amcatnloFXFX-pythia8/NANOAODSIM/130X_mcRun3_2023_realistic_v14-v3/40000/55e276a9-f4fa-4c15-afdd-4446767599f1.root
/store/mc/Run3Summer23NanoAODv12/WtoLNu-2Jets_PTLNu-100to200_2J_TuneCP5_13p6TeV_amcatnloFXFX-pythia8/NANOAODSIM/130X_mcRun3_2023_realistic_v14-v3/40000/d8bdeea8-ffc7-4f0e-b7b6-5a66e378691d.root
/store/mc/Run3Summer23NanoAODv12/WtoLNu-2Jets_PTLNu-100to200_2J_TuneCP5_13p6TeV_amcatnloFXFX-pythia8/NANOAODSIM/130X_mcRun3_2023_realistic_v14-v3/40000/05350c9b-ca16-4eb6-bb7c-f3550a3757ac.root
/store/mc/Run3Summer23NanoAODv12/WtoLNu-2Jets_PTLNu-100to200_2J_TuneCP5_13p6TeV_amcatnloFXFX-pythia8/NANOAODSIM/130X_mcRun3_2023_realistic_v14-v3/40000/7cfddf62-ac01-4926-976d-e61b6d4de51f.root
/store/mc/Run3Summer23NanoAODv12/WtoLNu-2Jets_PTLNu-100to200_2J_TuneCP5_13p6TeV_amcatnloFXFX-pythia8/NANOAODSIM/130X_mcRun3_2023_realistic_v14-v3/40000/f7b2657e-a0a3-45f8-ab1a-9f00b8f89830.root
/store/mc/Run3Summer23NanoAODv12/WtoLNu-2Jets_PTLNu-100to200_2J_TuneCP5_13p6TeV_amcatnloFXFX-pythia8/NANOAODSIM/130X_mcRun3_2023_realistic_v14-v3/40000/c155e8ee-b3d5-40b9-9e00-5869ac5078c8.root
/store/mc/Run3Summer23NanoAODv12/WtoLNu-2Jets_PTLNu-100to200_2J_TuneCP5_13p6TeV_amcatnloFXFX-pythia8/NANOAODSIM/130X_mcRun3_2023_realistic_v14-v3/40000/fbcae9a6-13b8-42a4-a449-415d67cc73f6.root
/store/mc/Run3Summer23NanoAODv12/WtoLNu-2Jets_PTLNu-100to200_2J_TuneCP5_13p6TeV_amcatnloFXFX-pythia8/NANOAODSIM/130X_mcRun3_2023_realistic_v14-v3/40000/cea14596-eebc-4f15-b5f9-384c30d46297.root
/store/mc/Run3Summer23NanoAODv12/WtoLNu-2Jets_PTLNu-100to200_2J_TuneCP5_13p6TeV_amcatnloFXFX-pythia8/NANOAODSIM/130X_mcRun3_2023_realistic_v14-v3/40000/ace7cba0-dede-4635-9f29-d0df3a52721e.root
/store/mc/Run3Summer23NanoAODv12/WtoLNu-2Jets_PTLNu-100to200_2J_TuneCP5_13p6TeV_amcatnloFXFX-pythia8/NANOAODSIM/130X_mcRun3_2023_realistic_v14-v3/40000/a62bd1a4-f1e4-428b-8f15-2d29ea142eaf.root
/store/mc/Run3Summer23NanoAODv12/WtoLNu-2Jets_PTLNu-100to200_2J_TuneCP5_13p6TeV_amcatnloFXFX-pythia8/NANOAODSIM/130X_mcRun3_2023_realistic_v14-v3/40000/abda3ca9-1b72-43f4-8e2c-632cc1dd09b5.root
/store/mc/Run3Summer23NanoAODv12/WtoLNu-2Jets_PTLNu-100to200_2J_TuneCP5_13p6TeV_amcatnloFXFX-pythia8/NANOAODSIM/130X_mcRun3_2023_realistic_v14-v3/40000/8c551dd8-28cb-4f0f-ae92-d9bf5eabf74b.root
/store/mc/Run3Summer23NanoAODv12/WtoLNu-2Jets_PTLNu-100to200_2J_TuneCP5_13p6TeV_amcatnloFXFX-pythia8/NANOAODSIM/130X_mcRun3_2023_realistic_v14-v3/40000/f9238508-0611-475d-acfe-d45881976387.root
/store/mc/Run3Summer23NanoAODv12/WtoLNu-2Jets_PTLNu-100to200_2J_TuneCP5_13p6TeV_amcatnloFXFX-pythia8/NANOAODSIM/130X_mcRun3_2023_realistic_v14-v3/40000/d48d2897-a784-4d7f-aadf-ab58126b54bf.root
/store/mc/Run3Summer23NanoAODv12/WtoLNu-2Jets_PTLNu-100to200_2J_TuneCP5_13p6TeV_amcatnloFXFX-pythia8/NANOAODSIM/130X_mcRun3_2023_realistic_v14-v3/40000/4b1a8b61-5446-42a2-8575-874056dc44e0.root
/store/mc/Run3Summer23NanoAODv12/WtoLNu-2Jets_PTLNu-100to200_2J_TuneCP5_13p6TeV_amcatnloFXFX-pythia8/NANOAODSIM/130X_mcRun3_2023_realistic_v14-v3/40000/5fbf3d9e-555a-4a9b-a60e-3b1ff4b0ecc6.root
/store/mc/Run3Summer23NanoAODv12/WtoLNu-2Jets_PTLNu-100to200_2J_TuneCP5_13p6TeV_amcatnloFXFX-pythia8/NANOAODSIM/130X_mcRun3_2023_realistic_v14-v3/40000/87bd7c27-0dc7-4bcc-a790-5b5290954ab5.root
/store/mc/Run3Summer23NanoAODv12/WtoLNu-2Jets_PTLNu-100to200_2J_TuneCP5_13p6TeV_amcatnloFXFX-pythia8/NANOAODSIM/130X_mcRun3_2023_realistic_v14-v3/40000/c1563961-5991-43de-add0-a52b78239d8b.root
/store/mc/Run3Summer23NanoAODv12/WtoLNu-2Jets_PTLNu-100to200_2J_TuneCP5_13p6TeV_amcatnloFXFX-pythia8/NANOAODSIM/130X_mcRun3_2023_realistic_v14-v3/40000/59379f5b-1dac-442f-b1e0-b50b593ac8ef.root
/store/mc/Run3Summer23NanoAODv12/WtoLNu-2Jets_PTLNu-100to200_2J_TuneCP5_13p6TeV_amcatnloFXFX-pythia8/NANOAODSIM/130X_mcRun3_2023_realistic_v14-v3/40000/15f7463a-c3e6-441c-87cb-c03dcf0c97b5.root
/store/mc/Run3Summer23NanoAODv12/WtoLNu-2Jets_PTLNu-100to200_2J_TuneCP5_13p6TeV_amcatnloFXFX-pythia8/NANOAODSIM/130X_mcRun3_2023_realistic_v14-v3/40000/dfa205e3-82fe-4c9f-80b1-5b88a3ea3bce.root
/store/mc/Run3Summer23NanoAODv12/WtoLNu-2Jets_PTLNu-100to200_2J_TuneCP5_13p6TeV_amcatnloFXFX-pythia8/NANOAODSIM/130X_mcRun3_2023_realistic_v14-v3/40000/f25f6e3a-9f3b-4410-8017-8563660dbc19.root
/store/mc/Run3Summer23NanoAODv12/WtoLNu-2Jets_PTLNu-100to200_2J_TuneCP5_13p6TeV_amcatnloFXFX-pythia8/NANOAODSIM/130X_mcRun3_2023_realistic_v14-v3/40000/6c2e094c-e889-4af3-8a43-e9dbb5b2b97d.root
/store/mc/Run3Summer23NanoAODv12/WtoLNu-2Jets_PTLNu-100to200_2J_TuneCP5_13p6TeV_amcatnloFXFX-pythia8/NANOAODSIM/130X_mcRun3_2023_realistic_v14-v3/40000/ec3af180-5e62-44da-b6bd-c8b07548b1e5.root
/store/mc/Run3Summer23NanoAODv12/WtoLNu-2Jets_PTLNu-100to200_2J_TuneCP5_13p6TeV_amcatnloFXFX-pythia8/NANOAODSIM/130X_mcRun3_2023_realistic_v14-v3/40000/87803f12-b3ca-4f33-9bcf-503b43b54997.root
/store/mc/Run3Summer23NanoAODv12/WtoLNu-2Jets_PTLNu-100to200_2J_TuneCP5_13p6TeV_amcatnloFXFX-pythia8/NANOAODSIM/130X_mcRun3_2023_realistic_v14-v3/40000/16129bb4-0144-40f7-888b-5bdf71f7a14a.root
/store/mc/Run3Summer23NanoAODv12/WtoLNu-2Jets_PTLNu-100to200_2J_TuneCP5_13p6TeV_amcatnloFXFX-pythia8/NANOAODSIM/130X_mcRun3_2023_realistic_v14-v3/40000/d0419fc7-82d0-4dcc-ac78-14ae7329f70d.root
/store/mc/Run3Summer23NanoAODv12/WtoLNu-2Jets_PTLNu-100to200_2J_TuneCP5_13p6TeV_amcatnloFXFX-pythia8/NANOAODSIM/130X_mcRun3_2023_realistic_v14-v3/40000/642024f0-1857-4ac6-a5d4-908286eb129a.root
/store/mc/Run3Summer23NanoAODv12/WtoLNu-2Jets_PTLNu-100to200_2J_TuneCP5_13p6TeV_amcatnloFXFX-pythia8/NANOAODSIM/130X_mcRun3_2023_realistic_v14-v3/40000/b1df5849-96d5-4a79-8692-3da5f7cfaaa2.root
/store/mc/Run3Summer23NanoAODv12/WtoLNu-2Jets_PTLNu-100to200_2J_TuneCP5_13p6TeV_amcatnloFXFX-pythia8/NANOAODSIM/130X_mcRun3_2023_realistic_v14-v3/40000/e54afadd-4495-4bf5-b0cf-51ac9a631891.root
/store/mc/Run3Summer23NanoAODv12/WtoLNu-2Jets_PTLNu-100to200_2J_TuneCP5_13p6TeV_amcatnloFXFX-pythia8/NANOAODSIM/130X_mcRun3_2023_realistic_v14-v3/40000/e00bb554-2ff5-4f8c-9ce9-c82b57d2927a.root